waveform/tb_core_sc.vcd
$date
	Sun Jun 14 15:37:49 2026
$end
$version
	Icarus Verilog
$end
$timescale
	1ps
$end
$scope module tb_core_sc $end
$var wire 32 ! imem_rdata [31:0] $end
$var wire 32 " imem_addr [31:0] $end
$var wire 4 # dmem_wstrb [3:0] $end
$var wire 1 $ dmem_we $end
$var wire 32 % dmem_wdata [31:0] $end
$var wire 32 & dmem_rdata [31:0] $end
$var wire 32 ' dmem_addr [31:0] $end
$var reg 1 ( clk $end
$var reg 1 ) rst_n $end
$var integer 32 * c [31:0] $end
$var integer 32 + errors [31:0] $end
$scope module dut $end
$var wire 1 , branch_taken $end
$var wire 1 ( clk $end
$var wire 32 - dmem_addr [31:0] $end
$var wire 32 . dmem_wdata [31:0] $end
$var wire 1 $ dmem_we $end
$var wire 32 / imem_addr [31:0] $end
$var wire 32 0 instr [31:0] $end
$var wire 32 1 jalr_target [31:0] $end
$var wire 32 2 mem_addr [31:0] $end
$var wire 1 ) rst_n $end
$var wire 32 3 wb_data [31:0] $end
$var wire 2 4 wb_sel [1:0] $end
$var wire 32 5 rs2_data [31:0] $end
$var wire 5 6 rs2_addr [4:0] $end
$var wire 32 7 rs1_data [31:0] $end
$var wire 5 8 rs1_addr [4:0] $end
$var wire 1 9 reg_write $end
$var wire 5 : rd_addr [4:0] $end
$var wire 32 ; pc_target [31:0] $end
$var wire 32 < pc_plus4 [31:0] $end
$var wire 7 = opcode [6:0] $end
$var wire 2 > off [1:0] $end
$var wire 32 ? next_pc [31:0] $end
$var wire 1 @ mem_write $end
$var wire 1 A mem_read $end
$var wire 16 B ld_half [15:0] $end
$var wire 8 C ld_byte [7:0] $end
$var wire 1 D jump $end
$var wire 1 E jalr $end
$var wire 3 F imm_sel [2:0] $end
$var wire 32 G imm [31:0] $end
$var wire 32 H imem_rdata [31:0] $end
$var wire 1 I funct7b5 $end
$var wire 3 J funct3 [2:0] $end
$var wire 4 K dmem_wstrb [3:0] $end
$var wire 32 L dmem_rdata [31:0] $end
$var wire 1 M branch $end
$var wire 1 N alu_zero $end
$var wire 32 O alu_result [31:0] $end
$var wire 4 P alu_op [3:0] $end
$var wire 1 Q alu_b_src $end
$var wire 32 R alu_b [31:0] $end
$var wire 1 S alu_a_src $end
$var wire 32 T alu_a [31:0] $end
$var reg 1 U branch_cond $end
$var reg 32 V load_data [31:0] $end
$var reg 32 W pc [31:0] $end
$var reg 32 X store_data [31:0] $end
$var reg 4 Y store_strb [3:0] $end
$var reg 32 Z wb_mux [31:0] $end
$scope module u_alu $end
$var wire 32 [ a [31:0] $end
$var wire 32 \ b [31:0] $end
$var wire 1 N zero $end
$var wire 5 ] shamt [4:0] $end
$var wire 4 ^ alu_op [3:0] $end
$var reg 32 _ result [31:0] $end
$upscope $end
$scope module u_ctrl $end
$var wire 12 ` funct12 [11:0] $end
$var wire 3 a funct3 [2:0] $end
$var wire 5 b funct5 [4:0] $end
$var wire 1 c funct7b0 $end
$var wire 1 I funct7b5 $end
$var wire 7 d opcode [6:0] $end
$var reg 1 S alu_a_src $end
$var reg 4 e alu_arith [3:0] $end
$var reg 1 Q alu_b_src $end
$var reg 4 f alu_op [3:0] $end
$var reg 5 g amo_op [4:0] $end
$var reg 1 M branch $end
$var reg 1 h illegal $end
$var reg 3 i imm_sel [2:0] $end
$var reg 1 j is_amo $end
$var reg 1 k is_csr $end
$var reg 1 l is_lr $end
$var reg 1 m is_muldiv $end
$var reg 1 n is_sc $end
$var reg 1 E jalr $end
$var reg 1 D jump $end
$var reg 1 A mem_read $end
$var reg 1 @ mem_write $end
$var reg 1 9 reg_write $end
$var reg 1 o sys_ebreak $end
$var reg 1 p sys_ecall $end
$var reg 1 q sys_mret $end
$var reg 1 r sys_sret $end
$var reg 2 s wb_sel [1:0] $end
$upscope $end
$scope module u_imm $end
$var wire 3 t imm_sel [2:0] $end
$var wire 32 u instr [31:0] $end
$var reg 32 v imm [31:0] $end
$upscope $end
$scope module u_rf $end
$var wire 1 ( clk $end
$var wire 5 w rd_addr [4:0] $end
$var wire 32 x rd_data [31:0] $end
$var wire 5 y rs1_addr [4:0] $end
$var wire 5 z rs2_addr [4:0] $end
$var wire 1 9 we $end
$var wire 32 { rs2_data [31:0] $end
$var wire 32 | rs1_data [31:0] $end
$var integer 32 } i [31:0] $end
$upscope $end
$upscope $end
$scope module u_dmem $end
$var wire 32 ~ addr [31:0] $end
$var wire 1 ( clk $end
$var wire 32 !" rdata [31:0] $end
$var wire 32 "" wdata [31:0] $end
$var wire 1 $ we $end
$var wire 4 #" wstrb [3:0] $end
$var wire 8 $" widx [7:0] $end
$var parameter 32 %" WORDS $end
$var integer 32 &" k [31:0] $end
$upscope $end
$scope module u_imem $end
$var wire 32 '" addr [31:0] $end
$var wire 32 (" rdata [31:0] $end
$var parameter 32 )" WORDS $end
$var integer 32 *" k [31:0] $end
$upscope $end
$scope task chk $end
$var reg 32 +" exp [31:0] $end
$var reg 32 ," got [31:0] $end
$var integer 32 -" id [31:0] $end
$upscope $end
$upscope $end
$enddefinitions $end
$comment Show the parameter values. $end
$dumpall
b100000000 )"
b100000000 %"
$end
#0
$dumpvars
bx -"
bx ,"
bx +"
b100000000 *"
b10010011 ("
b0 '"
b100000000 &"
b0 $"
b0 #"
b0 ""
b0 !"
b0 ~
b100000 }
b0 |
b0 {
b0 z
b0 y
b0 x
b1 w
b0 v
b10010011 u
b0 t
b0 s
0r
0q
0p
0o
0n
0m
0l
0k
0j
b0 i
0h
b0 g
b0 f
b0 e
b10011 d
0c
b0 b
b0 a
b0 `
b0 _
b0 ^
b0 ]
b0 \
b0 [
b0 Z
b1 Y
b0 X
b0 W
b0 V
1U
b0 T
0S
b0 R
1Q
b0 P
b0 O
1N
0M
b0 L
b0 K
b0 J
0I
b10010011 H
b0 G
b0 F
0E
0D
b0 C
b0 B
0A
0@
b100 ?
b0 >
b10011 =
b100 <
b0 ;
b1 :
19
b0 8
b0 7
b0 6
b0 5
b0 4
b0 3
b0 2
b0 1
b10010011 0
b0 /
b0 .
b0 -
0,
b0 +
bx *
0)
0(
b0 '
b0 &
b0 %
0$
b0 #
b0 "
b10010011 !
$end
#5000
1(
#10000
0(
#15000
1(
#20000
b0 *
1)
0(
#25000
b10 Y
b1 3
b1 x
b1 Z
b1 >
0N
b1 '
b1 -
b1 ~
b1 2
b1 O
b1 _
b1 ]
b1000 ?
1Q
19
b1 R
b1 \
b10 :
b10 w
b1 6
b1 z
b1 `
b1 G
b1 v
b100000000000100010011 0
b100000000000100010011 u
b100000000000100010011 !
b100000000000100010011 H
b100000000000100010011 ("
b1000 <
b101 ;
b100 "
b100 /
b100 '"
b100 W
1(
#30000
b1 *
0(
#35000
b1000 Y
b1011 3
b1011 x
b1011 Z
b10 $"
bx00000000 B
b11 >
b1011 '
b1011 -
b1011 ~
b1011 2
b1011 O
b1011 _
b1011 ]
b1100 ?
1Q
19
b1010 1
b1011 R
b1011 \
b11 :
b11 w
b1011 6
b1011 z
b1011 `
b1011 G
b1011 v
b101100000000000110010011 0
b101100000000000110010011 u
b101100000000000110010011 !
b101100000000000110010011 H
b101100000000000110010011 ("
b1100 <
b10011 ;
b1000 "
b1000 /
b1000 '"
b1000 W
1(
#40000
b10 *
0(
#45000
b1 3
b1 x
b1 Z
b0 $"
b0 B
b1 >
0U
b10 Y
b100000000 %
b100000000 .
b100000000 ""
b100000000 X
b1 '
b1 -
b1 ~
b1 2
b1 O
b1 _
b1 ]
b10000 ?
b1 5
b1 {
0Q
19
b10 1
b1 R
b1 \
b110011 =
b110011 d
b1 :
b1 w
b1 8
b1 y
b10 6
b10 z
b10 `
b10 G
b10 v
b1000001000000010110011 0
b1000001000000010110011 u
b1000001000000010110011 !
b1000001000000010110011 H
b1000001000000010110011 ("
b10000 <
b1110 ;
b1100 "
b1100 /
b1100 '"
b1100 W
1(
#50000
b11 *
0(
#55000
b100 Y
b10000000000000000 %
b10000000000000000 .
b10000000000000000 ""
b10000000000000000 X
b10 3
b10 x
b10 Z
b10 >
b10 '
b10 -
b10 ~
b10 2
b10 O
b10 _
b10100 ?
1Q
19
b1 T
b1 [
1U
b10011 =
b10011 d
b10 :
b10 w
b10 8
b10 y
b1 6
b1 z
b1 `
b1 G
b1 v
b1 7
b1 |
b100010000000100010011 0
b100010000000100010011 u
b100010000000100010011 !
b100010000000100010011 H
b100010000000100010011 ("
b10100 <
b10001 ;
b10000 "
b10000 /
b10000 '"
b10000 W
1(
#60000
b100 *
0(
#65000
1,
b1101 3
b1101 x
b1101 Z
b11 $"
b1 >
b1011 ]
b1101 '
b1101 -
b1101 ~
b1101 2
b1101 O
b1101 _
b1100 ?
b1011 5
b1011 {
b0 Y
b1011 %
b1011 .
b1011 ""
b1011 X
b101 e
b10 F
b10 i
b10 t
1M
0Q
09
b1011 R
b1011 \
b11111111111111111111111111111010 1
b10 T
b10 [
1U
b1100011 =
b1100011 d
b11001 :
b11001 w
b11 6
b11 z
b100 J
b100 a
1I
1c
b111111100011 `
b11111 b
b11111111111111111111111111111000 G
b11111111111111111111111111111000 v
b10 7
b10 |
b11111110001100010100110011100011 0
b11111110001100010100110011100011 u
b11111110001100010100110011100011 !
b11111110001100010100110011100011 H
b11111110001100010100110011100011 ("
b11000 <
b1100 ;
b10100 "
b10100 /
b10100 '"
b10100 W
1(
#70000
b101 *
0(
#75000
bx00000000 B
b11 >
b10 ]
b11 3
b11 x
b11 Z
b0 $"
b1 T
b1 [
b10 R
b10 \
b11 '
b11 -
b11 ~
b11 2
b11 O
b11 _
0,
b10000 ?
b1 7
b1 |
b10 5
b10 {
0U
b1000 Y
b10000000000000000000000000 %
b10000000000000000000000000 .
b10000000000000000000000000 ""
b10000000000000000000000000 X
b0 e
b0 P
b0 ^
b0 f
19
0M
b0 F
b0 i
b0 t
b10 1
b110011 =
b110011 d
b1 :
b1 w
b1 8
b1 y
b10 6
b10 z
b0 J
b0 a
0I
0c
b10 `
b0 b
b10 G
b10 v
b1000001000000010110011 0
b1000001000000010110011 u
b1000001000000010110011 !
b1000001000000010110011 H
b1000001000000010110011 ("
b10000 <
b1110 ;
b1100 "
b1100 /
b1100 '"
b1100 W
1(
#80000
b110 *
0(
#85000
b1 ]
b11 3
b11 x
b11 Z
b0 $"
bx00000000 B
b11 >
b1000 Y
b11000000000000000000000000 %
b11000000000000000000000000 .
b11000000000000000000000000 ""
b11000000000000000000000000 X
b1 R
b1 \
b11 '
b11 -
b11 ~
b11 2
b11 O
b11 _
b10100 ?
b11 5
b11 {
1Q
19
b10 1
b10 T
b10 [
b10011 =
b10011 d
b10 :
b10 w
b10 8
b10 y
b1 6
b1 z
b1 `
b1 G
b1 v
b10 7
b10 |
b100010000000100010011 0
b100010000000100010011 u
b100010000000100010011 !
b100010000000100010011 H
b100010000000100010011 ("
b10100 <
b10001 ;
b10000 "
b10000 /
b10000 '"
b10000 W
1(
#90000
b111 *
0(
#95000
1,
b1110 3
b1110 x
b1110 Z
b11 $"
b0 B
b10 >
1U
b1011 ]
b1110 '
b1110 -
b1110 ~
b1110 2
b1110 O
b1110 _
b1100 ?
b1011 5
b1011 {
b0 Y
b1011 %
b1011 .
b1011 ""
b1011 X
b101 e
b10 F
b10 i
b10 t
1M
0Q
09
b1011 R
b1011 \
b11111111111111111111111111111010 1
b11 T
b11 [
b1100011 =
b1100011 d
b11001 :
b11001 w
b11 6
b11 z
b100 J
b100 a
1I
1c
b111111100011 `
b11111 b
b11111111111111111111111111111000 G
b11111111111111111111111111111000 v
b11 7
b11 |
b11111110001100010100110011100011 0
b11111110001100010100110011100011 u
b11111110001100010100110011100011 !
b11111110001100010100110011100011 H
b11111110001100010100110011100011 ("
b11000 <
b1100 ;
b10100 "
b10100 /
b10100 '"
b10100 W
1(
#100000
b1000 *
0(
#105000
b11 ]
b110 3
b110 x
b110 Z
b1 $"
b10 >
b11 R
b11 \
b110 '
b110 -
b110 ~
b110 2
b110 O
b110 _
0,
b10000 ?
b11 5
b11 {
1U
b100 Y
b110000000000000000 %
b110000000000000000 .
b110000000000000000 ""
b110000000000000000 X
b0 e
b0 P
b0 ^
b0 f
19
0M
b0 F
b0 i
b0 t
b100 1
b110011 =
b110011 d
b1 :
b1 w
b1 8
b1 y
b10 6
b10 z
b0 J
b0 a
0I
0c
b10 `
b0 b
b10 G
b10 v
b1000001000000010110011 0
b1000001000000010110011 u
b1000001000000010110011 !
b1000001000000010110011 H
b1000001000000010110011 ("
b10000 <
b1110 ;
b1100 "
b1100 /
b1100 '"
b1100 W
1(
#110000
b1001 *
0(
#115000
b1 ]
b100 3
b100 x
b100 Z
b1 $"
b0 >
b1 Y
b110 %
b110 .
b110 ""
b110 X
b1 R
b1 \
b100 '
b100 -
b100 ~
b100 2
b100 O
b100 _
b10100 ?
b110 5
b110 {
1Q
19
b100 1
b11 T
b11 [
0U
b10011 =
b10011 d
b10 :
b10 w
b10 8
b10 y
b1 6
b1 z
b1 `
b1 G
b1 v
b11 7
b11 |
b100010000000100010011 0
b100010000000100010011 u
b100010000000100010011 !
b100010000000100010011 H
b100010000000100010011 ("
b10100 <
b10001 ;
b10000 "
b10000 /
b10000 '"
b10000 W
1(
#120000
b1010 *
0(
#125000
b1111 3
b1111 x
b1111 Z
b11 $"
bx00000000 B
b11 >
b1011 %
b1011 .
b1011 ""
b1011 X
b1011 ]
b1111 '
b1111 -
b1111 ~
b1111 2
b1111 O
b1111 _
1,
b1100 ?
b1011 5
b1011 {
b0 Y
b101 e
b10 F
b10 i
b10 t
1M
0Q
09
b1011 R
b1011 \
b11111111111111111111111111111100 1
b100 T
b100 [
1U
b1100011 =
b1100011 d
b11001 :
b11001 w
b11 6
b11 z
b100 J
b100 a
1I
1c
b111111100011 `
b11111 b
b11111111111111111111111111111000 G
b11111111111111111111111111111000 v
b100 7
b100 |
b11111110001100010100110011100011 0
b11111110001100010100110011100011 u
b11111110001100010100110011100011 !
b11111110001100010100110011100011 H
b11111110001100010100110011100011 ("
b11000 <
b1100 ;
b10100 "
b10100 /
b10100 '"
b10100 W
1(
#130000
b1011 *
0(
#135000
b1010 3
b1010 x
b1010 Z
b10 $"
b0 B
b10 >
b100 ]
b1010 '
b1010 -
b1010 ~
b1010 2
b1010 O
b1010 _
b110 T
b110 [
b100 R
b100 \
0,
b10000 ?
b110 7
b110 |
b100 5
b100 {
0U
b100 Y
b1000000000000000000 %
b1000000000000000000 .
b1000000000000000000 ""
b1000000000000000000 X
b0 e
b0 P
b0 ^
b0 f
19
0M
b0 F
b0 i
b0 t
b1000 1
b110011 =
b110011 d
b1 :
b1 w
b1 8
b1 y
b10 6
b10 z
b0 J
b0 a
0I
0c
b10 `
b0 b
b10 G
b10 v
b1000001000000010110011 0
b1000001000000010110011 u
b1000001000000010110011 !
b1000001000000010110011 H
b1000001000000010110011 ("
b10000 <
b1110 ;
b1100 "
b1100 /
b1100 '"
b1100 W
1(
#140000
b1100 *
0(
#145000
b1 >
b1 ]
b101 3
b101 x
b101 Z
b1 $"
b10 Y
b101000000000 %
b101000000000 .
b101000000000 ""
b101000000000 X
b1 R
b1 \
b101 '
b101 -
b101 ~
b101 2
b101 O
b101 _
b10100 ?
b1010 5
b1010 {
1Q
19
b100 1
b100 T
b100 [
b10011 =
b10011 d
b10 :
b10 w
b10 8
b10 y
b1 6
b1 z
b1 `
b1 G
b1 v
b100 7
b100 |
b100010000000100010011 0
b100010000000100010011 u
b100010000000100010011 !
b100010000000100010011 H
b100010000000100010011 ("
b10100 <
b10001 ;
b10000 "
b10000 /
b10000 '"
b10000 W
1(
#150000
b1101 *
0(
#155000
b10000 3
b10000 x
b10000 Z
b100 $"
b0 >
b1011 ]
b10000 '
b10000 -
b10000 ~
b10000 2
b10000 O
b10000 _
1,
b1100 ?
b1011 5
b1011 {
b0 Y
b1011 %
b1011 .
b1011 ""
b1011 X
b101 e
b10 F
b10 i
b10 t
1M
0Q
09
b1011 R
b1011 \
b11111111111111111111111111111100 1
b101 T
b101 [
1U
b1100011 =
b1100011 d
b11001 :
b11001 w
b11 6
b11 z
b100 J
b100 a
1I
1c
b111111100011 `
b11111 b
b11111111111111111111111111111000 G
b11111111111111111111111111111000 v
b101 7
b101 |
b11111110001100010100110011100011 0
b11111110001100010100110011100011 u
b11111110001100010100110011100011 !
b11111110001100010100110011100011 H
b11111110001100010100110011100011 ("
b11000 <
b1100 ;
b10100 "
b10100 /
b10100 '"
b10100 W
1(
#160000
b1110 *
0(
#165000
bx00000000 B
b101 ]
b1111 3
b1111 x
b1111 Z
b11 $"
b11 >
b1010 T
b1010 [
b101 R
b101 \
b101000000000000000000000000 %
b101000000000000000000000000 .
b101000000000000000000000000 ""
b101000000000000000000000000 X
b1111 '
b1111 -
b1111 ~
b1111 2
b1111 O
b1111 _
0,
b10000 ?
b1010 7
b1010 |
b101 5
b101 {
0U
b1000 Y
b0 e
b0 P
b0 ^
b0 f
19
0M
b0 F
b0 i
b0 t
b1100 1
b110011 =
b110011 d
b1 :
b1 w
b1 8
b1 y
b10 6
b10 z
b0 J
b0 a
0I
0c
b10 `
b0 b
b10 G
b10 v
b1000001000000010110011 0
b1000001000000010110011 u
b1000001000000010110011 !
b1000001000000010110011 H
b1000001000000010110011 ("
b10000 <
b1110 ;
b1100 "
b1100 /
b1100 '"
b1100 W
1(
#170000
b1111 *
0(
#175000
b1 ]
b110 3
b110 x
b110 Z
b1 $"
b0 B
b10 >
b100 Y
b11110000000000000000 %
b11110000000000000000 .
b11110000000000000000 ""
b11110000000000000000 X
b1 R
b1 \
b110 '
b110 -
b110 ~
b110 2
b110 O
b110 _
b10100 ?
b1111 5
b1111 {
1Q
19
b110 1
b101 T
b101 [
b10011 =
b10011 d
b10 :
b10 w
b10 8
b10 y
b1 6
b1 z
b1 `
b1 G
b1 v
b101 7
b101 |
b100010000000100010011 0
b100010000000100010011 u
b100010000000100010011 !
b100010000000100010011 H
b100010000000100010011 ("
b10100 <
b10001 ;
b10000 "
b10000 /
b10000 '"
b10000 W
1(
#180000
b10000 *
0(
#185000
b10001 3
b10001 x
b10001 Z
b100 $"
b1 >
b1011 ]
b10001 '
b10001 -
b10001 ~
b10001 2
b10001 O
b10001 _
1,
b1100 ?
b1011 5
b1011 {
b0 Y
b1011 %
b1011 .
b1011 ""
b1011 X
b101 e
b10 F
b10 i
b10 t
1M
0Q
09
b1011 R
b1011 \
b11111111111111111111111111111110 1
b110 T
b110 [
1U
b1100011 =
b1100011 d
b11001 :
b11001 w
b11 6
b11 z
b100 J
b100 a
1I
1c
b111111100011 `
b11111 b
b11111111111111111111111111111000 G
b11111111111111111111111111111000 v
b110 7
b110 |
b11111110001100010100110011100011 0
b11111110001100010100110011100011 u
b11111110001100010100110011100011 !
b11111110001100010100110011100011 H
b11111110001100010100110011100011 ("
b11000 <
b1100 ;
b10100 "
b10100 /
b10100 '"
b10100 W
1(
#190000
b10001 *
0(
#195000
b110 ]
b10101 3
b10101 x
b10101 Z
b101 $"
b1111 T
b1111 [
b110 R
b110 \
b10101 '
b10101 -
b10101 ~
b10101 2
b10101 O
b10101 _
0,
b10000 ?
b1111 7
b1111 |
b110 5
b110 {
0U
b10 Y
b11000000000 %
b11000000000 .
b11000000000 ""
b11000000000 X
b0 e
b0 P
b0 ^
b0 f
19
0M
b0 F
b0 i
b0 t
b10000 1
b110011 =
b110011 d
b1 :
b1 w
b1 8
b1 y
b10 6
b10 z
b0 J
b0 a
0I
0c
b10 `
b0 b
b10 G
b10 v
b1000001000000010110011 0
b1000001000000010110011 u
b1000001000000010110011 !
b1000001000000010110011 H
b1000001000000010110011 ("
b10000 <
b1110 ;
b1100 "
b1100 /
b1100 '"
b1100 W
1(
#200000
b10010 *
0(
#205000
b1 ]
b111 3
b111 x
b111 Z
b1 $"
bx00000000 B
b11 >
b1000 Y
b10101000000000000000000000000 %
b10101000000000000000000000000 .
b10101000000000000000000000000 ""
b10101000000000000000000000000 X
b1 R
b1 \
b111 '
b111 -
b111 ~
b111 2
b111 O
b111 _
b10100 ?
b10101 5
b10101 {
1Q
19
b110 1
b110 T
b110 [
b10011 =
b10011 d
b10 :
b10 w
b10 8
b10 y
b1 6
b1 z
b1 `
b1 G
b1 v
b110 7
b110 |
b100010000000100010011 0
b100010000000100010011 u
b100010000000100010011 !
b100010000000100010011 H
b100010000000100010011 ("
b10100 <
b10001 ;
b10000 "
b10000 /
b10000 '"
b10000 W
1(
#210000
b10011 *
0(
#215000
b10010 3
b10010 x
b10010 Z
b100 $"
b0 B
b10 >
b1011 ]
b10010 '
b10010 -
b10010 ~
b10010 2
b10010 O
b10010 _
1,
b1100 ?
b1011 5
b1011 {
b0 Y
b1011 %
b1011 .
b1011 ""
b1011 X
b101 e
b10 F
b10 i
b10 t
1M
0Q
09
b1011 R
b1011 \
b11111111111111111111111111111110 1
b111 T
b111 [
1U
b1100011 =
b1100011 d
b11001 :
b11001 w
b11 6
b11 z
b100 J
b100 a
1I
1c
b111111100011 `
b11111 b
b11111111111111111111111111111000 G
b11111111111111111111111111111000 v
b111 7
b111 |
b11111110001100010100110011100011 0
b11111110001100010100110011100011 u
b11111110001100010100110011100011 !
b11111110001100010100110011100011 H
b11111110001100010100110011100011 ("
b11000 <
b1100 ;
b10100 "
b10100 /
b10100 '"
b10100 W
1(
#220000
b10100 *
0(
#225000
b111 ]
b11100 3
b11100 x
b11100 Z
b111 $"
b0 >
b10101 T
b10101 [
b111 R
b111 \
b11100 '
b11100 -
b11100 ~
b11100 2
b11100 O
b11100 _
0,
b10000 ?
b10101 7
b10101 |
b111 5
b111 {
0U
b1 Y
b111 %
b111 .
b111 ""
b111 X
b0 e
b0 P
b0 ^
b0 f
19
0M
b0 F
b0 i
b0 t
b10110 1
b110011 =
b110011 d
b1 :
b1 w
b1 8
b1 y
b10 6
b10 z
b0 J
b0 a
0I
0c
b10 `
b0 b
b10 G
b10 v
b1000001000000010110011 0
b1000001000000010110011 u
b1000001000000010110011 !
b1000001000000010110011 H
b1000001000000010110011 ("
b10000 <
b1110 ;
b1100 "
b1100 /
b1100 '"
b1100 W
1(
#230000
b10101 *
0(
#235000
b1 ]
b1000 3
b1000 x
b1000 Z
b10 $"
b0 B
b0 >
b1 Y
b11100 %
b11100 .
b11100 ""
b11100 X
b1 R
b1 \
b1000 '
b1000 -
b1000 ~
b1000 2
b1000 O
b1000 _
b10100 ?
b11100 5
b11100 {
1Q
19
b1000 1
b111 T
b111 [
b10011 =
b10011 d
b10 :
b10 w
b10 8
b10 y
b1 6
b1 z
b1 `
b1 G
b1 v
b111 7
b111 |
b100010000000100010011 0
b100010000000100010011 u
b100010000000100010011 !
b100010000000100010011 H
b100010000000100010011 ("
b10100 <
b10001 ;
b10000 "
b10000 /
b10000 '"
b10000 W
1(
#240000
b10110 *
0(
#245000
b10011 3
b10011 x
b10011 Z
b100 $"
bx00000000 B
b11 >
b1011 %
b1011 .
b1011 ""
b1011 X
b1011 ]
b10011 '
b10011 -
b10011 ~
b10011 2
b10011 O
b10011 _
1,
b1100 ?
b1011 5
b1011 {
b0 Y
b101 e
b10 F
b10 i
b10 t
1M
0Q
09
b1011 R
b1011 \
b0 1
b1000 T
b1000 [
1U
b1100011 =
b1100011 d
b11001 :
b11001 w
b11 6
b11 z
b100 J
b100 a
1I
1c
b111111100011 `
b11111 b
b11111111111111111111111111111000 G
b11111111111111111111111111111000 v
b1000 7
b1000 |
b11111110001100010100110011100011 0
b11111110001100010100110011100011 u
b11111110001100010100110011100011 !
b11111110001100010100110011100011 H
b11111110001100010100110011100011 ("
b11000 <
b1100 ;
b10100 "
b10100 /
b10100 '"
b10100 W
1(
#250000
b10111 *
0(
#255000
b0 B
b0 >
b1000 ]
b100100 3
b100100 x
b100100 Z
b1001 $"
b11100 T
b11100 [
b1000 R
b1000 \
b100100 '
b100100 -
b100100 ~
b100100 2
b100100 O
b100100 _
0,
b10000 ?
b11100 7
b11100 |
b1000 5
b1000 {
0U
b1 Y
b1000 %
b1000 .
b1000 ""
b1000 X
b0 e
b0 P
b0 ^
b0 f
19
0M
b0 F
b0 i
b0 t
b11110 1
b110011 =
b110011 d
b1 :
b1 w
b1 8
b1 y
b10 6
b10 z
b0 J
b0 a
0I
0c
b10 `
b0 b
b10 G
b10 v
b1000001000000010110011 0
b1000001000000010110011 u
b1000001000000010110011 !
b1000001000000010110011 H
b1000001000000010110011 ("
b10000 <
b1110 ;
b1100 "
b1100 /
b1100 '"
b1100 W
1(
#260000
b11000 *
0(
#265000
b1 >
b1 ]
b1001 3
b1001 x
b1001 Z
b10 $"
b10 Y
b10010000000000 %
b10010000000000 .
b10010000000000 ""
b10010000000000 X
b1 R
b1 \
b1001 '
b1001 -
b1001 ~
b1001 2
b1001 O
b1001 _
b10100 ?
b100100 5
b100100 {
1Q
19
b1000 1
b1000 T
b1000 [
b10011 =
b10011 d
b10 :
b10 w
b10 8
b10 y
b1 6
b1 z
b1 `
b1 G
b1 v
b1000 7
b1000 |
b100010000000100010011 0
b100010000000100010011 u
b100010000000100010011 !
b100010000000100010011 H
b100010000000100010011 ("
b10100 <
b10001 ;
b10000 "
b10000 /
b10000 '"
b10000 W
1(
#270000
b11001 *
0(
#275000
b10100 3
b10100 x
b10100 Z
b101 $"
b0 >
b1011 ]
b10100 '
b10100 -
b10100 ~
b10100 2
b10100 O
b10100 _
1,
b1100 ?
b1011 5
b1011 {
b0 Y
b1011 %
b1011 .
b1011 ""
b1011 X
b101 e
b10 F
b10 i
b10 t
1M
0Q
09
b1011 R
b1011 \
b0 1
b1001 T
b1001 [
1U
b1100011 =
b1100011 d
b11001 :
b11001 w
b11 6
b11 z
b100 J
b100 a
1I
1c
b111111100011 `
b11111 b
b11111111111111111111111111111000 G
b11111111111111111111111111111000 v
b1001 7
b1001 |
b11111110001100010100110011100011 0
b11111110001100010100110011100011 u
b11111110001100010100110011100011 !
b11111110001100010100110011100011 H
b11111110001100010100110011100011 ("
b11000 <
b1100 ;
b10100 "
b10100 /
b10100 '"
b10100 W
1(
#280000
b11010 *
0(
#285000
b1001 ]
b101101 3
b101101 x
b101101 Z
b1011 $"
b1 >
b100100 T
b100100 [
b1001 R
b1001 \
b100100000000 %
b100100000000 .
b100100000000 ""
b100100000000 X
b101101 '
b101101 -
b101101 ~
b101101 2
b101101 O
b101101 _
0,
b10000 ?
b100100 7
b100100 |
b1001 5
b1001 {
0U
b10 Y
b0 e
b0 P
b0 ^
b0 f
19
0M
b0 F
b0 i
b0 t
b100110 1
b110011 =
b110011 d
b1 :
b1 w
b1 8
b1 y
b10 6
b10 z
b0 J
b0 a
0I
0c
b10 `
b0 b
b10 G
b10 v
b1000001000000010110011 0
b1000001000000010110011 u
b1000001000000010110011 !
b1000001000000010110011 H
b1000001000000010110011 ("
b10000 <
b1110 ;
b1100 "
b1100 /
b1100 '"
b1100 W
1(
#290000
b11011 *
0(
#295000
b1 ]
b1010 3
b1010 x
b1010 Z
b10 $"
b10 >
b100 Y
b1011010000000000000000 %
b1011010000000000000000 .
b1011010000000000000000 ""
b1011010000000000000000 X
b1 R
b1 \
b1010 '
b1010 -
b1010 ~
b1010 2
b1010 O
b1010 _
b10100 ?
b101101 5
b101101 {
1Q
19
b1010 1
b1001 T
b1001 [
b10011 =
b10011 d
b10 :
b10 w
b10 8
b10 y
b1 6
b1 z
b1 `
b1 G
b1 v
b1001 7
b1001 |
b100010000000100010011 0
b100010000000100010011 u
b100010000000100010011 !
b100010000000100010011 H
b100010000000100010011 ("
b10100 <
b10001 ;
b10000 "
b10000 /
b10000 '"
b10000 W
1(
#300000
b11100 *
0(
#305000
b10101 3
b10101 x
b10101 Z
b101 $"
b1 >
b1011 ]
b10101 '
b10101 -
b10101 ~
b10101 2
b10101 O
b10101 _
1,
b1100 ?
b1011 5
b1011 {
b0 Y
b1011 %
b1011 .
b1011 ""
b1011 X
b101 e
b10 F
b10 i
b10 t
1M
0Q
09
b1011 R
b1011 \
b10 1
b1010 T
b1010 [
1U
b1100011 =
b1100011 d
b11001 :
b11001 w
b11 6
b11 z
b100 J
b100 a
1I
1c
b111111100011 `
b11111 b
b11111111111111111111111111111000 G
b11111111111111111111111111111000 v
b1010 7
b1010 |
b11111110001100010100110011100011 0
b11111110001100010100110011100011 u
b11111110001100010100110011100011 !
b11111110001100010100110011100011 H
b11111110001100010100110011100011 ("
b11000 <
b1100 ;
b10100 "
b10100 /
b10100 '"
b10100 W
1(
#310000
b11101 *
0(
#315000
bx00000000 B
b11 >
b1010 ]
b110111 3
b110111 x
b110111 Z
b1101 $"
b101101 T
b101101 [
b1010 R
b1010 \
b110111 '
b110111 -
b110111 ~
b110111 2
b110111 O
b110111 _
0,
b10000 ?
b101101 7
b101101 |
b1010 5
b1010 {
0U
b1000 Y
b1010000000000000000000000000 %
b1010000000000000000000000000 .
b1010000000000000000000000000 ""
b1010000000000000000000000000 X
b0 e
b0 P
b0 ^
b0 f
19
0M
b0 F
b0 i
b0 t
b101110 1
b110011 =
b110011 d
b1 :
b1 w
b1 8
b1 y
b10 6
b10 z
b0 J
b0 a
0I
0c
b10 `
b0 b
b10 G
b10 v
b1000001000000010110011 0
b1000001000000010110011 u
b1000001000000010110011 !
b1000001000000010110011 H
b1000001000000010110011 ("
b10000 <
b1110 ;
b1100 "
b1100 /
b1100 '"
b1100 W
1(
#320000
b11110 *
0(
