waveform/tb_core_pipe_full.vcd
$date
	Sun Jun 14 02:12:45 2026
$end
$version
	Icarus Verilog
$end
$timescale
	1ps
$end
$scope module tb_core_pipe_full $end
$var wire 32 ! imem_rdata [31:0] $end
$var wire 32 " imem_addr [31:0] $end
$var wire 4 # dmem_wstrb [3:0] $end
$var wire 1 $ dmem_we $end
$var wire 32 % dmem_wdata [31:0] $end
$var wire 32 & dmem_rdata [31:0] $end
$var wire 32 ' dmem_addr [31:0] $end
$var reg 1 ( clk $end
$var reg 1 ) rst_n $end
$var integer 32 * c [31:0] $end
$var integer 32 + errors [31:0] $end
$scope module dut $end
$var wire 1 , clint_sel $end
$var wire 1 ( clk $end
$var wire 1 - csr_illegal $end
$var wire 1 . csr_wr $end
$var wire 32 / dmem_addr [31:0] $end
$var wire 1 $ dmem_we $end
$var wire 1 0 ex_branch_taken $end
$var wire 32 1 ex_jalr_target [31:0] $end
$var wire 1 2 ex_mret $end
$var wire 1 3 ex_redirect $end
$var wire 1 4 ex_sret $end
$var wire 1 5 ex_take_pc $end
$var wire 1 6 ex_trap $end
$var wire 1 7 ex_trap_sync $end
$var wire 32 8 if_instr [31:0] $end
$var wire 32 9 imem_addr [31:0] $end
$var wire 1 : instr_misalign $end
$var wire 1 ; is_store_acc $end
$var wire 1 < load_misalign $end
$var wire 1 = mem_access $end
$var wire 32 > mem_addr_ex [31:0] $end
$var wire 1 ? mret_ok $end
$var wire 1 @ mul_stall $end
$var wire 1 ) rst_n $end
$var wire 1 A sc_ok $end
$var wire 1 B sret_ok $end
$var wire 1 C stall_front $end
$var wire 1 D store_misalign $end
$var wire 1 E take_int $end
$var wire 1 F wb2id_rs1 $end
$var wire 1 G wb2id_rs2 $end
$var wire 1 H xret_illegal $end
$var wire 32 I wb_data [31:0] $end
$var wire 1 J sz_misalign $end
$var wire 32 K sync_cause [31:0] $end
$var wire 32 L pc_plus4 [31:0] $end
$var wire 32 M next_pc [31:0] $end
$var wire 32 N mul_result [31:0] $end
$var wire 1 O mul_done $end
$var wire 1 P mul_busy $end
$var wire 1 Q memwb_reg_write $end
$var wire 5 R memwb_rd [4:0] $end
$var wire 2 S mem_off [1:0] $end
$var wire 16 T mem_ld_half [15:0] $end
$var wire 8 U mem_ld_byte [7:0] $end
$var wire 1 V load_use_stall $end
$var wire 1 W irq_pending $end
$var wire 32 X irq_cause [31:0] $end
$var wire 32 Y imem_rdata [31:0] $end
$var wire 2 Z id_wb_sel [1:0] $end
$var wire 1 [ id_sys_sret $end
$var wire 1 \ id_sys_mret $end
$var wire 1 ] id_sys_ecall $end
$var wire 1 ^ id_sys_ebreak $end
$var wire 32 _ id_rs2_fwd [31:0] $end
$var wire 32 ` id_rs2_data [31:0] $end
$var wire 5 a id_rs2 [4:0] $end
$var wire 32 b id_rs1_fwd [31:0] $end
$var wire 32 c id_rs1_data [31:0] $end
$var wire 5 d id_rs1 [4:0] $end
$var wire 1 e id_reg_write $end
$var wire 5 f id_rd [4:0] $end
$var wire 7 g id_opcode [6:0] $end
$var wire 1 h id_mem_write $end
$var wire 1 i id_mem_read $end
$var wire 1 j id_jump $end
$var wire 1 k id_jalr $end
$var wire 1 l id_is_sc $end
$var wire 1 m id_is_muldiv $end
$var wire 1 n id_is_lr $end
$var wire 1 o id_is_csr $end
$var wire 1 p id_is_amo $end
$var wire 3 q id_imm_sel [2:0] $end
$var wire 32 r id_imm [31:0] $end
$var wire 1 s id_illegal $end
$var wire 1 t id_funct7b5 $end
$var wire 1 u id_funct7b0 $end
$var wire 3 v id_funct3 [2:0] $end
$var wire 1 w id_branch $end
$var wire 5 x id_amo_op [4:0] $end
$var wire 4 y id_alu_op [3:0] $end
$var wire 1 z id_alu_b_src $end
$var wire 1 { id_alu_a_src $end
$var wire 2 | forward_b [1:0] $end
$var wire 2 } forward_a [1:0] $end
$var wire 32 ~ exmem_fwd_val [31:0] $end
$var wire 32 !" ex_trap_val [31:0] $end
$var wire 32 "" ex_trap_cause [31:0] $end
$var wire 32 #" ex_target [31:0] $end
$var wire 32 $" ex_result [31:0] $end
$var wire 32 %" ex_redirect_pc [31:0] $end
$var wire 32 &" ex_pc_target [31:0] $end
$var wire 1 '" ex_alu_zero $end
$var wire 32 (" ex_alu_result [31:0] $end
$var wire 32 )" ex_alu_b [31:0] $end
$var wire 32 *" ex_alu_a [31:0] $end
$var wire 4 +" dmem_wstrb [3:0] $end
$var wire 32 ," dmem_wdata [31:0] $end
$var wire 32 -" dmem_rdata [31:0] $end
$var wire 32 ." csr_wval [31:0] $end
$var wire 32 /" csr_trap_vec [31:0] $end
$var wire 32 0" csr_src [31:0] $end
$var wire 32 1" csr_ret_pc [31:0] $end
$var wire 32 2" csr_rdata [31:0] $end
$var wire 2 3" csr_priv [1:0] $end
$var wire 2 4" csr_op [1:0] $end
$var wire 1 5" csr_addr_valid $end
$var wire 32 6" clint_rdata [31:0] $end
$var wire 1 7" clint_mtip $end
$var wire 32 8" amo_wval [31:0] $end
$var parameter 32 9" RESET_PC $end
$var reg 1 :" ex_branch_cond $end
$var reg 32 ;" ex_rs1_fwd [31:0] $end
$var reg 32 <" ex_rs2_fwd [31:0] $end
$var reg 32 =" exmem_alu_result [31:0] $end
$var reg 5 >" exmem_amo_op [4:0] $end
$var reg 3 ?" exmem_funct3 [2:0] $end
$var reg 32 @" exmem_instr [31:0] $end
$var reg 1 A" exmem_is_amo $end
$var reg 1 B" exmem_is_lr $end
$var reg 1 C" exmem_is_sc $end
$var reg 1 D" exmem_mem_read $end
$var reg 1 E" exmem_mem_write $end
$var reg 32 F" exmem_pc4 [31:0] $end
$var reg 5 G" exmem_rd [4:0] $end
$var reg 1 H" exmem_reg_write $end
$var reg 32 I" exmem_rs2_data [31:0] $end
$var reg 1 J" exmem_valid $end
$var reg 2 K" exmem_wb_sel [1:0] $end
$var reg 1 L" idex_alu_a_src $end
$var reg 1 M" idex_alu_b_src $end
$var reg 4 N" idex_alu_op [3:0] $end
$var reg 5 O" idex_amo_op [4:0] $end
$var reg 1 P" idex_branch $end
$var reg 12 Q" idex_csr_addr [11:0] $end
$var reg 3 R" idex_funct3 [2:0] $end
$var reg 1 S" idex_illegal $end
$var reg 32 T" idex_imm [31:0] $end
$var reg 32 U" idex_instr [31:0] $end
$var reg 1 V" idex_is_amo $end
$var reg 1 W" idex_is_csr $end
$var reg 1 X" idex_is_lr $end
$var reg 1 Y" idex_is_muldiv $end
$var reg 1 Z" idex_is_sc $end
$var reg 1 [" idex_jalr $end
$var reg 1 \" idex_jump $end
$var reg 1 ]" idex_mem_read $end
$var reg 1 ^" idex_mem_write $end
$var reg 32 _" idex_pc [31:0] $end
$var reg 32 `" idex_pc4 [31:0] $end
$var reg 5 a" idex_rd [4:0] $end
$var reg 1 b" idex_reg_write $end
$var reg 5 c" idex_rs1 [4:0] $end
$var reg 32 d" idex_rs1_data [31:0] $end
$var reg 5 e" idex_rs2 [4:0] $end
$var reg 32 f" idex_rs2_data [31:0] $end
$var reg 1 g" idex_sys_ebreak $end
$var reg 1 h" idex_sys_ecall $end
$var reg 1 i" idex_sys_mret $end
$var reg 1 j" idex_sys_sret $end
$var reg 1 k" idex_valid $end
$var reg 2 l" idex_wb_sel [1:0] $end
$var reg 32 m" ifid_instr [31:0] $end
$var reg 32 n" ifid_pc [31:0] $end
$var reg 32 o" ifid_pc4 [31:0] $end
$var reg 1 p" ifid_valid $end
$var reg 32 q" mem_load_data [31:0] $end
$var reg 32 r" mem_store_data [31:0] $end
$var reg 4 s" mem_store_strb [3:0] $end
$var reg 32 t" memwb_alu_result [31:0] $end
$var reg 32 u" memwb_instr [31:0] $end
$var reg 32 v" memwb_load_data [31:0] $end
$var reg 32 w" memwb_pc4 [31:0] $end
$var reg 5 x" memwb_rd_r [4:0] $end
$var reg 1 Q memwb_reg_write_r $end
$var reg 1 y" memwb_valid $end
$var reg 2 z" memwb_wb_sel [1:0] $end
$var reg 32 {" pc [31:0] $end
$var reg 32 |" resv_addr [31:0] $end
$var reg 1 }" resv_valid $end
$var reg 32 ~" wb_mux [31:0] $end
$scope module u_alu $end
$var wire 32 !# a [31:0] $end
$var wire 4 "# alu_op [3:0] $end
$var wire 32 ## b [31:0] $end
$var wire 1 '" zero $end
$var wire 5 $# shamt [4:0] $end
$var reg 32 %# result [31:0] $end
$upscope $end
$scope module u_amo $end
$var wire 5 &# amo_op [4:0] $end
$var wire 32 '# rs2_val [31:0] $end
$var wire 32 (# s_mem [31:0] $end
$var wire 32 )# s_rs2 [31:0] $end
$var wire 32 *# mem_val [31:0] $end
$var reg 32 +# result [31:0] $end
$upscope $end
$scope module u_clint $end
$var wire 1 ( clk $end
$var wire 16 ,# off [15:0] $end
$var wire 1 ) rst_n $end
$var wire 1 , sel $end
$var wire 32 -# wdata [31:0] $end
$var wire 1 .# we $end
$var wire 1 7" mtip $end
$var reg 64 /# mtime [63:0] $end
$var reg 64 0# mtimecmp [63:0] $end
$var reg 32 1# rdata [31:0] $end
$upscope $end
$scope module u_csr $end
$var wire 12 2# addr [11:0] $end
$var wire 1 ( clk $end
$var wire 1 3# m_en $end
$var wire 32 4# mip_eff [31:0] $end
$var wire 1 2 mret_en $end
$var wire 1 7" mtip_i $end
$var wire 32 5# pend [31:0] $end
$var wire 2 6# priv_o [1:0] $end
$var wire 1 W" rd_en $end
$var wire 1 ) rst_n $end
$var wire 1 7# s_en $end
$var wire 32 8# sie_v [31:0] $end
$var wire 32 9# sip_v [31:0] $end
$var wire 1 4 sret_en $end
$var wire 32 :# take [31:0] $end
$var wire 1 ;# to_s $end
$var wire 32 <# trap_cause [31:0] $end
$var wire 1 6 trap_en $end
$var wire 32 =# trap_epc [31:0] $end
$var wire 32 ># trap_val [31:0] $end
$var wire 32 ?# wdata [31:0] $end
$var wire 1 @# wr_en $end
$var wire 32 A# trap_vec_o [31:0] $end
$var wire 32 B# sstatus [31:0] $end
$var wire 32 C# ret_pc_o [31:0] $end
$var wire 32 D# mstatus [31:0] $end
$var wire 1 E# is_int $end
$var wire 1 W irq_pending $end
$var wire 32 F# irq_cause [31:0] $end
$var wire 1 G# deleg $end
$var reg 1 5" addr_valid $end
$var reg 5 H# icode [4:0] $end
$var reg 32 I# mcause [31:0] $end
$var reg 32 J# medeleg [31:0] $end
$var reg 32 K# mepc [31:0] $end
$var reg 32 L# mideleg [31:0] $end
$var reg 1 M# mie $end
$var reg 32 N# mie_r [31:0] $end
$var reg 32 O# mip_r [31:0] $end
$var reg 1 P# mpie $end
$var reg 2 Q# mpp [1:0] $end
$var reg 32 R# mscratch [31:0] $end
$var reg 32 S# mtval [31:0] $end
$var reg 32 T# mtvec [31:0] $end
$var reg 2 U# priv [1:0] $end
$var reg 32 V# rdata [31:0] $end
$var reg 32 W# satp [31:0] $end
$var reg 32 X# scause [31:0] $end
$var reg 32 Y# sepc [31:0] $end
$var reg 1 Z# sie $end
$var reg 1 [# spie $end
$var reg 1 \# spp $end
$var reg 32 ]# sscratch [31:0] $end
$var reg 32 ^# stval [31:0] $end
$var reg 32 _# stvec [31:0] $end
$upscope $end
$scope module u_ctrl $end
$var wire 12 `# funct12 [11:0] $end
$var wire 3 a# funct3 [2:0] $end
$var wire 5 b# funct5 [4:0] $end
$var wire 1 u funct7b0 $end
$var wire 1 t funct7b5 $end
$var wire 7 c# opcode [6:0] $end
$var reg 1 { alu_a_src $end
$var reg 4 d# alu_arith [3:0] $end
$var reg 1 z alu_b_src $end
$var reg 4 e# alu_op [3:0] $end
$var reg 5 f# amo_op [4:0] $end
$var reg 1 w branch $end
$var reg 1 s illegal $end
$var reg 3 g# imm_sel [2:0] $end
$var reg 1 p is_amo $end
$var reg 1 o is_csr $end
$var reg 1 n is_lr $end
$var reg 1 m is_muldiv $end
$var reg 1 l is_sc $end
$var reg 1 k jalr $end
$var reg 1 j jump $end
$var reg 1 i mem_read $end
$var reg 1 h mem_write $end
$var reg 1 e reg_write $end
$var reg 1 ^ sys_ebreak $end
$var reg 1 ] sys_ecall $end
$var reg 1 \ sys_mret $end
$var reg 1 [ sys_sret $end
$var reg 2 h# wb_sel [1:0] $end
$upscope $end
$scope module u_fwd $end
$var wire 5 i# exmem_rd [4:0] $end
$var wire 1 H" exmem_reg_write $end
$var wire 5 j# idex_rs1 [4:0] $end
$var wire 5 k# idex_rs2 [4:0] $end
$var wire 5 l# memwb_rd [4:0] $end
$var wire 1 Q memwb_reg_write $end
$var reg 2 m# forward_a [1:0] $end
$var reg 2 n# forward_b [1:0] $end
$upscope $end
$scope module u_hazard $end
$var wire 1 ]" idex_mem_read $end
$var wire 5 o# idex_rd [4:0] $end
$var wire 5 p# ifid_rs1 [4:0] $end
$var wire 5 q# ifid_rs2 [4:0] $end
$var wire 1 V stall $end
$upscope $end
$scope module u_imm $end
$var wire 3 r# imm_sel [2:0] $end
$var wire 32 s# instr [31:0] $end
$var reg 32 t# imm [31:0] $end
$upscope $end
$scope module u_muldiv $end
$var wire 32 u# a [31:0] $end
$var wire 32 v# b [31:0] $end
$var wire 1 ( clk $end
$var wire 1 w# ge $end
$var wire 1 x# is_mul $end
$var wire 1 y# na $end
$var wire 1 z# nb $end
$var wire 3 {# op [2:0] $end
$var wire 1 |# overflow $end
$var wire 1 ) rst_n $end
$var wire 1 }# signed_div $end
$var wire 1 Y" start $end
$var wire 32 ~# rem_hi [31:0] $end
$var wire 64 !$ p_uu [63:0] $end
$var wire 64 "$ p_su [63:0] $end
$var wire 64 #$ p_ss [63:0] $end
$var wire 1 O done $end
$var wire 1 $$ div_zero $end
$var wire 33 %$ diff [32:0] $end
$var wire 1 P busy $end
$var wire 64 &$ bu [63:0] $end
$var wire 64 '$ bs [63:0] $end
$var wire 64 ($ au [63:0] $end
$var wire 64 )$ as [63:0] $end
$var wire 64 *$ acc_sh [63:0] $end
$var wire 64 +$ acc_nx [63:0] $end
$var wire 32 ,$ abs_b [31:0] $end
$var wire 32 -$ abs_a [31:0] $end
$var parameter 2 .$ CALC $end
$var parameter 2 /$ FIN $end
$var parameter 2 0$ IDLE $end
$var reg 64 1$ acc [63:0] $end
$var reg 6 2$ cnt [5:0] $end
$var reg 32 3$ divisor_q [31:0] $end
$var reg 32 4$ mul_res [31:0] $end
$var reg 1 5$ neg_q $end
$var reg 1 6$ neg_r $end
$var reg 3 7$ op_q [2:0] $end
$var reg 32 8$ result [31:0] $end
$var reg 2 9$ state [1:0] $end
$upscope $end
$scope module u_rf $end
$var wire 1 ( clk $end
$var wire 5 :$ rd_addr [4:0] $end
$var wire 32 ;$ rd_data [31:0] $end
$var wire 5 <$ rs1_addr [4:0] $end
$var wire 5 =$ rs2_addr [4:0] $end
$var wire 1 Q we $end
$var wire 32 >$ rs2_data [31:0] $end
$var wire 32 ?$ rs1_data [31:0] $end
$var integer 32 @$ i [31:0] $end
$upscope $end
$upscope $end
$scope module u_dmem $end
$var wire 32 A$ addr [31:0] $end
$var wire 1 ( clk $end
$var wire 32 B$ rdata [31:0] $end
$var wire 32 C$ wdata [31:0] $end
$var wire 1 $ we $end
$var wire 4 D$ wstrb [3:0] $end
$var wire 8 E$ widx [7:0] $end
$var parameter 32 F$ WORDS $end
$var integer 32 G$ k [31:0] $end
$upscope $end
$scope module u_imem $end
$var wire 32 H$ addr [31:0] $end
$var wire 32 I$ rdata [31:0] $end
$var parameter 32 J$ WORDS $end
$var integer 32 K$ k [31:0] $end
$upscope $end
$scope task chk $end
$var reg 32 L$ exp [31:0] $end
$var reg 32 M$ got [31:0] $end
$var integer 32 N$ id [31:0] $end
$upscope $end
$upscope $end
$enddefinitions $end
$comment Show the parameter values. $end
$dumpall
b100000000 J$
b100000000 F$
b0 0$
b10 /$
b1 .$
b0 9"
$end
#0
$dumpvars
bx N$
bx M$
bx L$
b100000000 K$
b10010011 I$
b0 H$
b100000000 G$
b0 E$
b0 D$
b0 C$
b0 B$
b0 A$
b100000 @$
b0 ?$
b0 >$
b0 =$
b0 <$
b0 ;$
b0 :$
b0 9$
b0 8$
b0 7$
06$
05$
b0 4$
b0 3$
b0 2$
b0 1$
b0 -$
b0 ,$
b1 +$
b0 *$
b0 )$
b0 ($
b0 '$
b0 &$
b0 %$
1$$
b0 #$
b0 "$
b0 !$
b0 ~#
0}#
0|#
b0 {#
0z#
0y#
1x#
1w#
b0 v#
b0 u#
b0 t#
b10011 s#
b0 r#
b0 q#
b0 p#
b0 o#
b0 n#
b0 m#
b0 l#
b0 k#
b0 j#
b0 i#
b0 h#
b0 g#
b0 f#
b0 e#
b0 d#
b10011 c#
b0 b#
b0 a#
b0 `#
b0 _#
b0 ^#
b0 ]#
0\#
0[#
0Z#
b0 Y#
b0 X#
b0 W#
b0 V#
b11 U#
b0 T#
b0 S#
b0 R#
b0 Q#
0P#
b0 O#
b0 N#
0M#
b0 L#
b0 K#
b0 J#
b0 I#
b0 H#
0G#
b10000000000000000000000000000000 F#
0E#
b0 D#
b0 C#
b0 B#
b0 A#
0@#
b0 ?#
b0 >#
b0 =#
b10 <#
0;#
b0 :#
b0 9#
b0 8#
07#
b11 6#
b0 5#
b0 4#
03#
b0 2#
b0 1#
b1111111111111111111111111111111111111111111111111111111111111111 0#
b0 /#
0.#
b0 -#
b0 ,#
b0 +#
b0 *#
b0 )#
b0 (#
b0 '#
b0 &#
b0 %#
b0 $#
b0 ##
b0 "#
b0 !#
b0 ~"
0}"
bx |"
b0 {"
b0 z"
0y"
b0 x"
b0 w"
b0 v"
b10011 u"
b0 t"
b1 s"
b0 r"
b0 q"
0p"
b0 o"
b0 n"
b10011 m"
b0 l"
0k"
0j"
0i"
0h"
0g"
b0 f"
b0 e"
b0 d"
b0 c"
0b"
b0 a"
b0 `"
b0 _"
0^"
0]"
0\"
0["
0Z"
0Y"
0X"
0W"
0V"
b10011 U"
b0 T"
0S"
b0 R"
b0 Q"
0P"
b0 O"
b0 N"
0M"
0L"
b0 K"
0J"
b0 I"
0H"
b0 G"
b0 F"
0E"
0D"
0C"
0B"
0A"
b10011 @"
b0 ?"
b0 >"
b0 ="
b0 <"
b0 ;"
1:"
b0 8"
07"
b0 6"
05"
b0 4"
b11 3"
b0 2"
b0 1"
b0 0"
b0 /"
b0 ."
b0 -"
b0 ,"
b0 +"
b0 *"
b0 )"
b0 ("
1'"
b0 &"
b0 %"
b0 $"
b0 #"
b10 ""
b0 !"
b0 ~
b0 }
b0 |
0{
1z
b0 y
b0 x
0w
b0 v
0u
0t
0s
b0 r
b0 q
0p
0o
0n
0m
0l
0k
0j
0i
0h
b10011 g
b0 f
1e
b0 d
b0 c
b0 b
b0 a
b0 `
b0 _
0^
0]
0\
0[
b0 Z
b10010011 Y
b10000000000000000000000000000000 X
0W
0V
b0 U
b0 T
b0 S
b0 R
0Q
0P
0O
b0 N
b100 M
b100 L
b10 K
0J
b0 I
0H
0G
0F
0E
0D
0C
0B
0A
0@
0?
b0 >
0=
0<
0;
0:
b0 9
b10010011 8
07
06
05
04
03
02
b0 1
00
b0 /
0.
0-
0,
b0 +
bx *
0)
0(
b0 '
b0 &
b0 %
0$
b0 #
b0 "
b10010011 !
$end
#5000
1(
#10000
0(
#15000
1(
#20000
b0 *
1)
0(
#25000
b1 f
b1000 M
b100000000000100010011 8
b100000000000100010011 !
b100000000000100010011 Y
b100000000000100010011 I$
1M"
1b"
1p"
b10010011 m"
b10010011 s#
b100 o"
b1000 L
b100 "
b100 9
b100 H$
b100 {"
b1 /#
1(
#30000
b1 *
0(
#35000
1z
1e
b1100 M
b101100000000000110010011 8
b101100000000000110010011 !
b101100000000000110010011 Y
b101100000000000110010011 I$
b10 f
b1 a
b1 q#
b1 =$
b1 `#
b1 r
b1 t#
b10 /#
b1100 L
b1000 "
b1000 9
b1000 H$
b1000 {"
b100000000000100010011 m"
b100000000000100010011 s#
b1000 o"
b100 n"
b10010011 U"
1k"
b1 a"
b1 o#
b100 `"
1H"
1(
#40000
b10 *
0(
#45000
b1 $"
b101 %"
0'"
b1 >
b1 ("
b1 %#
b1 $#
1z
1e
05"
b10 |
b10 n#
b1 )"
b1 ##
b101 #"
b11 f
b1011 a
b1011 q#
b1011 =$
b1011 `#
b1011 r
b1011 t#
b10000 M
b1000001000000010110011 8
b1000001000000010110011 !
b1000001000000010110011 Y
b1000001000000010110011 I$
1Q
b10010011 @"
1J"
b1 G"
b1 i#
b100 F"
b100000000000100010011 U"
b1 Q"
b1 2#
b1 e"
b1 k#
b10 a"
b10 o#
b1000 `"
b100 _"
b100 =#
b101 &"
b1 T"
b101100000000000110010011 m"
b101100000000000110010011 s#
b1100 o"
b1000 n"
b10000 L
b1100 "
b1100 9
b1100 H$
b1100 {"
b11 /#
1(
#50000
b11 *
0(
#55000
b1011 $"
b10011 %"
0z
1e
b1011 >
b1011 ("
b1011 %#
b1011 $#
b10 s"
1F
b10100 M
b100010000000100010011 8
b100010000000100010011 !
b100010000000100010011 Y
b100010000000100010011 I$
b110011 g
b110011 c#
b1 f
b1 d
b1 p#
b1 <$
b10 a
b10 q#
b10 =$
b10 `#
b10 r
b10 t#
05"
b1011 )"
b1011 ##
b10011 #"
b1010 1
b1 ~
b1 S
b1 ,#
b0 |
b0 n#
b100 /#
b10100 L
b10000 "
b10000 9
b10000 H$
b10000 {"
b1000001000000010110011 m"
b1000001000000010110011 s#
b10000 o"
b1100 n"
b101100000000000110010011 U"
b1011 Q"
b1011 2#
b1011 e"
b1011 k#
b11 a"
b11 o#
b1100 `"
b1000 _"
b1000 =#
b10011 &"
b1011 T"
b100000000000100010011 @"
b10 G"
b10 i#
b1000 F"
b1 '
b1 /
b1 A$
b1 ="
b10010011 u"
1y"
b1 R
b1 x"
b1 l#
b1 :$
b100 w"
1(
#60000
b100 *
0(
#65000
b1 $"
b1 ,$
0:"
b1110 %"
b1 b
b1000 s"
b1 '$
b1 &$
0$$
b1 <"
b1 v#
0'"
b1 >
b1 ("
b1 %#
b1 $#
1z
1e
b1 I
b1 ~"
b1 ;$
b1011 ~
bx00000000 T
b11 S
b1011 ,#
b10 E$
05"
b1 |
b1 n#
b1110 #"
b10 1
b1 )"
b1 ##
b10011 g
b10011 c#
b10 f
b10 d
b10 p#
b10 <$
b1 a
b1 q#
b1 =$
b1 `#
b1 r
b1 t#
b11000 M
b11111110001100010100110011100011 8
b11111110001100010100110011100011 !
b11111110001100010100110011100011 Y
b11111110001100010100110011100011 I$
b100000000000100010011 u"
b10 R
b10 x"
b10 l#
b10 :$
b1000 w"
b1 t"
b101100000000000110010011 @"
b11 G"
b11 i#
b1100 F"
b1011 '
b1011 /
b1011 A$
b1011 ="
b1000001000000010110011 U"
b10 Q"
b10 2#
b10 e"
b10 k#
b1 c"
b1 j#
b1 a"
b1 o#
b10000 `"
b1100 _"
b1100 =#
b1110 &"
b10 T"
0M"
b100010000000100010011 m"
b100010000000100010011 s#
b10100 o"
b10000 n"
b11000 L
b10100 "
b10100 9
b10100 H$
b10100 {"
b101 /#
1(
#70000
b101 *
0(
#75000
b10 $"
b1011 _
b10001 %"
b10 >
b10 ("
b10 %#
b100000000 %
b100000000 ,"
b100000000 C$
1G
b101 d#
b10 q
b10 g#
b10 r#
1w
0z
0e
b1 *"
b1 !#
b1 0"
b1 4$
b1 -$
1:"
b11100 M
b100000010000000100011 8
b100000010000000100011 !
b100000010000000100011 Y
b100000010000000100011 I$
b1100011 g
b1100011 c#
b11001 f
b11 a
b11 q#
b11 =$
b100 v
b100 a#
1t
1u
b111111100011 `#
b11111 b#
b11111111111111111111111111111000 r
b11111111111111111111111111111000 t#
05"
b10001 #"
b1 #$
b1 "$
b1 )$
b1 !$
b1 ($
b1 ;"
b1 u#
b1 8"
b1 +#
b10 s"
b100000000 r"
b1 ~
b0 T
b1 S
b1 ,#
b0 E$
0F
b10 |
b10 n#
b1011 I
b1011 ~"
b1011 ;$
b1 c
b1 ?$
b110 /#
b11100 L
b11000 "
b11000 9
b11000 H$
b11000 {"
b11111110001100010100110011100011 m"
b11111110001100010100110011100011 s#
b11000 o"
b10100 n"
b100010000000100010011 U"
b1 Q"
b1 2#
b1 e"
b1 k#
b10 c"
b10 j#
b10 a"
b10 o#
b10100 `"
b10000 _"
b10000 =#
b10001 &"
b1 T"
b1 d"
1M"
b1000001000000010110011 @"
b1 G"
b1 i#
b10000 F"
b1 )#
b1 I"
b1 '#
b1 -#
b1 '
b1 /
b1 A$
b1 ="
b101100000000000110010011 u"
b11 R
b11 x"
b11 l#
b11 :$
b1100 w"
b1011 t"
1(
#80000
b110 *
0(
#85000
b1101 $"
13
b10000000000000000 %
b10000000000000000 ,"
b10000000000000000 C$
b1011 $#
b1101 >
b1101 ("
b1101 %#
0x#
b1011 )"
b1011 ##
b1011 ,$
b10 *"
b10 !#
b10110 4$
b10 -$
b1100 %"
b0 b
b1 _
b100 s"
b10000000000000000 r"
b10 0"
b1011 '$
b1011 &$
b1011 <"
b1011 v#
b10110 #$
b10110 "$
b10 )$
b10110 !$
b10 ($
b10 ;"
b10 u#
15
b0 c
b0 ?$
b11 d#
1h
1z
0w
b1 q
b1 g#
b1 r#
b1 I
b1 ~"
b1 ;$
b10 ~
b10 S
b10 ,#
05"
1}#
1:"
b0 |
b0 n#
b10 }
b10 m#
b1100 #"
b11111111111111111111111111111010 1
10
b100011 g
b100011 c#
b0 f
b0 d
b0 p#
b0 <$
b1 a
b1 q#
b1 =$
b10 v
b10 a#
0t
0u
b1 `#
b0 b#
b0 r
b0 t#
b1100 M
b10001000000011 8
b10001000000011 !
b10001000000011 Y
b10001000000011 I$
b0 `
b0 >$
b1000001000000010110011 u"
b1 R
b1 x"
b1 l#
b1 :$
b10000 w"
b1 t"
b100010000000100010011 @"
b10 G"
b10 i#
b10100 F"
b10 '
b10 /
b10 A$
b10 ="
b11111110001100010100110011100011 U"
b111111100011 Q"
b111111100011 2#
b100 R"
b100 {#
b11 e"
b11 k#
b11001 a"
b11001 o#
b11000 `"
b10100 _"
b10100 =#
b1100 &"
b11111111111111111111111111111000 T"
b1011 f"
0M"
1P"
0b"
b100000010000000100011 m"
b100000010000000100011 s#
b11100 o"
b11000 n"
b100000 L
b11100 "
b11100 9
b11100 H$
b11100 {"
b111 /#
1(
#90000
b111 *
0(
#95000
03
b0 $"
b10000 M
b0 _
1x#
b0 %"
b0 $#
1'"
b0 >
b0 ("
b0 %#
b1011 %
b1011 ,"
b1011 C$
b0 d#
1e
0h
b0 q
b0 g#
b0 r#
1z
b0 )"
b0 ##
b0 ,$
b0 *"
b0 !#
b0 -$
05
b1000001000000010110011 8
b1000001000000010110011 !
b1000001000000010110011 Y
b1000001000000010110011 I$
b10011 g
b10011 c#
b0 a
b0 q#
b0 =$
b0 v
b0 a#
b0 `#
05"
b0 4$
0}#
b0 0"
b0 #"
b0 1
b0 '$
b0 &$
1$$
b0 <"
b0 v#
b0 #$
b0 "$
b0 )$
b0 !$
b0 ($
b0 ;"
b0 u#
00
b1011 8"
b1011 +#
b0 s"
b1011 r"
b1101 ~
b1 S
b1101 ,#
b11 E$
0G
b0 }
b0 m#
b10 I
b10 ~"
b10 ;$
b0 `
b0 >$
b1000 /#
b10000 L
b1100 "
b1100 9
b1100 H$
b1100 {"
0p"
b10011 m"
b10011 s#
b0 o"
b0 n"
b10011 U"
0k"
b0 Q"
b0 2#
b0 R"
b0 {#
b0 e"
b0 k#
b0 c"
b0 j#
b0 a"
b0 o#
b0 `"
b0 _"
b0 =#
b0 &"
b0 T"
b0 f"
b0 d"
0P"
b11111110001100010100110011100011 @"
b100 ?"
b11001 G"
b11001 i#
b11000 F"
b1011 )#
b1011 I"
b1011 '#
b1011 -#
b1101 '
b1101 /
b1101 A$
b1101 ="
0H"
b100010000000100010011 u"
b10 R
b10 x"
b10 l#
b10 :$
b10100 w"
b10 t"
1(
#100000
b1000 *
0(
#105000
b0 %
b0 ,"
b0 C$
b1 b
b10 _
b1 c
b1 ?$
b10 `
b10 >$
0z
1e
b1101 I
b1101 ~"
b1101 ;$
b0 8"
b0 +#
b1 s"
b0 r"
b0 ~
b0 S
b0 ,#
b0 E$
b110011 g
b110011 c#
b1 f
b1 d
b1 p#
b1 <$
b10 a
b10 q#
b10 =$
b10 `#
b10 r
b10 t#
b10100 M
b100010000000100010011 8
b100010000000100010011 !
b100010000000100010011 Y
b100010000000100010011 I$
b11111110001100010100110011100011 u"
b11001 R
b11001 x"
b11001 l#
b11001 :$
b11000 w"
b1101 t"
0Q
b10011 @"
0J"
b0 ?"
b0 G"
b0 i#
b0 F"
b0 )#
b0 I"
b0 '#
b0 -#
b0 '
b0 /
b0 A$
b0 ="
1M"
1b"
1p"
b1000001000000010110011 m"
b1000001000000010110011 s#
b10000 o"
b1100 n"
b10100 L
b10000 "
b10000 9
b10000 H$
b10000 {"
b1001 /#
1(
#110000
b1001 *
0(
