waveform/tb_compliance.vcd
$date
	Sun Jun 14 02:12:45 2026
$end
$version
	Icarus Verilog
$end
$timescale
	1ps
$end
$scope module tb_compliance $end
$var wire 32 ! dmem_rdata [31:0] $end
$var wire 32 " imem_rdata [31:0] $end
$var wire 32 # imem_addr [31:0] $end
$var wire 32 $ iidx [31:0] $end
$var wire 4 % dmem_wstrb [3:0] $end
$var wire 1 & dmem_we $end
$var wire 32 ' dmem_wdata [31:0] $end
$var wire 32 ( dmem_addr [31:0] $end
$var wire 32 ) didx [31:0] $end
$var parameter 32 * WORDS $end
$var reg 1 + clk $end
$var reg 1 , rst_n $end
$var integer 32 - cyc [31:0] $end
$var integer 32 . k [31:0] $end
$scope module dut $end
$var wire 1 / clint_sel $end
$var wire 1 + clk $end
$var wire 1 0 csr_illegal $end
$var wire 1 1 csr_wr $end
$var wire 32 2 dmem_addr [31:0] $end
$var wire 32 3 dmem_rdata [31:0] $end
$var wire 1 & dmem_we $end
$var wire 1 4 ex_branch_taken $end
$var wire 32 5 ex_jalr_target [31:0] $end
$var wire 1 6 ex_mret $end
$var wire 1 7 ex_redirect $end
$var wire 1 8 ex_sret $end
$var wire 1 9 ex_take_pc $end
$var wire 1 : ex_trap $end
$var wire 1 ; ex_trap_sync $end
$var wire 32 < if_instr [31:0] $end
$var wire 32 = imem_addr [31:0] $end
$var wire 32 > imem_rdata [31:0] $end
$var wire 1 ? instr_misalign $end
$var wire 1 @ is_store_acc $end
$var wire 1 A load_misalign $end
$var wire 1 B mem_access $end
$var wire 32 C mem_addr_ex [31:0] $end
$var wire 1 D mret_ok $end
$var wire 1 E mul_stall $end
$var wire 1 , rst_n $end
$var wire 1 F sc_ok $end
$var wire 1 G sret_ok $end
$var wire 1 H stall_front $end
$var wire 1 I store_misalign $end
$var wire 1 J take_int $end
$var wire 1 K wb2id_rs1 $end
$var wire 1 L wb2id_rs2 $end
$var wire 1 M xret_illegal $end
$var wire 32 N wb_data [31:0] $end
$var wire 1 O sz_misalign $end
$var wire 32 P sync_cause [31:0] $end
$var wire 32 Q pc_plus4 [31:0] $end
$var wire 32 R next_pc [31:0] $end
$var wire 32 S mul_result [31:0] $end
$var wire 1 T mul_done $end
$var wire 1 U mul_busy $end
$var wire 1 V memwb_reg_write $end
$var wire 5 W memwb_rd [4:0] $end
$var wire 2 X mem_off [1:0] $end
$var wire 16 Y mem_ld_half [15:0] $end
$var wire 8 Z mem_ld_byte [7:0] $end
$var wire 1 [ load_use_stall $end
$var wire 1 \ irq_pending $end
$var wire 32 ] irq_cause [31:0] $end
$var wire 2 ^ id_wb_sel [1:0] $end
$var wire 1 _ id_sys_sret $end
$var wire 1 ` id_sys_mret $end
$var wire 1 a id_sys_ecall $end
$var wire 1 b id_sys_ebreak $end
$var wire 32 c id_rs2_fwd [31:0] $end
$var wire 32 d id_rs2_data [31:0] $end
$var wire 5 e id_rs2 [4:0] $end
$var wire 32 f id_rs1_fwd [31:0] $end
$var wire 32 g id_rs1_data [31:0] $end
$var wire 5 h id_rs1 [4:0] $end
$var wire 1 i id_reg_write $end
$var wire 5 j id_rd [4:0] $end
$var wire 7 k id_opcode [6:0] $end
$var wire 1 l id_mem_write $end
$var wire 1 m id_mem_read $end
$var wire 1 n id_jump $end
$var wire 1 o id_jalr $end
$var wire 1 p id_is_sc $end
$var wire 1 q id_is_muldiv $end
$var wire 1 r id_is_lr $end
$var wire 1 s id_is_csr $end
$var wire 1 t id_is_amo $end
$var wire 3 u id_imm_sel [2:0] $end
$var wire 32 v id_imm [31:0] $end
$var wire 1 w id_illegal $end
$var wire 1 x id_funct7b5 $end
$var wire 1 y id_funct7b0 $end
$var wire 3 z id_funct3 [2:0] $end
$var wire 1 { id_branch $end
$var wire 5 | id_amo_op [4:0] $end
$var wire 4 } id_alu_op [3:0] $end
$var wire 1 ~ id_alu_b_src $end
$var wire 1 !" id_alu_a_src $end
$var wire 2 "" forward_b [1:0] $end
$var wire 2 #" forward_a [1:0] $end
$var wire 32 $" exmem_fwd_val [31:0] $end
$var wire 32 %" ex_trap_val [31:0] $end
$var wire 32 &" ex_trap_cause [31:0] $end
$var wire 32 '" ex_target [31:0] $end
$var wire 32 (" ex_result [31:0] $end
$var wire 32 )" ex_redirect_pc [31:0] $end
$var wire 32 *" ex_pc_target [31:0] $end
$var wire 1 +" ex_alu_zero $end
$var wire 32 ," ex_alu_result [31:0] $end
$var wire 32 -" ex_alu_b [31:0] $end
$var wire 32 ." ex_alu_a [31:0] $end
$var wire 4 /" dmem_wstrb [3:0] $end
$var wire 32 0" dmem_wdata [31:0] $end
$var wire 32 1" csr_wval [31:0] $end
$var wire 32 2" csr_trap_vec [31:0] $end
$var wire 32 3" csr_src [31:0] $end
$var wire 32 4" csr_ret_pc [31:0] $end
$var wire 32 5" csr_rdata [31:0] $end
$var wire 2 6" csr_priv [1:0] $end
$var wire 2 7" csr_op [1:0] $end
$var wire 1 8" csr_addr_valid $end
$var wire 32 9" clint_rdata [31:0] $end
$var wire 1 :" clint_mtip $end
$var wire 32 ;" amo_wval [31:0] $end
$var parameter 32 <" RESET_PC $end
$var reg 1 =" ex_branch_cond $end
$var reg 32 >" ex_rs1_fwd [31:0] $end
$var reg 32 ?" ex_rs2_fwd [31:0] $end
$var reg 32 @" exmem_alu_result [31:0] $end
$var reg 5 A" exmem_amo_op [4:0] $end
$var reg 3 B" exmem_funct3 [2:0] $end
$var reg 32 C" exmem_instr [31:0] $end
$var reg 1 D" exmem_is_amo $end
$var reg 1 E" exmem_is_lr $end
$var reg 1 F" exmem_is_sc $end
$var reg 1 G" exmem_mem_read $end
$var reg 1 H" exmem_mem_write $end
$var reg 32 I" exmem_pc4 [31:0] $end
$var reg 5 J" exmem_rd [4:0] $end
$var reg 1 K" exmem_reg_write $end
$var reg 32 L" exmem_rs2_data [31:0] $end
$var reg 1 M" exmem_valid $end
$var reg 2 N" exmem_wb_sel [1:0] $end
$var reg 1 O" idex_alu_a_src $end
$var reg 1 P" idex_alu_b_src $end
$var reg 4 Q" idex_alu_op [3:0] $end
$var reg 5 R" idex_amo_op [4:0] $end
$var reg 1 S" idex_branch $end
$var reg 12 T" idex_csr_addr [11:0] $end
$var reg 3 U" idex_funct3 [2:0] $end
$var reg 1 V" idex_illegal $end
$var reg 32 W" idex_imm [31:0] $end
$var reg 32 X" idex_instr [31:0] $end
$var reg 1 Y" idex_is_amo $end
$var reg 1 Z" idex_is_csr $end
$var reg 1 [" idex_is_lr $end
$var reg 1 \" idex_is_muldiv $end
$var reg 1 ]" idex_is_sc $end
$var reg 1 ^" idex_jalr $end
$var reg 1 _" idex_jump $end
$var reg 1 `" idex_mem_read $end
$var reg 1 a" idex_mem_write $end
$var reg 32 b" idex_pc [31:0] $end
$var reg 32 c" idex_pc4 [31:0] $end
$var reg 5 d" idex_rd [4:0] $end
$var reg 1 e" idex_reg_write $end
$var reg 5 f" idex_rs1 [4:0] $end
$var reg 32 g" idex_rs1_data [31:0] $end
$var reg 5 h" idex_rs2 [4:0] $end
$var reg 32 i" idex_rs2_data [31:0] $end
$var reg 1 j" idex_sys_ebreak $end
$var reg 1 k" idex_sys_ecall $end
$var reg 1 l" idex_sys_mret $end
$var reg 1 m" idex_sys_sret $end
$var reg 1 n" idex_valid $end
$var reg 2 o" idex_wb_sel [1:0] $end
$var reg 32 p" ifid_instr [31:0] $end
$var reg 32 q" ifid_pc [31:0] $end
$var reg 32 r" ifid_pc4 [31:0] $end
$var reg 1 s" ifid_valid $end
$var reg 32 t" mem_load_data [31:0] $end
$var reg 32 u" mem_store_data [31:0] $end
$var reg 4 v" mem_store_strb [3:0] $end
$var reg 32 w" memwb_alu_result [31:0] $end
$var reg 32 x" memwb_instr [31:0] $end
$var reg 32 y" memwb_load_data [31:0] $end
$var reg 32 z" memwb_pc4 [31:0] $end
$var reg 5 {" memwb_rd_r [4:0] $end
$var reg 1 V memwb_reg_write_r $end
$var reg 1 |" memwb_valid $end
$var reg 2 }" memwb_wb_sel [1:0] $end
$var reg 32 ~" pc [31:0] $end
$var reg 32 !# resv_addr [31:0] $end
$var reg 1 "# resv_valid $end
$var reg 32 ## wb_mux [31:0] $end
$scope module u_alu $end
$var wire 32 $# a [31:0] $end
$var wire 4 %# alu_op [3:0] $end
$var wire 32 &# b [31:0] $end
$var wire 1 +" zero $end
$var wire 5 '# shamt [4:0] $end
$var reg 32 (# result [31:0] $end
$upscope $end
$scope module u_amo $end
$var wire 5 )# amo_op [4:0] $end
$var wire 32 *# mem_val [31:0] $end
$var wire 32 +# rs2_val [31:0] $end
$var wire 32 ,# s_mem [31:0] $end
$var wire 32 -# s_rs2 [31:0] $end
$var reg 32 .# result [31:0] $end
$upscope $end
$scope module u_clint $end
$var wire 1 + clk $end
$var wire 16 /# off [15:0] $end
$var wire 1 , rst_n $end
$var wire 1 / sel $end
$var wire 32 0# wdata [31:0] $end
$var wire 1 1# we $end
$var wire 1 :" mtip $end
$var reg 64 2# mtime [63:0] $end
$var reg 64 3# mtimecmp [63:0] $end
$var reg 32 4# rdata [31:0] $end
$upscope $end
$scope module u_csr $end
$var wire 12 5# addr [11:0] $end
$var wire 1 + clk $end
$var wire 1 6# m_en $end
$var wire 32 7# mip_eff [31:0] $end
$var wire 1 6 mret_en $end
$var wire 1 :" mtip_i $end
$var wire 32 8# pend [31:0] $end
$var wire 2 9# priv_o [1:0] $end
$var wire 1 Z" rd_en $end
$var wire 1 , rst_n $end
$var wire 1 :# s_en $end
$var wire 32 ;# sie_v [31:0] $end
$var wire 32 <# sip_v [31:0] $end
$var wire 1 8 sret_en $end
$var wire 32 =# take [31:0] $end
$var wire 1 ># to_s $end
$var wire 32 ?# trap_cause [31:0] $end
$var wire 1 : trap_en $end
$var wire 32 @# trap_epc [31:0] $end
$var wire 32 A# trap_val [31:0] $end
$var wire 32 B# wdata [31:0] $end
$var wire 1 C# wr_en $end
$var wire 32 D# trap_vec_o [31:0] $end
$var wire 32 E# sstatus [31:0] $end
$var wire 32 F# ret_pc_o [31:0] $end
$var wire 32 G# mstatus [31:0] $end
$var wire 1 H# is_int $end
$var wire 1 \ irq_pending $end
$var wire 32 I# irq_cause [31:0] $end
$var wire 1 J# deleg $end
$var reg 1 8" addr_valid $end
$var reg 5 K# icode [4:0] $end
$var reg 32 L# mcause [31:0] $end
$var reg 32 M# medeleg [31:0] $end
$var reg 32 N# mepc [31:0] $end
$var reg 32 O# mideleg [31:0] $end
$var reg 1 P# mie $end
$var reg 32 Q# mie_r [31:0] $end
$var reg 32 R# mip_r [31:0] $end
$var reg 1 S# mpie $end
$var reg 2 T# mpp [1:0] $end
$var reg 32 U# mscratch [31:0] $end
$var reg 32 V# mtval [31:0] $end
$var reg 32 W# mtvec [31:0] $end
$var reg 2 X# priv [1:0] $end
$var reg 32 Y# rdata [31:0] $end
$var reg 32 Z# satp [31:0] $end
$var reg 32 [# scause [31:0] $end
$var reg 32 \# sepc [31:0] $end
$var reg 1 ]# sie $end
$var reg 1 ^# spie $end
$var reg 1 _# spp $end
$var reg 32 `# sscratch [31:0] $end
$var reg 32 a# stval [31:0] $end
$var reg 32 b# stvec [31:0] $end
$upscope $end
$scope module u_ctrl $end
$var wire 12 c# funct12 [11:0] $end
$var wire 3 d# funct3 [2:0] $end
$var wire 5 e# funct5 [4:0] $end
$var wire 1 y funct7b0 $end
$var wire 1 x funct7b5 $end
$var wire 7 f# opcode [6:0] $end
$var reg 1 !" alu_a_src $end
$var reg 4 g# alu_arith [3:0] $end
$var reg 1 ~ alu_b_src $end
$var reg 4 h# alu_op [3:0] $end
$var reg 5 i# amo_op [4:0] $end
$var reg 1 { branch $end
$var reg 1 w illegal $end
$var reg 3 j# imm_sel [2:0] $end
$var reg 1 t is_amo $end
$var reg 1 s is_csr $end
$var reg 1 r is_lr $end
$var reg 1 q is_muldiv $end
$var reg 1 p is_sc $end
$var reg 1 o jalr $end
$var reg 1 n jump $end
$var reg 1 m mem_read $end
$var reg 1 l mem_write $end
$var reg 1 i reg_write $end
$var reg 1 b sys_ebreak $end
$var reg 1 a sys_ecall $end
$var reg 1 ` sys_mret $end
$var reg 1 _ sys_sret $end
$var reg 2 k# wb_sel [1:0] $end
$upscope $end
$scope module u_fwd $end
$var wire 5 l# exmem_rd [4:0] $end
$var wire 1 K" exmem_reg_write $end
$var wire 5 m# idex_rs1 [4:0] $end
$var wire 5 n# idex_rs2 [4:0] $end
$var wire 5 o# memwb_rd [4:0] $end
$var wire 1 V memwb_reg_write $end
$var reg 2 p# forward_a [1:0] $end
$var reg 2 q# forward_b [1:0] $end
$upscope $end
$scope module u_hazard $end
$var wire 1 `" idex_mem_read $end
$var wire 5 r# idex_rd [4:0] $end
$var wire 5 s# ifid_rs1 [4:0] $end
$var wire 5 t# ifid_rs2 [4:0] $end
$var wire 1 [ stall $end
$upscope $end
$scope module u_imm $end
$var wire 3 u# imm_sel [2:0] $end
$var wire 32 v# instr [31:0] $end
$var reg 32 w# imm [31:0] $end
$upscope $end
$scope module u_muldiv $end
$var wire 32 x# a [31:0] $end
$var wire 32 y# b [31:0] $end
$var wire 1 + clk $end
$var wire 1 z# ge $end
$var wire 1 {# is_mul $end
$var wire 1 |# na $end
$var wire 1 }# nb $end
$var wire 3 ~# op [2:0] $end
$var wire 1 !$ overflow $end
$var wire 1 , rst_n $end
$var wire 1 "$ signed_div $end
$var wire 1 \" start $end
$var wire 32 #$ rem_hi [31:0] $end
$var wire 64 $$ p_uu [63:0] $end
$var wire 64 %$ p_su [63:0] $end
$var wire 64 &$ p_ss [63:0] $end
$var wire 1 T done $end
$var wire 1 '$ div_zero $end
$var wire 33 ($ diff [32:0] $end
$var wire 1 U busy $end
$var wire 64 )$ bu [63:0] $end
$var wire 64 *$ bs [63:0] $end
$var wire 64 +$ au [63:0] $end
$var wire 64 ,$ as [63:0] $end
$var wire 64 -$ acc_sh [63:0] $end
$var wire 64 .$ acc_nx [63:0] $end
$var wire 32 /$ abs_b [31:0] $end
$var wire 32 0$ abs_a [31:0] $end
$var parameter 2 1$ CALC $end
$var parameter 2 2$ FIN $end
$var parameter 2 3$ IDLE $end
$var reg 64 4$ acc [63:0] $end
$var reg 6 5$ cnt [5:0] $end
$var reg 32 6$ divisor_q [31:0] $end
$var reg 32 7$ mul_res [31:0] $end
$var reg 1 8$ neg_q $end
$var reg 1 9$ neg_r $end
$var reg 3 :$ op_q [2:0] $end
$var reg 32 ;$ result [31:0] $end
$var reg 2 <$ state [1:0] $end
$upscope $end
$scope module u_rf $end
$var wire 1 + clk $end
$var wire 5 =$ rd_addr [4:0] $end
$var wire 32 >$ rd_data [31:0] $end
$var wire 5 ?$ rs1_addr [4:0] $end
$var wire 5 @$ rs2_addr [4:0] $end
$var wire 1 V we $end
$var wire 32 A$ rs2_data [31:0] $end
$var wire 32 B$ rs1_data [31:0] $end
$var integer 32 C$ i [31:0] $end
$upscope $end
$upscope $end
$scope task dump_signature $end
$var integer 32 D$ a [31:0] $end
$var integer 32 E$ aligned_end [31:0] $end
$var integer 32 F$ fd [31:0] $end
$upscope $end
$upscope $end
$enddefinitions $end
$comment Show the parameter values. $end
$dumpall
b0 3$
b10 2$
b1 1$
b0 <"
b10000000000000000 *
$end
#0
$dumpvars
bx F$
bx E$
bx D$
b100000 C$
b0 B$
b0 A$
b0 @$
b0 ?$
b0 >$
b0 =$
b0 <$
b0 ;$
b0 :$
09$
08$
b0 7$
b0 6$
b0 5$
b0 4$
b0 0$
b0 /$
b1 .$
b0 -$
b0 ,$
b0 +$
b0 *$
b0 )$
b0 ($
1'$
b0 &$
b0 %$
b0 $$
b0 #$
0"$
0!$
b0 ~#
0}#
0|#
1{#
1z#
b0 y#
b0 x#
b0 w#
b10011 v#
b0 u#
b0 t#
b0 s#
b0 r#
b0 q#
b0 p#
b0 o#
b0 n#
b0 m#
b0 l#
b0 k#
b0 j#
b0 i#
b0 h#
b0 g#
b10011 f#
b0 e#
b0 d#
b0 c#
b0 b#
b0 a#
b0 `#
0_#
0^#
0]#
b0 \#
b0 [#
b0 Z#
b0 Y#
b11 X#
b0 W#
b0 V#
b0 U#
b0 T#
0S#
b0 R#
b0 Q#
0P#
b0 O#
b0 N#
b0 M#
b0 L#
b0 K#
0J#
b10000000000000000000000000000000 I#
0H#
b0 G#
b0 F#
b0 E#
b0 D#
0C#
b0 B#
b0 A#
b0 @#
b10 ?#
0>#
b0 =#
b0 <#
b0 ;#
0:#
b11 9#
b0 8#
b0 7#
06#
b0 5#
b0 4#
b1111111111111111111111111111111111111111111111111111111111111111 3#
b0 2#
01#
b0 0#
b0 /#
b10100000000000010010011 .#
b0 -#
b10100000000000010010011 ,#
b0 +#
b10100000000000010010011 *#
b0 )#
b0 (#
b0 '#
b0 &#
b0 %#
b0 $#
b0 ##
0"#
bx !#
b0 ~"
b0 }"
0|"
b0 {"
b0 z"
b0 y"
b10011 x"
b0 w"
b1 v"
b0 u"
b11111111111111111111111110010011 t"
0s"
b0 r"
b0 q"
b10011 p"
b0 o"
0n"
0m"
0l"
0k"
0j"
b0 i"
b0 h"
b0 g"
b0 f"
0e"
b0 d"
b0 c"
b0 b"
0a"
0`"
0_"
0^"
0]"
0\"
0["
0Z"
0Y"
b10011 X"
b0 W"
0V"
b0 U"
b0 T"
0S"
b0 R"
b0 Q"
0P"
0O"
b0 N"
0M"
b0 L"
0K"
b0 J"
b0 I"
0H"
0G"
0F"
0E"
0D"
b10011 C"
b0 B"
b0 A"
b0 @"
b0 ?"
b0 >"
1="
b10100000000000010010011 ;"
0:"
b0 9"
08"
b0 7"
b11 6"
b0 5"
b0 4"
b0 3"
b0 2"
b0 1"
b0 0"
b0 /"
b0 ."
b0 -"
b0 ,"
1+"
b0 *"
b0 )"
b0 ("
b0 '"
b10 &"
b0 %"
b0 $"
b0 #"
b0 ""
0!"
1~
b0 }
b0 |
0{
b0 z
0y
0x
0w
b0 v
b0 u
0t
0s
0r
0q
0p
0o
0n
0m
0l
b10011 k
b0 j
1i
b0 h
b0 g
b0 f
b0 e
b0 d
b0 c
0b
0a
0`
0_
b0 ^
b10000000000000000000000000000000 ]
0\
0[
b10010011 Z
b10010011 Y
b0 X
b0 W
0V
0U
0T
b0 S
b100 R
b100 Q
b10 P
0O
b0 N
0M
0L
0K
0J
0I
0H
0G
0F
0E
0D
b0 C
0B
0A
0@
0?
b10100000000000010010011 >
b0 =
b10100000000000010010011 <
0;
0:
09
08
07
06
b0 5
04
b10100000000000010010011 3
b0 2
01
00
0/
b10000000000000000 .
b0 -
0,
0+
b0 )
b0 (
b0 '
0&
b0 %
b0 $
b0 #
b10100000000000010010011 "
b10100000000000010010011 !
$end
#5000
1+
#10000
0+
#15000
1+
#20000
1,
0+
#25000
1~
1i
b10010100000000000100010011 <
b10010100000000000100010011 "
b10010100000000000100010011 >
b1 j
b101 e
b101 t#
b101 @$
b101 c#
b101 v
b101 w#
b1000 R
b1 $
b11111111111111111111111110010011 y"
1P"
1e"
1s"
b10100000000000010010011 p"
b10100000000000010010011 v#
b100 r"
b1000 Q
b100 #
b100 =
b100 ~"
b1 2#
b1 -
1+
#30000
0+
#35000
b101 ("
b101 )"
b1000001000000110110011 <
b1000001000000110110011 "
b1000001000000110110011 >
1~
1i
0+"
b101 C
b101 ,"
b101 (#
b101 '#
b1100 R
b10 $
b10 j
1y
b100101 c#
b100101 v
b100101 w#
08"
b101 -"
b101 &#
b101 '"
b100 5
b10 2#
b1100 Q
b1000 #
b1000 =
b1000 ~"
b10010100000000000100010011 p"
b10010100000000000100010011 v#
b1000 r"
b100 q"
b10100000000000010010011 X"
1n"
b101 T"
b101 5#
b101 h"
b101 n#
b1 d"
b1 r#
b100 c"
b101 *"
b101 W"
1K"
b10 -
1+
#40000
0+
#45000
b100101 ("
b10010100000000000100010011 ;"
b10010100000000000100010011 .#
b101001 )"
b1 t"
b10 v"
b10010100000000000100010011 ,#
b10010100000000000100010011 !
b10010100000000000100010011 3
b10010100000000000100010011 *#
b100101 C
b100101 ,"
b100101 (#
0~
1i
b10001000001000001000110011 <
b10001000001000001000110011 "
b10001000001000001000110011 >
b101 $"
b1 Z
b101000000000001 Y
b1 X
b101 /#
b1 )
08"
b100101 -"
b100101 &#
b101001 '"
b100100 5
b110011 k
b110011 f#
b11 j
b1 h
b1 s#
b1 ?$
b10 e
b10 t#
b10 @$
0y
b10 c#
b10 v
b10 w#
b10000 R
b11 $
1V
b10100000000000010010011 C"
1M"
b1 J"
b1 l#
b100 I"
b101 (
b101 2
b101 @"
b10010100000000000100010011 X"
b100101 T"
b100101 5#
b10 d"
b10 r#
b1000 c"
b100 b"
b100 @#
b101001 *"
b100101 W"
b1000001000000110110011 p"
b1000001000000110110011 v#
b1100 r"
b1000 q"
b10000 Q
b1100 #
b1100 =
b1100 ~"
b11 2#
b11 -
1+
#50000
0+
#55000
b101010 ("
b1010 )"
b110001011010000000100011 ;"
b110001011010000000100011 .#
b11111111111111111111111110100000 t"
b101 f
b10111001 7$
b100101 /$
b101 ."
b101 $#
b101 3"
b101 0$
0="
b100000000000000000010100010011 <
b100000000000000000010100010011 "
b100000000000000000010100010011 >
1q
1i
0+"
b101010 C
b101010 ,"
b101010 (#
b101 '#
b10100000 Z
b1100010110100000 Y
b110001011010000000100011 ,#
b110001011010000000100011 !
b110001011010000000100011 3
b110001011010000000100011 *#
1K
b10111001 &$
b100101 *$
b10111001 $$
b10111001 %$
b100101 )$
0'$
b100101 ?"
b100101 y#
b101 ,$
b101 +$
b101 >"
b101 x#
b10100 R
b100 $
b100 j
1y
b100010 c#
b100010 v
b100010 w#
08"
b1010 '"
b110 5
b100101 -"
b100101 &#
b100101 $"
b100101 /#
b1001 )
b10 ""
b10 q#
b1 #"
b1 p#
b101 N
b101 ##
b101 >$
b100 2#
b10100 Q
b10000 #
b10000 =
b10000 ~"
b10001000001000001000110011 p"
b10001000001000001000110011 v#
b10000 r"
b1100 q"
b1000001000000110110011 X"
b10 T"
b10 5#
b10 h"
b10 n#
b1 f"
b1 m#
b11 d"
b11 r#
b1100 c"
b1000 b"
b1000 @#
b1010 *"
b10 W"
0P"
b10010100000000000100010011 C"
b10 J"
b10 l#
b1000 I"
b100101 (
b100101 2
b100101 @"
b10100000000000010010011 x"
1|"
b1 W
b1 {"
b1 o#
b1 =$
b100 z"
b1 y"
b101 w"
b100 -
1+
#60000
0+
#65000
b1001010000000000000000 '
b1001010000000000000000 0"
b101110 )"
b0 f
b0 t"
b1101111 ,#
b1101111 !
b1101111 3
b1101111 *#
b0 ("
1H
1~
0q
1i
b1101010010000000100011 <
b1101010010000000100011 "
b1101010010000000100011 >
0K
b100101 N
b100101 ##
b100101 >$
b1 ""
b1 q#
b0 #"
b0 p#
b10010100 ;"
b10010100 .#
b100 v"
b1001010000000000000000 u"
b101010 $"
b0 Z
b0 Y
b10 X
b101010 /#
b1010 )
08"
b101110 '"
b100110 5
1E
b10011 k
b10011 f#
b1010 j
b0 h
b0 s#
b0 ?$
b0 e
b0 t#
b0 @$
0y
b1000000000 c#
b100 e#
b1000000000 v
b1000000000 w#
b11000 R
b101 $
b0 g
b0 B$
b10010100000000000100010011 x"
b10 W
b10 {"
b10 o#
b10 =$
b1000 z"
b11111111111111111111111110100000 y"
b100101 w"
b1000001000000110110011 C"
b11 J"
b11 l#
b1100 I"
b100101 -#
b100101 L"
b100101 +#
b100101 0#
b101010 (
b101010 2
b101010 @"
b10001000001000001000110011 X"
b100010 T"
b100010 5#
b100 d"
b100 r#
b10000 c"
b1100 b"
b1100 @#
b101110 *"
b100010 W"
b101 g"
1\"
b100000000000000000010100010011 p"
b100000000000000000010100010011 v#
b10100 r"
b10000 q"
b11000 Q
b10100 #
b10100 =
b10100 ~"
b101 2#
b101 -
1+
#70000
0+
#75000
b101 C
b101 ,"
b101 (#
b0 '#
0H
b0 '
b0 0"
b0 -"
b0 &#
b0 7$
b0 /$
0E
b10111001 ("
b11111111111111111111111110010011 t"
b10100000000000010010011 ,#
b10100000000000010010011 !
b10100000000000010010011 3
b10100000000000010010011 *#
b0 &$
b0 *$
b0 $$
b0 %$
b0 )$
1'$
b0 ?"
b0 y#
b10100000000000010010011 ;"
b10100000000000010010011 .#
b1 v"
b0 u"
b0 $"
b10010011 Z
b10010011 Y
b0 X
b0 /#
b0 )
b0 ""
b0 q#
b101010 N
b101010 ##
b101010 >$
1T
b10 <$
b10111001 S
b10111001 ;$
b110 2#
b10011 C"
0M"
b0 J"
b0 l#
b0 I"
b0 -#
b0 L"
b0 +#
b0 0#
b0 (
b0 2
b0 @"
0K"
b1000001000000110110011 x"
b11 W
b11 {"
b11 o#
b11 =$
b1100 z"
b0 y"
b101010 w"
b110 -
1+
#80000
0+
#85000
b10011 ;"
b10011 .#
b1000010000 )"
b101010 c
b0 t"
b10 v"
b10011 ,#
b10011 !
b10011 3
b10011 *#
b0 ."
b0 $#
b0 3"
b0 0$
1="
b1000000000 C
b1000000000 ,"
b1000000000 (#
b1000000000 ("
b101010 d
b101010 A$
b11 g#
1l
b1 u
b1 j#
b1 u#
1~
0i
b10001010010001000100011 <
b10001010010001000100011 "
b10001010010001000100011 >
b0 N
b0 ##
b0 >$
b10111001 $"
b0 Z
b0 Y
b1 X
b10111001 /#
b101110 )
08"
b1000010000 '"
b1000000000 5
b0 ,$
b0 +$
b0 >"
b0 x#
b1000000000 -"
b1000000000 &#
b100011 k
b100011 f#
b0 j
b1010 h
b1010 s#
b1010 ?$
b11 e
b11 t#
b11 @$
b10 z
b10 d#
b11 c#
b0 e#
b0 v
b0 w#
b11100 R
b110 $
b10011 x"
0|"
b0 W
b0 {"
b0 o#
b0 =$
b0 z"
b11111111111111111111111110010011 y"
b0 w"
0V
b10001000001000001000110011 C"
1M"
b100 J"
b100 l#
b10000 I"
b10111001 (
b10111001 2
b10111001 @"
1K"
b100000000000000000010100010011 X"
b1000000000 T"
b1000000000 5#
b0 h"
b0 n#
b0 f"
b0 m#
b1010 d"
b1010 r#
b10100 c"
b10000 b"
b10000 @#
b1000010000 *"
b1000000000 W"
b0 g"
1P"
0\"
b1101010010000000100011 p"
b1101010010000000100011 v#
b11000 r"
b10100 q"
b11100 Q
b11000 #
b11000 =
b11000 ~"
b111 2#
0T
b0 <$
b111 -
1+
#90000
0+
#95000
b1000000000 1"
b1000000000 B#
1B
b10100 )"
b10111001 c
b110000000000000000010110010011 <
b110000000000000000010110010011 "
b110000000000000000010110010011 >
b0 d
b0 A$
1l
b1 u
b1 j#
b1 u#
1~
b101010 /$
b1000000000 ."
b1000000000 $#
b1000000000 3"
b1000000000 0$
1@
b10011 t"
b1 v"
1L
b100000 R
b111 $
b100 j
b100 e
b100 t#
b100 @$
b100 c#
b100 v
b100 w#
08"
b10 7"
0="
b0 -"
b0 &#
b10100 '"
b101010000000000 &$
b101010 *$
b101010000000000 $$
b101010000000000 %$
b101010 )$
0'$
b101010 ?"
b101010 y#
b1000000000 ,$
b1000000000 +$
b1000000000 >"
b1000000000 x#
b1000000000 $"
b10011 Z
b10011 Y
b0 X
b1000000000 /#
b10000000 )
b10111001 N
b10111001 ##
b10111001 >$
b10 #"
b10 p#
b1000 2#
b100000 Q
b11100 #
b11100 =
b11100 ~"
b10001010010001000100011 p"
b10001010010001000100011 v#
b11100 r"
b11000 q"
b1101010010000000100011 X"
b11 T"
b11 5#
b10 U"
b10 ~#
b11 h"
b11 n#
b1010 f"
b1010 m#
b0 d"
b0 r#
b11000 c"
b10100 b"
b10100 @#
b10100 *"
b0 W"
b101010 i"
1a"
0e"
b100000000000000000010100010011 C"
b1010 J"
b1010 l#
b10100 I"
b1000000000 (
b1000000000 2
b1000000000 @"
b10001000001000001000110011 x"
1|"
b100 W
b100 {"
b100 o#
b100 =$
b10000 z"
b0 y"
b10111001 w"
1V
b1000 -
1+
#100000
0+
#105000
b1000000100 ("
b101010 '
b101010 0"
1&
b11100 )"
b0 c
b1111 %
b1111 /"
b1000000100 C
b1000000100 ,"
b1000000100 (#
b100 '#
b10111001 /$
b0 g#
1i
0l
b0 u
b0 j#
b0 u#
1~
b100000000011000010011 <
b100000000011000010011 "
b100000000011000010011 >
0L
b1000000000 N
b1000000000 ##
b1000000000 >$
b111101 ;"
b111101 .#
b1111 v"
b101010 u"
08"
b1 #"
b1 p#
b100 -"
b100 &#
b11100 '"
b1000000100 5
b10111001000000000 &$
b10111001 *$
b10111001000000000 $$
b10111001000000000 %$
b10111001 )$
b10111001 ?"
b10111001 y#
b10011 k
b10011 f#
b1011 j
b0 h
b0 s#
b0 ?$
b0 e
b0 t#
b0 @$
b0 z
b0 d#
b1100000000 c#
b110 e#
b1100000000 v
b1100000000 w#
b100100 R
b1000 $
b0 d
b0 A$
b100000000000000000010100010011 x"
b1010 W
b1010 {"
b1010 o#
b1010 =$
b10100 z"
b10011 y"
b1000000000 w"
b1101010010000000100011 C"
b10 B"
b0 J"
b0 l#
b11000 I"
b101010 -#
b101010 L"
b101010 +#
b101010 0#
1H"
0K"
b10001010010001000100011 X"
b100 T"
b100 5#
b100 h"
b100 n#
b100 d"
b100 r#
b11100 c"
b11000 b"
b11000 @#
b11100 *"
b100 W"
b10111001 i"
b110000000000000000010110010011 p"
b110000000000000000010110010011 v#
b100000 r"
b11100 q"
b100100 Q
b100000 #
b100000 =
b100000 ~"
b1001 2#
b1001 -
1+
#110000
0+
