waveform/tb_core_pipe.vcd
$date
	Sun Jun 14 16:04:40 2026
$end
$version
	Icarus Verilog
$end
$timescale
	1ps
$end
$scope module tb_core_pipe $end
$var wire 32 ! imem_rdata [31:0] $end
$var wire 32 " imem_addr [31:0] $end
$var wire 4 # dmem_wstrb [3:0] $end
$var wire 1 $ dmem_we $end
$var wire 32 % dmem_wdata [31:0] $end
$var wire 32 & dmem_rdata [31:0] $end
$var wire 32 ' dmem_addr [31:0] $end
$var reg 1 ( clk $end
$var reg 1 ) rst_n $end
$var integer 32 * c [31:0] $end
$var integer 32 + errors [31:0] $end
$scope module dut $end
$var wire 1 , back_pressure $end
$var wire 1 - clint_sel $end
$var wire 1 ( clk $end
$var wire 1 . csr_illegal $end
$var wire 1 / csr_wr $end
$var wire 1 0 ex_branch_taken $end
$var wire 1 1 ex_dfault $end
$var wire 1 2 ex_ifault $end
$var wire 32 3 ex_jalr_target [31:0] $end
$var wire 1 4 ex_mem_op $end
$var wire 1 5 ex_mret $end
$var wire 1 6 ex_pagefault $end
$var wire 1 7 ex_redirect $end
$var wire 1 8 ex_satp_wr $end
$var wire 1 9 ex_sfence $end
$var wire 1 : ex_sret $end
$var wire 1 ; ex_start $end
$var wire 1 < ex_take_pc $end
$var wire 1 = ex_trap $end
$var wire 1 > ex_trap_sync $end
$var wire 1 ? ex_wants $end
$var wire 32 @ if_instr [31:0] $end
$var wire 1 A if_need_xlate $end
$var wire 1 B if_start $end
$var wire 1 C if_wants $end
$var wire 1 D if_xlate_pending $end
$var wire 1 E instr_misalign $end
$var wire 1 F is_store_acc $end
$var wire 1 G load_misalign $end
$var wire 1 H mem_access $end
$var wire 32 I mem_addr_ex [31:0] $end
$var wire 1 J mem_data_acc $end
$var wire 1 K mmu_active $end
$var wire 1 L mmu_flush $end
$var wire 1 M mmu_stall $end
$var wire 1 N mmu_walking $end
$var wire 1 O mret_ok $end
$var wire 1 P mul_stall $end
$var wire 1 Q need_xlate $end
$var wire 1 ) rst_n $end
$var wire 1 R sc_ok $end
$var wire 1 S serving_ex $end
$var wire 1 T sret_ok $end
$var wire 1 U stall_front $end
$var wire 1 V store_misalign $end
$var wire 1 W take_int $end
$var wire 1 X w_busy $end
$var wire 1 Y walker_bus $end
$var wire 1 Z wb2id_rs1 $end
$var wire 1 [ wb2id_rs2 $end
$var wire 1 \ xret_illegal $end
$var wire 32 ] wb_data [31:0] $end
$var wire 1 ^ sz_misalign $end
$var wire 32 _ sync_cause [31:0] $end
$var wire 32 ` pc_plus4 [31:0] $end
$var wire 32 a next_pc [31:0] $end
$var wire 32 b mul_result [31:0] $end
$var wire 1 c mul_done $end
$var wire 1 d mul_busy $end
$var wire 32 e mmu_paddr [31:0] $end
$var wire 1 f mmu_mem_req $end
$var wire 32 g mmu_mem_addr [31:0] $end
$var wire 4 h mmu_fault_cause [3:0] $end
$var wire 1 i mmu_fault $end
$var wire 1 j mmu_done $end
$var wire 2 k mmu_acc [1:0] $end
$var wire 1 l memwb_reg_write $end
$var wire 5 m memwb_rd [4:0] $end
$var wire 2 n mem_off [1:0] $end
$var wire 16 o mem_ld_half [15:0] $end
$var wire 8 p mem_ld_byte [7:0] $end
$var wire 1 q load_use_stall $end
$var wire 1 r irq_pending $end
$var wire 32 s irq_cause [31:0] $end
$var wire 32 t imem_rdata [31:0] $end
$var wire 32 u imem_addr [31:0] $end
$var wire 2 v id_wb_sel [1:0] $end
$var wire 1 w id_sys_sret $end
$var wire 1 x id_sys_mret $end
$var wire 1 y id_sys_ecall $end
$var wire 1 z id_sys_ebreak $end
$var wire 32 { id_rs2_fwd [31:0] $end
$var wire 32 | id_rs2_data [31:0] $end
$var wire 5 } id_rs2 [4:0] $end
$var wire 32 ~ id_rs1_fwd [31:0] $end
$var wire 32 !" id_rs1_data [31:0] $end
$var wire 5 "" id_rs1 [4:0] $end
$var wire 1 #" id_reg_write $end
$var wire 5 $" id_rd [4:0] $end
$var wire 7 %" id_opcode [6:0] $end
$var wire 1 &" id_mem_write $end
$var wire 1 '" id_mem_read $end
$var wire 1 (" id_jump $end
$var wire 1 )" id_jalr $end
$var wire 1 *" id_is_sc $end
$var wire 1 +" id_is_muldiv $end
$var wire 1 ," id_is_lr $end
$var wire 1 -" id_is_csr $end
$var wire 1 ." id_is_amo $end
$var wire 3 /" id_imm_sel [2:0] $end
$var wire 32 0" id_imm [31:0] $end
$var wire 1 1" id_illegal $end
$var wire 1 2" id_funct7b5 $end
$var wire 1 3" id_funct7b0 $end
$var wire 3 4" id_funct3 [2:0] $end
$var wire 1 5" id_branch $end
$var wire 5 6" id_amo_op [4:0] $end
$var wire 4 7" id_alu_op [3:0] $end
$var wire 1 8" id_alu_b_src $end
$var wire 1 9" id_alu_a_src $end
$var wire 2 :" forward_b [1:0] $end
$var wire 2 ;" forward_a [1:0] $end
$var wire 1 <" fetch_consumed $end
$var wire 32 =" exmem_fwd_val [31:0] $end
$var wire 32 >" ex_trap_val [31:0] $end
$var wire 32 ?" ex_trap_cause [31:0] $end
$var wire 32 @" ex_target [31:0] $end
$var wire 32 A" ex_result [31:0] $end
$var wire 32 B" ex_redirect_pc [31:0] $end
$var wire 32 C" ex_pc_target [31:0] $end
$var wire 32 D" ex_mem_addr [31:0] $end
$var wire 1 E" ex_alu_zero $end
$var wire 32 F" ex_alu_result [31:0] $end
$var wire 32 G" ex_alu_b [31:0] $end
$var wire 32 H" ex_alu_a [31:0] $end
$var wire 4 I" dmem_wstrb [3:0] $end
$var wire 1 $ dmem_we $end
$var wire 32 J" dmem_wdata [31:0] $end
$var wire 32 K" dmem_rdata [31:0] $end
$var wire 32 L" dmem_addr [31:0] $end
$var wire 32 M" csr_wval [31:0] $end
$var wire 32 N" csr_trap_vec [31:0] $end
$var wire 32 O" csr_src [31:0] $end
$var wire 32 P" csr_satp [31:0] $end
$var wire 32 Q" csr_ret_pc [31:0] $end
$var wire 32 R" csr_rdata [31:0] $end
$var wire 2 S" csr_priv [1:0] $end
$var wire 2 T" csr_op [1:0] $end
$var wire 1 U" csr_addr_valid $end
$var wire 32 V" clint_rdata [31:0] $end
$var wire 1 W" clint_mtip $end
$var wire 1 X" clint_msip $end
$var wire 32 Y" amo_wval [31:0] $end
$var parameter 2 Z" F_IDLE $end
$var parameter 2 [" F_RDY $end
$var parameter 2 \" F_WALK $end
$var parameter 32 ]" RESET_PC $end
$var parameter 2 ^" X_IDLE $end
$var parameter 2 _" X_RDY $end
$var parameter 2 `" X_WALK $end
$var reg 1 a" ex_branch_cond $end
$var reg 32 b" ex_rs1_fwd [31:0] $end
$var reg 32 c" ex_rs2_fwd [31:0] $end
$var reg 32 d" exmem_alu_result [31:0] $end
$var reg 5 e" exmem_amo_op [4:0] $end
$var reg 3 f" exmem_funct3 [2:0] $end
$var reg 32 g" exmem_instr [31:0] $end
$var reg 1 h" exmem_is_amo $end
$var reg 1 i" exmem_is_lr $end
$var reg 1 j" exmem_is_sc $end
$var reg 1 k" exmem_mem_read $end
$var reg 1 l" exmem_mem_write $end
$var reg 32 m" exmem_pc4 [31:0] $end
$var reg 5 n" exmem_rd [4:0] $end
$var reg 1 o" exmem_reg_write $end
$var reg 32 p" exmem_rs2_data [31:0] $end
$var reg 1 q" exmem_valid $end
$var reg 2 r" exmem_wb_sel [1:0] $end
$var reg 1 s" ffault $end
$var reg 32 t" fpaddr [31:0] $end
$var reg 2 u" fstate [1:0] $end
$var reg 1 v" idex_alu_a_src $end
$var reg 1 w" idex_alu_b_src $end
$var reg 4 x" idex_alu_op [3:0] $end
$var reg 5 y" idex_amo_op [4:0] $end
$var reg 1 z" idex_branch $end
$var reg 12 {" idex_csr_addr [11:0] $end
$var reg 1 |" idex_fault $end
$var reg 3 }" idex_funct3 [2:0] $end
$var reg 1 ~" idex_illegal $end
$var reg 32 !# idex_imm [31:0] $end
$var reg 32 "# idex_instr [31:0] $end
$var reg 1 ## idex_is_amo $end
$var reg 1 $# idex_is_csr $end
$var reg 1 %# idex_is_lr $end
$var reg 1 &# idex_is_muldiv $end
$var reg 1 '# idex_is_sc $end
$var reg 1 (# idex_jalr $end
$var reg 1 )# idex_jump $end
$var reg 1 *# idex_mem_read $end
$var reg 1 +# idex_mem_write $end
$var reg 32 ,# idex_pc [31:0] $end
$var reg 32 -# idex_pc4 [31:0] $end
$var reg 5 .# idex_rd [4:0] $end
$var reg 1 /# idex_reg_write $end
$var reg 5 0# idex_rs1 [4:0] $end
$var reg 32 1# idex_rs1_data [31:0] $end
$var reg 5 2# idex_rs2 [4:0] $end
$var reg 32 3# idex_rs2_data [31:0] $end
$var reg 1 4# idex_sys_ebreak $end
$var reg 1 5# idex_sys_ecall $end
$var reg 1 6# idex_sys_mret $end
$var reg 1 7# idex_sys_sret $end
$var reg 1 8# idex_valid $end
$var reg 2 9# idex_wb_sel [1:0] $end
$var reg 1 :# ifid_fault $end
$var reg 32 ;# ifid_instr [31:0] $end
$var reg 32 <# ifid_pc [31:0] $end
$var reg 32 =# ifid_pc4 [31:0] $end
$var reg 1 ># ifid_valid $end
$var reg 32 ?# mem_load_data [31:0] $end
$var reg 32 @# mem_store_data [31:0] $end
$var reg 4 A# mem_store_strb [3:0] $end
$var reg 32 B# memwb_alu_result [31:0] $end
$var reg 32 C# memwb_instr [31:0] $end
$var reg 32 D# memwb_load_data [31:0] $end
$var reg 32 E# memwb_pc4 [31:0] $end
$var reg 5 F# memwb_rd_r [4:0] $end
$var reg 1 l memwb_reg_write_r $end
$var reg 1 G# memwb_valid $end
$var reg 2 H# memwb_wb_sel [1:0] $end
$var reg 32 I# pc [31:0] $end
$var reg 32 J# resv_addr [31:0] $end
$var reg 1 K# resv_valid $end
$var reg 32 L# wb_mux [31:0] $end
$var reg 4 M# xcause [3:0] $end
$var reg 1 N# xfault $end
$var reg 32 O# xpaddr [31:0] $end
$var reg 2 P# xstate [1:0] $end
$scope module u_alu $end
$var wire 32 Q# a [31:0] $end
$var wire 4 R# alu_op [3:0] $end
$var wire 32 S# b [31:0] $end
$var wire 1 E" zero $end
$var wire 5 T# shamt [4:0] $end
$var reg 32 U# result [31:0] $end
$upscope $end
$scope module u_amo $end
$var wire 5 V# amo_op [4:0] $end
$var wire 32 W# rs2_val [31:0] $end
$var wire 32 X# s_mem [31:0] $end
$var wire 32 Y# s_rs2 [31:0] $end
$var wire 32 Z# mem_val [31:0] $end
$var reg 32 [# result [31:0] $end
$upscope $end
$scope module u_clint $end
$var wire 1 ( clk $end
$var wire 16 \# off [15:0] $end
$var wire 1 ) rst_n $end
$var wire 1 - sel $end
$var wire 32 ]# wdata [31:0] $end
$var wire 1 ^# we $end
$var wire 1 W" mtip $end
$var wire 1 X" msip $end
$var reg 1 X" msip_r $end
$var reg 64 _# mtime [63:0] $end
$var reg 64 `# mtimecmp [63:0] $end
$var reg 32 a# rdata [31:0] $end
$upscope $end
$scope module u_csr $end
$var wire 12 b# addr [11:0] $end
$var wire 1 ( clk $end
$var wire 32 c# hw_bits [31:0] $end
$var wire 32 d# hw_mask [31:0] $end
$var wire 1 e# m_en $end
$var wire 1 f# meip_i $end
$var wire 32 g# mip_eff [31:0] $end
$var wire 1 5 mret_en $end
$var wire 1 X" msip_i $end
$var wire 1 W" mtip_i $end
$var wire 32 h# pend [31:0] $end
$var wire 2 i# priv_o [1:0] $end
$var wire 1 $# rd_en $end
$var wire 1 ) rst_n $end
$var wire 1 j# s_en $end
$var wire 32 k# satp_o [31:0] $end
$var wire 32 l# sie_v [31:0] $end
$var wire 32 m# sip_v [31:0] $end
$var wire 1 : sret_en $end
$var wire 32 n# take [31:0] $end
$var wire 1 o# to_s $end
$var wire 32 p# trap_cause [31:0] $end
$var wire 1 = trap_en $end
$var wire 32 q# trap_epc [31:0] $end
$var wire 32 r# trap_val [31:0] $end
$var wire 32 s# wdata [31:0] $end
$var wire 1 t# wr_en $end
$var wire 32 u# trap_vec_o [31:0] $end
$var wire 32 v# sstatus [31:0] $end
$var wire 32 w# ret_pc_o [31:0] $end
$var wire 32 x# mstatus [31:0] $end
$var wire 1 y# is_int $end
$var wire 1 r irq_pending $end
$var wire 32 z# irq_cause [31:0] $end
$var wire 1 {# deleg $end
$var reg 1 U" addr_valid $end
$var reg 5 |# icode [4:0] $end
$var reg 32 }# mcause [31:0] $end
$var reg 32 ~# medeleg [31:0] $end
$var reg 32 !$ mepc [31:0] $end
$var reg 32 "$ mideleg [31:0] $end
$var reg 1 #$ mie $end
$var reg 32 $$ mie_r [31:0] $end
$var reg 32 %$ mip_r [31:0] $end
$var reg 1 &$ mpie $end
$var reg 2 '$ mpp [1:0] $end
$var reg 32 ($ mscratch [31:0] $end
$var reg 32 )$ mtval [31:0] $end
$var reg 32 *$ mtvec [31:0] $end
$var reg 2 +$ priv [1:0] $end
$var reg 32 ,$ rdata [31:0] $end
$var reg 32 -$ satp [31:0] $end
$var reg 32 .$ scause [31:0] $end
$var reg 32 /$ sepc [31:0] $end
$var reg 1 0$ sie $end
$var reg 1 1$ spie $end
$var reg 1 2$ spp $end
$var reg 32 3$ sscratch [31:0] $end
$var reg 32 4$ stval [31:0] $end
$var reg 32 5$ stvec [31:0] $end
$upscope $end
$scope module u_ctrl $end
$var wire 12 6$ funct12 [11:0] $end
$var wire 3 7$ funct3 [2:0] $end
$var wire 5 8$ funct5 [4:0] $end
$var wire 1 3" funct7b0 $end
$var wire 1 2" funct7b5 $end
$var wire 7 9$ opcode [6:0] $end
$var reg 1 9" alu_a_src $end
$var reg 4 :$ alu_arith [3:0] $end
$var reg 1 8" alu_b_src $end
$var reg 4 ;$ alu_op [3:0] $end
$var reg 5 <$ amo_op [4:0] $end
$var reg 1 5" branch $end
$var reg 1 1" illegal $end
$var reg 3 =$ imm_sel [2:0] $end
$var reg 1 ." is_amo $end
$var reg 1 -" is_csr $end
$var reg 1 ," is_lr $end
$var reg 1 +" is_muldiv $end
$var reg 1 *" is_sc $end
$var reg 1 )" jalr $end
$var reg 1 (" jump $end
$var reg 1 '" mem_read $end
$var reg 1 &" mem_write $end
$var reg 1 #" reg_write $end
$var reg 1 z sys_ebreak $end
$var reg 1 y sys_ecall $end
$var reg 1 x sys_mret $end
$var reg 1 w sys_sret $end
$var reg 2 >$ wb_sel [1:0] $end
$upscope $end
$scope module u_fwd $end
$var wire 5 ?$ exmem_rd [4:0] $end
$var wire 1 o" exmem_reg_write $end
$var wire 5 @$ idex_rs1 [4:0] $end
$var wire 5 A$ idex_rs2 [4:0] $end
$var wire 5 B$ memwb_rd [4:0] $end
$var wire 1 l memwb_reg_write $end
$var reg 2 C$ forward_a [1:0] $end
$var reg 2 D$ forward_b [1:0] $end
$upscope $end
$scope module u_hazard $end
$var wire 1 *# idex_mem_read $end
$var wire 5 E$ idex_rd [4:0] $end
$var wire 5 F$ ifid_rs1 [4:0] $end
$var wire 5 G$ ifid_rs2 [4:0] $end
$var wire 1 q stall $end
$upscope $end
$scope module u_imm $end
$var wire 3 H$ imm_sel [2:0] $end
$var wire 32 I$ instr [31:0] $end
$var reg 32 J$ imm [31:0] $end
$upscope $end
$scope module u_mmu $end
$var wire 2 K$ access [1:0] $end
$var wire 1 ( clk $end
$var wire 1 L flush $end
$var wire 1 L$ l0_invalid $end
$var wire 1 M$ l1_invalid $end
$var wire 1 N$ l1_leaf $end
$var wire 1 O$ mem_ack $end
$var wire 1 P$ mxr $end
$var wire 2 Q$ priv [1:0] $end
$var wire 1 R$ req $end
$var wire 1 ) rst_n $end
$var wire 32 S$ satp [31:0] $end
$var wire 1 T$ sum $end
$var wire 32 U$ vaddr [31:0] $end
$var wire 32 V$ mem_rdata [31:0] $end
$var wire 32 W$ hit_paddr [31:0] $end
$var parameter 2 X$ S_DONE $end
$var parameter 2 Y$ S_IDLE $end
$var parameter 2 Z$ S_L0 $end
$var parameter 2 [$ S_L1 $end
$var parameter 32 \$ TLBN $end
$var reg 2 ]$ access_q [1:0] $end
$var reg 1 j done $end
$var reg 1 i fault $end
$var reg 4 ^$ fault_cause [3:0] $end
$var reg 3 _$ hidx [2:0] $end
$var reg 1 `$ hit $end
$var reg 32 a$ hit_pte [31:0] $end
$var reg 1 b$ hit_sup $end
$var reg 32 c$ leaf_pte [31:0] $end
$var reg 32 d$ mem_addr [31:0] $end
$var reg 1 f mem_req $end
$var reg 32 e$ paddr [31:0] $end
$var reg 3 f$ rr [2:0] $end
$var reg 2 g$ state [1:0] $end
$var reg 32 h$ vaddr_q [31:0] $end
$var integer 32 i$ i [31:0] $end
$scope function bad_leaf $end
$var reg 1 j$ a $end
$var reg 2 k$ acc [1:0] $end
$var reg 1 l$ d $end
$var reg 1 m$ ok $end
$var reg 32 n$ p [31:0] $end
$var reg 1 o$ r $end
$var reg 1 p$ u $end
$var reg 1 q$ w $end
$var reg 1 r$ x $end
$upscope $end
$scope function pf_cause $end
$var reg 2 s$ acc [1:0] $end
$upscope $end
$upscope $end
$scope module u_muldiv $end
$var wire 32 t$ a [31:0] $end
$var wire 32 u$ b [31:0] $end
$var wire 1 ( clk $end
$var wire 1 v$ ge $end
$var wire 1 w$ is_mul $end
$var wire 1 x$ na $end
$var wire 1 y$ nb $end
$var wire 3 z$ op [2:0] $end
$var wire 1 {$ overflow $end
$var wire 1 ) rst_n $end
$var wire 1 |$ signed_div $end
$var wire 1 &# start $end
$var wire 32 }$ rem_hi [31:0] $end
$var wire 64 ~$ p_uu [63:0] $end
$var wire 64 !% p_su [63:0] $end
$var wire 64 "% p_ss [63:0] $end
$var wire 1 c done $end
$var wire 1 #% div_zero $end
$var wire 33 $% diff [32:0] $end
$var wire 1 d busy $end
$var wire 64 %% bu [63:0] $end
$var wire 64 &% bs [63:0] $end
$var wire 64 '% au [63:0] $end
$var wire 64 (% as [63:0] $end
$var wire 64 )% acc_sh [63:0] $end
$var wire 64 *% acc_nx [63:0] $end
$var wire 32 +% abs_b [31:0] $end
$var wire 32 ,% abs_a [31:0] $end
$var parameter 2 -% CALC $end
$var parameter 2 .% FIN $end
$var parameter 2 /% IDLE $end
$var reg 64 0% acc [63:0] $end
$var reg 6 1% cnt [5:0] $end
$var reg 32 2% divisor_q [31:0] $end
$var reg 32 3% mul_res [31:0] $end
$var reg 1 4% neg_q $end
$var reg 1 5% neg_r $end
$var reg 3 6% op_q [2:0] $end
$var reg 32 7% result [31:0] $end
$var reg 2 8% state [1:0] $end
$upscope $end
$scope module u_rf $end
$var wire 1 ( clk $end
$var wire 5 9% rd_addr [4:0] $end
$var wire 32 :% rd_data [31:0] $end
$var wire 5 ;% rs1_addr [4:0] $end
$var wire 5 <% rs2_addr [4:0] $end
$var wire 1 l we $end
$var wire 32 =% rs2_data [31:0] $end
$var wire 32 >% rs1_data [31:0] $end
$var integer 32 ?% i [31:0] $end
$upscope $end
$upscope $end
$scope module u_dmem $end
$var wire 32 @% addr [31:0] $end
$var wire 1 ( clk $end
$var wire 32 A% rdata [31:0] $end
$var wire 32 B% wdata [31:0] $end
$var wire 1 $ we $end
$var wire 4 C% wstrb [3:0] $end
$var wire 8 D% widx [7:0] $end
$var parameter 32 E% WORDS $end
$var integer 32 F% k [31:0] $end
$upscope $end
$scope module u_imem $end
$var wire 32 G% addr [31:0] $end
$var wire 32 H% rdata [31:0] $end
$var parameter 32 I% WORDS $end
$var integer 32 J% k [31:0] $end
$upscope $end
$scope task chk $end
$var reg 32 K% exp [31:0] $end
$var reg 32 L% got [31:0] $end
$var integer 32 M% id [31:0] $end
$upscope $end
$upscope $end
$enddefinitions $end
$comment Show the parameter values. $end
$dumpall
b100000000 I%
b100000000 E%
b0 /%
b10 .%
b1 -%
b1000 \$
b1 [$
b10 Z$
b0 Y$
b11 X$
b1 `"
b10 _"
b0 ^"
b0 ]"
b1 \"
b10 ["
b0 Z"
$end
#0
$dumpvars
bx M%
bx L%
bx K%
b100000000 J%
b10100000000000010010011 H%
b0 G%
b100000000 F%
b0 D%
b0 C%
b0 B%
b0 A%
b0 @%
b100000 ?%
b0 >%
b0 =%
b0 <%
b0 ;%
b0 :%
b0 9%
b0 8%
b0 7%
b0 6%
05%
04%
b0 3%
b0 2%
b0 1%
b0 0%
b0 ,%
b0 +%
b1 *%
b0 )%
b0 (%
b0 '%
b0 &%
b0 %%
b0 $%
1#%
b0 "%
b0 !%
b0 ~$
b0 }$
0|$
0{$
b0 z$
0y$
0x$
1w$
1v$
b0 u$
b0 t$
bx s$
xr$
xq$
xp$
xo$
bx n$
xm$
xl$
bx k$
xj$
b1000 i$
bx h$
b0 g$
b0 f$
b0 e$
bx d$
bx c$
0b$
b0 a$
0`$
b0 _$
b0 ^$
bx ]$
b0 W$
b0 V$
b0 U$
0T$
b0 S$
0R$
b11 Q$
0P$
0O$
0N$
1M$
1L$
b0 K$
b0 J$
b10011 I$
b0 H$
b0 G$
b0 F$
b0 E$
b0 D$
b0 C$
b0 B$
b0 A$
b0 @$
b0 ?$
b0 >$
b0 =$
b0 <$
b0 ;$
b0 :$
b10011 9$
b0 8$
b0 7$
b0 6$
b0 5$
b0 4$
b0 3$
02$
01$
00$
b0 /$
b0 .$
b0 -$
b0 ,$
b11 +$
b0 *$
b0 )$
b0 ($
b0 '$
0&$
b0 %$
b0 $$
0#$
b0 "$
b0 !$
b0 ~#
b0 }#
b0 |#
0{#
b10000000000000000000000000000000 z#
0y#
b0 x#
b0 w#
b0 v#
b0 u#
0t#
b0 s#
b0 r#
b0 q#
b10 p#
0o#
b0 n#
b0 m#
b0 l#
b0 k#
0j#
b11 i#
b0 h#
b0 g#
0f#
0e#
b100010001000 d#
b0 c#
b0 b#
b0 a#
b1111111111111111111111111111111111111111111111111111111111111111 `#
b0 _#
0^#
b0 ]#
b0 \#
b0 [#
b0 Z#
b0 Y#
b0 X#
b0 W#
b0 V#
b0 U#
b0 T#
b0 S#
b0 R#
b0 Q#
b0 P#
bx O#
xN#
bx M#
b0 L#
0K#
bx J#
b0 I#
b0 H#
0G#
b0 F#
b0 E#
b0 D#
b10011 C#
b0 B#
b1 A#
b0 @#
b0 ?#
0>#
b0 =#
b0 <#
b10011 ;#
0:#
b0 9#
08#
07#
06#
05#
04#
b0 3#
b0 2#
b0 1#
b0 0#
0/#
b0 .#
b0 -#
b0 ,#
0+#
0*#
0)#
0(#
0'#
0&#
0%#
0$#
0##
b10011 "#
b0 !#
0~"
b0 }"
x|"
b0 {"
0z"
b0 y"
b0 x"
0w"
0v"
b0 u"
b0 t"
0s"
b0 r"
0q"
b0 p"
0o"
b0 n"
b0 m"
0l"
0k"
0j"
0i"
0h"
b10011 g"
b0 f"
b0 e"
b0 d"
b0 c"
b0 b"
1a"
b0 Y"
0X"
0W"
b0 V"
0U"
b0 T"
b11 S"
b0 R"
b0 Q"
b0 P"
b0 O"
b0 N"
b0 M"
b0 L"
b0 K"
b0 J"
b0 I"
b0 H"
b0 G"
b0 F"
1E"
b0 D"
b0 C"
b0 B"
b0 A"
b0 @"
b10 ?"
b0 >"
b0 ="
1<"
b0 ;"
b0 :"
09"
18"
b0 7"
b0 6"
05"
b0 4"
03"
02"
01"
b0 0"
b0 /"
0."
0-"
0,"
0+"
0*"
0)"
0("
0'"
0&"
b10011 %"
b0 $"
1#"
b0 ""
b0 !"
b0 ~
b0 }
b0 |
b0 {
0z
0y
0x
0w
b0 v
b0 u
b10100000000000010010011 t
b10000000000000000000000000000000 s
0r
0q
b0 p
b0 o
b0 n
b0 m
0l
b1 k
0j
0i
b0 h
bx g
0f
b0 e
0d
0c
b0 b
b100 a
b100 `
b10 _
0^
b0 ]
0\
0[
0Z
0Y
0X
0W
0V
0U
0T
0S
0R
0Q
0P
0O
0N
0M
0L
0K
0J
b0 I
0H
0G
0F
0E
0D
0C
0B
0A
b10100000000000010010011 @
0?
0>
0=
0<
0;
0:
09
08
07
06
05
04
b0 3
02
01
00
0/
0.
0-
0,
b0 +
bx *
0)
0(
b0 '
b0 &
b0 %
0$
b0 #
b0 "
b10100000000000010010011 !
$end
#5000
b1000 i$
1(
#10000
0(
#15000
b1000 i$
1(
#20000
b0 *
1)
0(
#25000
b100 W$
18"
1#"
b11100000000000100010011 @
b11100000000000100010011 !
b11100000000000100010011 t
b11100000000000100010011 H%
b1000 i$
b1 $"
b101 }
b101 G$
b101 <%
b101 6$
b101 0"
b101 J$
b1000 a
b100 "
b100 u
b100 G%
b100 U$
0|"
1w"
1/#
1>#
b10100000000000010010011 ;#
b10100000000000010010011 I$
b100 =#
b1000 `
b100 I#
b1 _#
1(
#30000
b1 *
0(
#35000
b101 D"
b101 A"
b1000 W$
b101 B"
b10011 @
b10011 !
b10011 t
b10011 H%
b1000 i$
18"
1#"
0E"
b101 I
b101 F"
b101 U#
b101 T#
b1100 a
b1000 "
b1000 u
b1000 G%
b1000 U$
b10 $"
b111 }
b111 G$
b111 <%
b111 6$
b111 0"
b111 J$
0U"
b101 G"
b101 S#
b101 @"
b100 3
b10 _#
b1100 `
b1000 I#
b11100000000000100010011 ;#
b11100000000000100010011 I$
b1000 =#
b100 <#
b10100000000000010010011 "#
18#
b101 {"
b101 b#
b101 2#
b101 A$
b1 .#
b1 E$
b100 -#
b101 C"
b101 !#
1o"
1(
#40000
b10 *
0(
#45000
b111 D"
b111 A"
b1011 B"
b1100 W$
b10 A#
b1 D%
b111 I
b111 F"
b111 U#
b111 T#
18"
1#"
b1000 i$
b101 ="
b1 n
b101 \#
b101 '
b101 L"
b101 @%
0U"
b111 G"
b111 S#
b1011 @"
b110 3
b0 $"
b0 }
b0 G$
b0 <%
b0 6$
b0 0"
b0 J$
b10000 a
b1100 "
b1100 u
b1100 G%
b1100 U$
1l
b10100000000000010010011 g"
1q"
b1 n"
b1 ?$
b100 m"
b101 d"
b11100000000000100010011 "#
b111 {"
b111 b#
b111 2#
b111 A$
b10 .#
b10 E$
b1000 -#
b100 ,#
b100 q#
b1011 C"
b111 !#
b10011 ;#
b10011 I$
b1100 =#
b1000 <#
b10000 `
b1100 I#
b11 _#
1(
#50000
b11 *
0(
#55000
b0 D"
b0 A"
b10000 W$
b1000 B"
b1000 i$
1E"
b0 I
b0 F"
b0 U#
b0 T#
b1000 A#
b10100 a
b10000 "
b10000 u
b10000 G%
b10000 U$
0U"
b0 G"
b0 S#
b1000 @"
b0 3
b111 ="
bx00000000 o
b11 n
b111 \#
b111 '
b111 L"
b111 @%
b101 ]
b101 L#
b101 :%
b100 _#
b10100 `
b10000 I#
b10000 =#
b1100 <#
b10011 "#
b0 {"
b0 b#
b0 2#
b0 A$
b0 .#
b0 E$
b1100 -#
b1000 ,#
b1000 q#
b1000 C"
b0 !#
b11100000000000100010011 g"
b10 n"
b10 ?$
b1000 m"
b111 d"
b10100000000000010010011 C#
1G#
b1 m
b1 F#
b1 B$
b1 9%
b100 E#
b101 B#
1(
#60000
b100 *
0(
#65000
b1100 B"
b10100 W$
b1 A#
b0 D%
b1000001000000110110011 @
b1000001000000110110011 !
b1000001000000110110011 t
b1000001000000110110011 H%
b1000 i$
b111 ]
b111 L#
b111 :%
b0 ="
b0 o
b0 n
b0 \#
b0 '
b0 L"
b0 @%
b1100 @"
b11000 a
b10100 "
b10100 u
b10100 G%
b10100 U$
b11100000000000100010011 C#
b10 m
b10 F#
b10 B$
b10 9%
b1000 E#
b111 B#
b10011 g"
b0 n"
b0 ?$
b1100 m"
b0 d"
b10000 -#
b1100 C"
b1100 ,#
b1100 q#
b10100 =#
b10000 <#
b11000 `
b10100 I#
b101 _#
1(
#70000
b101 *
0(
#75000
b11000 W$
b10000 B"
b101 ~
b111 {
b10011 @
b10011 !
b10011 t
b10011 H%
b1000 i$
b101 !"
b101 >%
b111 |
b111 =%
08"
1#"
b11100 a
b11000 "
b11000 u
b11000 G%
b11000 U$
b110011 %"
b110011 9$
b11 $"
b1 ""
b1 F$
b1 ;%
b10 }
b10 G$
b10 <%
b10 6$
b10 0"
b10 J$
b10000 @"
0Z
0[
b0 ]
b0 L#
b0 :%
b110 _#
b11100 `
b11000 I#
b1000001000000110110011 ;#
b1000001000000110110011 I$
b11000 =#
b10100 <#
b10100 -#
b10000 C"
b10000 ,#
b10000 q#
b10000 m"
b10011 C#
b0 m
b0 F#
b0 B$
b0 9%
b1100 E#
b0 B#
1(
#80000
b110 *
0(
#85000
b1100 D"
b1100 A"
b10110 B"
b111 T#
0E"
b1100 I
b1100 F"
b1100 U#
b0 ~
b0 {
b11100 W$
b111 G"
b111 S#
b100011 3%
b111 +%
b101 H"
b101 Q#
b101 O"
b101 ,%
0a"
b0 !"
b0 >%
b0 |
b0 =%
18"
1#"
b1000 i$
0U"
b10110 @"
b110 3
b100011 "%
b111 &%
b100011 ~$
b100011 !%
b111 %%
0#%
b111 c"
b111 u$
b101 (%
b101 '%
b101 b"
b101 t$
b10011 %"
b10011 9$
b0 $"
b0 ""
b0 F$
b0 ;%
b0 }
b0 G$
b0 <%
b0 6$
b0 0"
b0 J$
b100000 a
b11100 "
b11100 u
b11100 G%
b11100 U$
b10000 E#
b10100 m"
b1000001000000110110011 "#
b10 {"
b10 b#
b10 2#
b10 A$
b1 0#
b1 @$
b11 .#
b11 E$
b11000 -#
b10100 ,#
b10100 q#
b10110 C"
b10 !#
b111 3#
b101 1#
0w"
b10011 ;#
b10011 I$
b11100 =#
b11000 <#
b100000 `
b11100 I#
b111 _#
1(
#90000
b111 *
0(
