waveform/tb_core_pipe.vcd
$date
	Sun Jun 14 01:49:51 2026
$end
$version
	Icarus Verilog
$end
$timescale
	1ps
$end
$scope module tb_core_pipe $end
$var wire 32 ! imem_rdata [31:0] $end
$var wire 32 " imem_addr [31:0] $end
$var wire 4 # dmem_wstrb [3:0] $end
$var wire 1 $ dmem_we $end
$var wire 32 % dmem_wdata [31:0] $end
$var wire 32 & dmem_rdata [31:0] $end
$var wire 32 ' dmem_addr [31:0] $end
$var reg 1 ( clk $end
$var reg 1 ) rst_n $end
$var integer 32 * c [31:0] $end
$var integer 32 + errors [31:0] $end
$scope module dut $end
$var wire 1 , clint_sel $end
$var wire 1 ( clk $end
$var wire 1 - csr_illegal $end
$var wire 1 . csr_wr $end
$var wire 32 / dmem_addr [31:0] $end
$var wire 1 $ dmem_we $end
$var wire 1 0 ex_branch_taken $end
$var wire 32 1 ex_jalr_target [31:0] $end
$var wire 1 2 ex_mret $end
$var wire 1 3 ex_redirect $end
$var wire 1 4 ex_sret $end
$var wire 1 5 ex_take_pc $end
$var wire 1 6 ex_trap $end
$var wire 1 7 ex_trap_sync $end
$var wire 32 8 if_instr [31:0] $end
$var wire 32 9 imem_addr [31:0] $end
$var wire 1 : instr_misalign $end
$var wire 1 ; is_store_acc $end
$var wire 1 < load_misalign $end
$var wire 1 = mem_access $end
$var wire 32 > mem_addr_ex [31:0] $end
$var wire 1 ? mret_ok $end
$var wire 1 @ mul_stall $end
$var wire 1 ) rst_n $end
$var wire 1 A sc_ok $end
$var wire 1 B sret_ok $end
$var wire 1 C stall_front $end
$var wire 1 D store_misalign $end
$var wire 1 E take_int $end
$var wire 1 F wb2id_rs1 $end
$var wire 1 G wb2id_rs2 $end
$var wire 1 H xret_illegal $end
$var wire 32 I wb_data [31:0] $end
$var wire 1 J sz_misalign $end
$var wire 32 K sync_cause [31:0] $end
$var wire 32 L pc_plus4 [31:0] $end
$var wire 32 M next_pc [31:0] $end
$var wire 32 N mul_result [31:0] $end
$var wire 1 O mul_done $end
$var wire 1 P mul_busy $end
$var wire 1 Q memwb_reg_write $end
$var wire 5 R memwb_rd [4:0] $end
$var wire 2 S mem_off [1:0] $end
$var wire 16 T mem_ld_half [15:0] $end
$var wire 8 U mem_ld_byte [7:0] $end
$var wire 1 V load_use_stall $end
$var wire 1 W irq_pending $end
$var wire 32 X irq_cause [31:0] $end
$var wire 32 Y imem_rdata [31:0] $end
$var wire 2 Z id_wb_sel [1:0] $end
$var wire 1 [ id_sys_sret $end
$var wire 1 \ id_sys_mret $end
$var wire 1 ] id_sys_ecall $end
$var wire 1 ^ id_sys_ebreak $end
$var wire 32 _ id_rs2_fwd [31:0] $end
$var wire 32 ` id_rs2_data [31:0] $end
$var wire 5 a id_rs2 [4:0] $end
$var wire 32 b id_rs1_fwd [31:0] $end
$var wire 32 c id_rs1_data [31:0] $end
$var wire 5 d id_rs1 [4:0] $end
$var wire 1 e id_reg_write $end
$var wire 5 f id_rd [4:0] $end
$var wire 7 g id_opcode [6:0] $end
$var wire 1 h id_mem_write $end
$var wire 1 i id_mem_read $end
$var wire 1 j id_jump $end
$var wire 1 k id_jalr $end
$var wire 1 l id_is_sc $end
$var wire 1 m id_is_muldiv $end
$var wire 1 n id_is_lr $end
$var wire 1 o id_is_csr $end
$var wire 1 p id_is_amo $end
$var wire 3 q id_imm_sel [2:0] $end
$var wire 32 r id_imm [31:0] $end
$var wire 1 s id_illegal $end
$var wire 1 t id_funct7b5 $end
$var wire 1 u id_funct7b0 $end
$var wire 3 v id_funct3 [2:0] $end
$var wire 1 w id_branch $end
$var wire 5 x id_amo_op [4:0] $end
$var wire 4 y id_alu_op [3:0] $end
$var wire 1 z id_alu_b_src $end
$var wire 1 { id_alu_a_src $end
$var wire 2 | forward_b [1:0] $end
$var wire 2 } forward_a [1:0] $end
$var wire 32 ~ exmem_fwd_val [31:0] $end
$var wire 32 !" ex_trap_val [31:0] $end
$var wire 32 "" ex_trap_cause [31:0] $end
$var wire 32 #" ex_target [31:0] $end
$var wire 32 $" ex_result [31:0] $end
$var wire 32 %" ex_redirect_pc [31:0] $end
$var wire 32 &" ex_pc_target [31:0] $end
$var wire 1 '" ex_alu_zero $end
$var wire 32 (" ex_alu_result [31:0] $end
$var wire 32 )" ex_alu_b [31:0] $end
$var wire 32 *" ex_alu_a [31:0] $end
$var wire 4 +" dmem_wstrb [3:0] $end
$var wire 32 ," dmem_wdata [31:0] $end
$var wire 32 -" dmem_rdata [31:0] $end
$var wire 32 ." csr_wval [31:0] $end
$var wire 32 /" csr_trap_vec [31:0] $end
$var wire 32 0" csr_src [31:0] $end
$var wire 32 1" csr_ret_pc [31:0] $end
$var wire 32 2" csr_rdata [31:0] $end
$var wire 2 3" csr_priv [1:0] $end
$var wire 2 4" csr_op [1:0] $end
$var wire 1 5" csr_addr_valid $end
$var wire 32 6" clint_rdata [31:0] $end
$var wire 1 7" clint_mtip $end
$var wire 32 8" amo_wval [31:0] $end
$var parameter 32 9" RESET_PC $end
$var reg 1 :" ex_branch_cond $end
$var reg 32 ;" ex_rs1_fwd [31:0] $end
$var reg 32 <" ex_rs2_fwd [31:0] $end
$var reg 32 =" exmem_alu_result [31:0] $end
$var reg 5 >" exmem_amo_op [4:0] $end
$var reg 3 ?" exmem_funct3 [2:0] $end
$var reg 32 @" exmem_instr [31:0] $end
$var reg 1 A" exmem_is_amo $end
$var reg 1 B" exmem_is_lr $end
$var reg 1 C" exmem_is_sc $end
$var reg 1 D" exmem_mem_read $end
$var reg 1 E" exmem_mem_write $end
$var reg 32 F" exmem_pc4 [31:0] $end
$var reg 5 G" exmem_rd [4:0] $end
$var reg 1 H" exmem_reg_write $end
$var reg 32 I" exmem_rs2_data [31:0] $end
$var reg 1 J" exmem_valid $end
$var reg 2 K" exmem_wb_sel [1:0] $end
$var reg 1 L" idex_alu_a_src $end
$var reg 1 M" idex_alu_b_src $end
$var reg 4 N" idex_alu_op [3:0] $end
$var reg 5 O" idex_amo_op [4:0] $end
$var reg 1 P" idex_branch $end
$var reg 12 Q" idex_csr_addr [11:0] $end
$var reg 3 R" idex_funct3 [2:0] $end
$var reg 1 S" idex_illegal $end
$var reg 32 T" idex_imm [31:0] $end
$var reg 32 U" idex_instr [31:0] $end
$var reg 1 V" idex_is_amo $end
$var reg 1 W" idex_is_csr $end
$var reg 1 X" idex_is_lr $end
$var reg 1 Y" idex_is_muldiv $end
$var reg 1 Z" idex_is_sc $end
$var reg 1 [" idex_jalr $end
$var reg 1 \" idex_jump $end
$var reg 1 ]" idex_mem_read $end
$var reg 1 ^" idex_mem_write $end
$var reg 32 _" idex_pc [31:0] $end
$var reg 32 `" idex_pc4 [31:0] $end
$var reg 5 a" idex_rd [4:0] $end
$var reg 1 b" idex_reg_write $end
$var reg 5 c" idex_rs1 [4:0] $end
$var reg 32 d" idex_rs1_data [31:0] $end
$var reg 5 e" idex_rs2 [4:0] $end
$var reg 32 f" idex_rs2_data [31:0] $end
$var reg 1 g" idex_sys_ebreak $end
$var reg 1 h" idex_sys_ecall $end
$var reg 1 i" idex_sys_mret $end
$var reg 1 j" idex_sys_sret $end
$var reg 1 k" idex_valid $end
$var reg 2 l" idex_wb_sel [1:0] $end
$var reg 32 m" ifid_instr [31:0] $end
$var reg 32 n" ifid_pc [31:0] $end
$var reg 32 o" ifid_pc4 [31:0] $end
$var reg 1 p" ifid_valid $end
$var reg 32 q" mem_load_data [31:0] $end
$var reg 32 r" mem_store_data [31:0] $end
$var reg 4 s" mem_store_strb [3:0] $end
$var reg 32 t" memwb_alu_result [31:0] $end
$var reg 32 u" memwb_instr [31:0] $end
$var reg 32 v" memwb_load_data [31:0] $end
$var reg 32 w" memwb_pc4 [31:0] $end
$var reg 5 x" memwb_rd_r [4:0] $end
$var reg 1 Q memwb_reg_write_r $end
$var reg 1 y" memwb_valid $end
$var reg 2 z" memwb_wb_sel [1:0] $end
$var reg 32 {" pc [31:0] $end
$var reg 32 |" resv_addr [31:0] $end
$var reg 1 }" resv_valid $end
$var reg 32 ~" wb_mux [31:0] $end
$scope module u_alu $end
$var wire 32 !# a [31:0] $end
$var wire 4 "# alu_op [3:0] $end
$var wire 32 ## b [31:0] $end
$var wire 1 '" zero $end
$var wire 5 $# shamt [4:0] $end
$var reg 32 %# result [31:0] $end
$upscope $end
$scope module u_amo $end
$var wire 5 &# amo_op [4:0] $end
$var wire 32 '# rs2_val [31:0] $end
$var wire 32 (# s_mem [31:0] $end
$var wire 32 )# s_rs2 [31:0] $end
$var wire 32 *# mem_val [31:0] $end
$var reg 32 +# result [31:0] $end
$upscope $end
$scope module u_clint $end
$var wire 1 ( clk $end
$var wire 16 ,# off [15:0] $end
$var wire 1 ) rst_n $end
$var wire 1 , sel $end
$var wire 32 -# wdata [31:0] $end
$var wire 1 .# we $end
$var wire 1 7" mtip $end
$var reg 64 /# mtime [63:0] $end
$var reg 64 0# mtimecmp [63:0] $end
$var reg 32 1# rdata [31:0] $end
$upscope $end
$scope module u_csr $end
$var wire 12 2# addr [11:0] $end
$var wire 1 ( clk $end
$var wire 1 3# m_en $end
$var wire 32 4# mip_eff [31:0] $end
$var wire 1 2 mret_en $end
$var wire 1 7" mtip_i $end
$var wire 32 5# pend [31:0] $end
$var wire 2 6# priv_o [1:0] $end
$var wire 1 W" rd_en $end
$var wire 1 ) rst_n $end
$var wire 1 7# s_en $end
$var wire 32 8# sie_v [31:0] $end
$var wire 32 9# sip_v [31:0] $end
$var wire 1 4 sret_en $end
$var wire 32 :# take [31:0] $end
$var wire 1 ;# to_s $end
$var wire 32 <# trap_cause [31:0] $end
$var wire 1 6 trap_en $end
$var wire 32 =# trap_epc [31:0] $end
$var wire 32 ># trap_val [31:0] $end
$var wire 32 ?# wdata [31:0] $end
$var wire 1 @# wr_en $end
$var wire 32 A# trap_vec_o [31:0] $end
$var wire 32 B# sstatus [31:0] $end
$var wire 32 C# ret_pc_o [31:0] $end
$var wire 32 D# mstatus [31:0] $end
$var wire 1 E# is_int $end
$var wire 1 W irq_pending $end
$var wire 32 F# irq_cause [31:0] $end
$var wire 1 G# deleg $end
$var reg 1 5" addr_valid $end
$var reg 5 H# icode [4:0] $end
$var reg 32 I# mcause [31:0] $end
$var reg 32 J# medeleg [31:0] $end
$var reg 32 K# mepc [31:0] $end
$var reg 32 L# mideleg [31:0] $end
$var reg 1 M# mie $end
$var reg 32 N# mie_r [31:0] $end
$var reg 32 O# mip_r [31:0] $end
$var reg 1 P# mpie $end
$var reg 2 Q# mpp [1:0] $end
$var reg 32 R# mscratch [31:0] $end
$var reg 32 S# mtval [31:0] $end
$var reg 32 T# mtvec [31:0] $end
$var reg 2 U# priv [1:0] $end
$var reg 32 V# rdata [31:0] $end
$var reg 32 W# satp [31:0] $end
$var reg 32 X# scause [31:0] $end
$var reg 32 Y# sepc [31:0] $end
$var reg 1 Z# sie $end
$var reg 1 [# spie $end
$var reg 1 \# spp $end
$var reg 32 ]# sscratch [31:0] $end
$var reg 32 ^# stval [31:0] $end
$var reg 32 _# stvec [31:0] $end
$upscope $end
$scope module u_ctrl $end
$var wire 12 `# funct12 [11:0] $end
$var wire 3 a# funct3 [2:0] $end
$var wire 5 b# funct5 [4:0] $end
$var wire 1 u funct7b0 $end
$var wire 1 t funct7b5 $end
$var wire 7 c# opcode [6:0] $end
$var reg 1 { alu_a_src $end
$var reg 4 d# alu_arith [3:0] $end
$var reg 1 z alu_b_src $end
$var reg 4 e# alu_op [3:0] $end
$var reg 5 f# amo_op [4:0] $end
$var reg 1 w branch $end
$var reg 1 s illegal $end
$var reg 3 g# imm_sel [2:0] $end
$var reg 1 p is_amo $end
$var reg 1 o is_csr $end
$var reg 1 n is_lr $end
$var reg 1 m is_muldiv $end
$var reg 1 l is_sc $end
$var reg 1 k jalr $end
$var reg 1 j jump $end
$var reg 1 i mem_read $end
$var reg 1 h mem_write $end
$var reg 1 e reg_write $end
$var reg 1 ^ sys_ebreak $end
$var reg 1 ] sys_ecall $end
$var reg 1 \ sys_mret $end
$var reg 1 [ sys_sret $end
$var reg 2 h# wb_sel [1:0] $end
$upscope $end
$scope module u_fwd $end
$var wire 5 i# exmem_rd [4:0] $end
$var wire 1 H" exmem_reg_write $end
$var wire 5 j# idex_rs1 [4:0] $end
$var wire 5 k# idex_rs2 [4:0] $end
$var wire 5 l# memwb_rd [4:0] $end
$var wire 1 Q memwb_reg_write $end
$var reg 2 m# forward_a [1:0] $end
$var reg 2 n# forward_b [1:0] $end
$upscope $end
$scope module u_hazard $end
$var wire 1 ]" idex_mem_read $end
$var wire 5 o# idex_rd [4:0] $end
$var wire 5 p# ifid_rs1 [4:0] $end
$var wire 5 q# ifid_rs2 [4:0] $end
$var wire 1 V stall $end
$upscope $end
$scope module u_imm $end
$var wire 3 r# imm_sel [2:0] $end
$var wire 32 s# instr [31:0] $end
$var reg 32 t# imm [31:0] $end
$upscope $end
$scope module u_muldiv $end
$var wire 32 u# a [31:0] $end
$var wire 32 v# b [31:0] $end
$var wire 1 ( clk $end
$var wire 1 w# ge $end
$var wire 1 x# is_mul $end
$var wire 1 y# na $end
$var wire 1 z# nb $end
$var wire 3 {# op [2:0] $end
$var wire 1 |# overflow $end
$var wire 1 ) rst_n $end
$var wire 1 }# signed_div $end
$var wire 1 Y" start $end
$var wire 32 ~# rem_hi [31:0] $end
$var wire 64 !$ p_uu [63:0] $end
$var wire 64 "$ p_su [63:0] $end
$var wire 64 #$ p_ss [63:0] $end
$var wire 1 O done $end
$var wire 1 $$ div_zero $end
$var wire 33 %$ diff [32:0] $end
$var wire 1 P busy $end
$var wire 64 &$ bu [63:0] $end
$var wire 64 '$ bs [63:0] $end
$var wire 64 ($ au [63:0] $end
$var wire 64 )$ as [63:0] $end
$var wire 64 *$ acc_sh [63:0] $end
$var wire 64 +$ acc_nx [63:0] $end
$var wire 32 ,$ abs_b [31:0] $end
$var wire 32 -$ abs_a [31:0] $end
$var parameter 2 .$ CALC $end
$var parameter 2 /$ FIN $end
$var parameter 2 0$ IDLE $end
$var reg 64 1$ acc [63:0] $end
$var reg 6 2$ cnt [5:0] $end
$var reg 32 3$ divisor_q [31:0] $end
$var reg 32 4$ mul_res [31:0] $end
$var reg 1 5$ neg_q $end
$var reg 1 6$ neg_r $end
$var reg 3 7$ op_q [2:0] $end
$var reg 32 8$ result [31:0] $end
$var reg 2 9$ state [1:0] $end
$upscope $end
$scope module u_rf $end
$var wire 1 ( clk $end
$var wire 5 :$ rd_addr [4:0] $end
$var wire 32 ;$ rd_data [31:0] $end
$var wire 5 <$ rs1_addr [4:0] $end
$var wire 5 =$ rs2_addr [4:0] $end
$var wire 1 Q we $end
$var wire 32 >$ rs2_data [31:0] $end
$var wire 32 ?$ rs1_data [31:0] $end
$var integer 32 @$ i [31:0] $end
$upscope $end
$upscope $end
$scope module u_dmem $end
$var wire 32 A$ addr [31:0] $end
$var wire 1 ( clk $end
$var wire 32 B$ rdata [31:0] $end
$var wire 32 C$ wdata [31:0] $end
$var wire 1 $ we $end
$var wire 4 D$ wstrb [3:0] $end
$var wire 8 E$ widx [7:0] $end
$var parameter 32 F$ WORDS $end
$var integer 32 G$ k [31:0] $end
$upscope $end
$scope module u_imem $end
$var wire 32 H$ addr [31:0] $end
$var wire 32 I$ rdata [31:0] $end
$var parameter 32 J$ WORDS $end
$var integer 32 K$ k [31:0] $end
$upscope $end
$scope task chk $end
$var reg 32 L$ exp [31:0] $end
$var reg 32 M$ got [31:0] $end
$var integer 32 N$ id [31:0] $end
$upscope $end
$upscope $end
$enddefinitions $end
$comment Show the parameter values. $end
$dumpall
b100000000 J$
b100000000 F$
b0 0$
b10 /$
b1 .$
b0 9"
$end
#0
$dumpvars
bx N$
bx M$
bx L$
b100000000 K$
b10100000000000010010011 I$
b0 H$
b100000000 G$
b0 E$
b0 D$
b0 C$
b0 B$
b0 A$
b100000 @$
b0 ?$
b0 >$
b0 =$
b0 <$
b0 ;$
b0 :$
b0 9$
b0 8$
b0 7$
06$
05$
b0 4$
b0 3$
b0 2$
b0 1$
b0 -$
b0 ,$
b1 +$
b0 *$
b0 )$
b0 ($
b0 '$
b0 &$
b0 %$
1$$
b0 #$
b0 "$
b0 !$
b0 ~#
0}#
0|#
b0 {#
0z#
0y#
1x#
1w#
b0 v#
b0 u#
b0 t#
b10011 s#
b0 r#
b0 q#
b0 p#
b0 o#
b0 n#
b0 m#
b0 l#
b0 k#
b0 j#
b0 i#
b0 h#
b0 g#
b0 f#
b0 e#
b0 d#
b10011 c#
b0 b#
b0 a#
b0 `#
b0 _#
b0 ^#
b0 ]#
0\#
0[#
0Z#
b0 Y#
b0 X#
b0 W#
b0 V#
b11 U#
b0 T#
b0 S#
b0 R#
b0 Q#
0P#
b0 O#
b0 N#
0M#
b0 L#
b0 K#
b0 J#
b0 I#
b0 H#
0G#
b10000000000000000000000000000000 F#
0E#
b0 D#
b0 C#
b0 B#
b0 A#
0@#
b0 ?#
b0 >#
b0 =#
b10 <#
0;#
b0 :#
b0 9#
b0 8#
07#
b11 6#
b0 5#
b0 4#
03#
b0 2#
b0 1#
b1111111111111111111111111111111111111111111111111111111111111111 0#
b0 /#
0.#
b0 -#
b0 ,#
b0 +#
b0 *#
b0 )#
b0 (#
b0 '#
b0 &#
b0 %#
b0 $#
b0 ##
b0 "#
b0 !#
b0 ~"
0}"
bx |"
b0 {"
b0 z"
0y"
b0 x"
b0 w"
b0 v"
b10011 u"
b0 t"
b1 s"
b0 r"
b0 q"
0p"
b0 o"
b0 n"
b10011 m"
b0 l"
0k"
0j"
0i"
0h"
0g"
b0 f"
b0 e"
b0 d"
b0 c"
0b"
b0 a"
b0 `"
b0 _"
0^"
0]"
0\"
0["
0Z"
0Y"
0X"
0W"
0V"
b10011 U"
b0 T"
0S"
b0 R"
b0 Q"
0P"
b0 O"
b0 N"
0M"
0L"
b0 K"
0J"
b0 I"
0H"
b0 G"
b0 F"
0E"
0D"
0C"
0B"
0A"
b10011 @"
b0 ?"
b0 >"
b0 ="
b0 <"
b0 ;"
1:"
b0 8"
07"
b0 6"
05"
b0 4"
b11 3"
b0 2"
b0 1"
b0 0"
b0 /"
b0 ."
b0 -"
b0 ,"
b0 +"
b0 *"
b0 )"
b0 ("
1'"
b0 &"
b0 %"
b0 $"
b0 #"
b10 ""
b0 !"
b0 ~
b0 }
b0 |
0{
1z
b0 y
b0 x
0w
b0 v
0u
0t
0s
b0 r
b0 q
0p
0o
0n
0m
0l
0k
0j
0i
0h
b10011 g
b0 f
1e
b0 d
b0 c
b0 b
b0 a
b0 `
b0 _
0^
0]
0\
0[
b0 Z
b10100000000000010010011 Y
b10000000000000000000000000000000 X
0W
0V
b0 U
b0 T
b0 S
b0 R
0Q
0P
0O
b0 N
b100 M
b100 L
b10 K
0J
b0 I
0H
0G
0F
0E
0D
0C
0B
0A
0@
0?
b0 >
0=
0<
0;
0:
b0 9
b10100000000000010010011 8
07
06
05
04
03
02
b0 1
00
b0 /
0.
0-
0,
b0 +
bx *
0)
0(
b0 '
b0 &
b0 %
0$
b0 #
b0 "
b10100000000000010010011 !
$end
#5000
1(
#10000
0(
#15000
1(
#20000
b0 *
1)
0(
#25000
1z
1e
b1 f
b101 a
b101 q#
b101 =$
b101 `#
b101 r
b101 t#
b1000 M
b11100000000000100010011 8
b11100000000000100010011 !
b11100000000000100010011 Y
b11100000000000100010011 I$
1M"
1b"
1p"
b10100000000000010010011 m"
b10100000000000010010011 s#
b100 o"
b1000 L
b100 "
b100 9
b100 H$
b100 {"
b1 /#
1(
#30000
b1 *
0(
#35000
b101 $"
b101 %"
1z
1e
0'"
b101 >
b101 ("
b101 %#
b101 $#
b1100 M
b10011 8
b10011 !
b10011 Y
b10011 I$
b10 f
b111 a
b111 q#
b111 =$
b111 `#
b111 r
b111 t#
05"
b101 )"
b101 ##
b101 #"
b100 1
b10 /#
b1100 L
b1000 "
b1000 9
b1000 H$
b1000 {"
b11100000000000100010011 m"
b11100000000000100010011 s#
b1000 o"
b100 n"
b10100000000000010010011 U"
1k"
b101 Q"
b101 2#
b101 e"
b101 k#
b1 a"
b1 o#
b100 `"
b101 &"
b101 T"
1H"
1(
#40000
b10 *
0(
#45000
b111 $"
b1011 %"
b10 s"
b111 >
b111 ("
b111 %#
b111 $#
1z
1e
b101 ~
b1 S
b101 ,#
b1 E$
05"
b111 )"
b111 ##
b1011 #"
b110 1
b0 f
b0 a
b0 q#
b0 =$
b0 `#
b0 r
b0 t#
b10000 M
1Q
b10100000000000010010011 @"
1J"
b1 G"
b1 i#
b100 F"
b101 '
b101 /
b101 A$
b101 ="
b11100000000000100010011 U"
b111 Q"
b111 2#
b111 e"
b111 k#
b10 a"
b10 o#
b1000 `"
b100 _"
b100 =#
b1011 &"
b111 T"
b10011 m"
b10011 s#
b1100 o"
b1000 n"
b10000 L
b1100 "
b1100 9
b1100 H$
b1100 {"
b11 /#
1(
#50000
b11 *
0(
#55000
b0 $"
b1000 %"
1'"
b0 >
b0 ("
b0 %#
b0 $#
b1000 s"
b10100 M
05"
b0 )"
b0 ##
b1000 #"
b0 1
b111 ~
bx00000000 T
b11 S
b111 ,#
b101 I
b101 ~"
b101 ;$
b100 /#
b10100 L
b10000 "
b10000 9
b10000 H$
b10000 {"
b10000 o"
b1100 n"
b10011 U"
b0 Q"
b0 2#
b0 e"
b0 k#
b0 a"
b0 o#
b1100 `"
b1000 _"
b1000 =#
b1000 &"
b0 T"
b11100000000000100010011 @"
b10 G"
b10 i#
b1000 F"
b111 '
b111 /
b111 A$
b111 ="
b10100000000000010010011 u"
1y"
b1 R
b1 x"
b1 l#
b1 :$
b100 w"
b101 t"
1(
#60000
b100 *
0(
#65000
b1100 %"
b1 s"
b111 I
b111 ~"
b111 ;$
b0 ~
b0 T
b0 S
b0 ,#
b0 E$
b1100 #"
b11000 M
b1000001000000110110011 8
b1000001000000110110011 !
b1000001000000110110011 Y
b1000001000000110110011 I$
b11100000000000100010011 u"
b10 R
b10 x"
b10 l#
b10 :$
b1000 w"
b111 t"
b10011 @"
b0 G"
b0 i#
b1100 F"
b0 '
b0 /
b0 A$
b0 ="
b10000 `"
b1100 &"
b1100 _"
b1100 =#
b10100 o"
b10000 n"
b11000 L
b10100 "
b10100 9
b10100 H$
b10100 {"
b101 /#
1(
#70000
b101 *
0(
#75000
b10000 %"
b101 b
b111 _
b101 c
b101 ?$
b111 `
b111 >$
0z
1e
b11100 M
b10011 8
b10011 !
b10011 Y
b10011 I$
b110011 g
b110011 c#
b11 f
b1 d
b1 p#
b1 <$
b10 a
b10 q#
b10 =$
b10 `#
b10 r
b10 t#
b10000 #"
0F
0G
b0 I
b0 ~"
b0 ;$
b110 /#
b11100 L
b11000 "
b11000 9
b11000 H$
b11000 {"
b1000001000000110110011 m"
b1000001000000110110011 s#
b11000 o"
b10100 n"
b10100 `"
b10000 &"
b10000 _"
b10000 =#
b10000 F"
b10011 u"
b0 R
b0 x"
b0 l#
b0 :$
b1100 w"
b0 t"
1(
#80000
b110 *
0(
#85000
b1100 $"
b10110 %"
b111 $#
0'"
b1100 >
b1100 ("
b1100 %#
b0 b
b0 _
b111 )"
b111 ##
b100011 4$
b111 ,$
b101 *"
b101 !#
b101 0"
b101 -$
0:"
b0 c
b0 ?$
b0 `
b0 >$
1z
1e
05"
b10110 #"
b110 1
b100011 #$
b111 '$
b100011 !$
b100011 "$
b111 &$
0$$
b111 <"
b111 v#
b101 )$
b101 ($
b101 ;"
b101 u#
b10011 g
b10011 c#
b0 f
b0 d
b0 p#
b0 <$
b0 a
b0 q#
b0 =$
b0 `#
b0 r
b0 t#
b100000 M
b10000 w"
b10100 F"
b1000001000000110110011 U"
b10 Q"
b10 2#
b10 e"
b10 k#
b1 c"
b1 j#
b11 a"
b11 o#
b11000 `"
b10100 _"
b10100 =#
b10110 &"
b10 T"
b111 f"
b101 d"
0M"
b10011 m"
b10011 s#
b11100 o"
b11000 n"
b100000 L
b11100 "
b11100 9
b11100 H$
b11100 {"
b111 /#
1(
#90000
b111 *
0(
#95000
b0 $"
b11000 %"
1'"
b111 %
b111 ,"
b111 C$
b0 ,$
b0 *"
b0 !#
b0 0"
b0 4$
b0 -$
1:"
b0 >
b0 ("
b0 %#
b0 $#
b100100 M
05"
b11000 #"
b0 1
b0 '$
b0 &$
1$$
b0 <"
b0 v#
b0 #$
b0 "$
b0 )$
b0 !$
b0 ($
b0 ;"
b0 u#
b0 )"
b0 ##
b111 8"
b111 +#
b111 r"
b1100 ~
b1100 ,#
b11 E$
b1000 /#
b100100 L
b100000 "
b100000 9
b100000 H$
b100000 {"
b100000 o"
b11100 n"
b10011 U"
b0 Q"
b0 2#
b0 e"
b0 k#
b0 c"
b0 j#
b0 a"
b0 o#
b11100 `"
b11000 _"
b11000 =#
b11000 &"
b0 T"
b0 f"
b0 d"
1M"
b1000001000000110110011 @"
b11 G"
b11 i#
b11000 F"
b111 )#
b111 I"
b111 '#
b111 -#
b1100 '
b1100 /
b1100 A$
b1100 ="
b10100 w"
1(
#100000
b1000 *
0(
#105000
b0 %
b0 ,"
b0 C$
b11100 %"
b1100 I
b1100 ~"
b1100 ;$
b0 8"
b0 +#
b0 r"
b0 ~
b0 ,#
b0 E$
b11100 #"
b101000 M
b1100000010000000100011 8
b1100000010000000100011 !
b1100000010000000100011 Y
b1100000010000000100011 I$
b1000001000000110110011 u"
b11 R
b11 x"
b11 l#
b11 :$
b11000 w"
b1100 t"
b10011 @"
b0 G"
b0 i#
b11100 F"
b0 )#
b0 I"
b0 '#
b0 -#
b0 '
b0 /
b0 A$
b0 ="
b100000 `"
b11100 &"
b11100 _"
b11100 =#
b100100 o"
b100000 n"
b101000 L
b100100 "
b100100 9
b100100 H$
b100100 {"
b1001 /#
1(
#110000
b1001 *
0(
#115000
b100000 %"
b1100 _
b1100 `
b1100 >$
b11 d#
1h
b1 q
b1 g#
b1 r#
1z
0e
b101100 M
b10011 8
b10011 !
b10011 Y
b10011 I$
b100011 g
b100011 c#
b11 a
b11 q#
b11 =$
b10 v
b10 a#
b11 `#
b0 r
b0 t#
b100000 #"
0F
0G
b0 I
b0 ~"
b0 ;$
b1010 /#
b101100 L
b101000 "
b101000 9
b101000 H$
b101000 {"
b1100000010000000100011 m"
b1100000010000000100011 s#
b101000 o"
b100100 n"
b100100 `"
b100000 &"
b100000 _"
b100000 =#
b100000 F"
b10011 u"
b0 R
b0 x"
b0 l#
b0 :$
b11100 w"
b0 t"
1(
#120000
b1010 *
0(
#125000
1=
b100100 %"
b0 _
b1100 ,$
1;
b0 `
b0 >$
b0 d#
1e
0h
b0 q
b0 g#
b0 r#
1z
05"
b10 4"
0:"
b100100 #"
b1100 '$
b1100 &$
0$$
b1100 <"
b1100 v#
b10011 g
b10011 c#
b0 a
b0 q#
b0 =$
b0 v
b0 a#
b0 `#
b110000 M
b100000 w"
b100100 F"
b1100000010000000100011 U"
b11 Q"
b11 2#
b10 R"
b10 {#
b11 e"
b11 k#
b101000 `"
b100100 &"
b100100 _"
b100100 =#
b1100 f"
1^"
0b"
b10011 m"
b10011 s#
b101100 o"
b101000 n"
b110000 L
b101100 "
b101100 9
b101100 H$
b101100 {"
b1011 /#
1(
#130000
b1011 *
0(
#135000
0=
b101000 %"
b1100 %
b1100 ,"
b1100 C$
1$
1x#
b0 ,$
0;
b1111 #
b1111 +"
b1111 D$
b110100 M
05"
b0 4"
1:"
b101000 #"
b0 '$
b0 &$
1$$
b0 <"
b0 v#
b1100 8"
b1100 +#
b1111 s"
b1100 r"
b1100 /#
b110100 L
b110000 "
b110000 9
b110000 H$
b110000 {"
b110000 o"
b101100 n"
b10011 U"
b0 Q"
b0 2#
b0 R"
b0 {#
b0 e"
b0 k#
b101100 `"
b101000 &"
b101000 _"
b101000 =#
b0 f"
0^"
1b"
b1100000010000000100011 @"
b10 ?"
b101000 F"
b1100 )#
b1100 I"
b1100 '#
b1100 -#
1E"
0H"
b100100 w"
1(
#140000
b1100 *
0(
#145000
b0 %
b0 ,"
b0 C$
0$
b101100 %"
b0 #
b0 +"
b0 D$
b1 s"
b0 r"
b101100 #"
b111000 M
b10001000000011 8
b10001000000011 !
b10001000000011 Y
b10001000000011 I$
b1100 q"
b1100000010000000100011 u"
b101000 w"
0Q
b10011 @"
b0 ?"
b101100 F"
b0 )#
b0 I"
b0 '#
b0 -#
0E"
1H"
b110000 `"
b101100 &"
b101100 _"
b101100 =#
b110100 o"
b110000 n"
b111000 L
b110100 "
b110100 9
b110100 H$
b110100 {"
b1101 /#
b1100 (#
b1100 T
b1100 U
b1100 &
b1100 -"
b1100 *#
b1100 B$
1(
#150000
b1101 *
0(
#155000
b110000 %"
b1 Z
b1 h#
1i
1z
1e
b11 d#
b111100 M
b10011 8
b10011 !
b10011 Y
b10011 I$
b11 g
b11 c#
b100 f
b10 v
b10 a#
b110000 #"
b1110 /#
b111100 L
b111000 "
b111000 9
b111000 H$
b111000 {"
b10001000000011 m"
b10001000000011 s#
b111000 o"
b110100 n"
b110100 `"
b110000 &"
b110000 _"
b110000 =#
b110000 F"
b10011 u"
b101100 w"
b1100 v"
1Q
1(
#160000
b1110 *
0(
#165000
1=
b110100 %"
b0 Z
b0 h#
0i
1z
1e
b0 d#
b10 4"
0:"
b110100 #"
b10011 g
b10011 c#
b0 f
b0 v
b0 a#
b1000000 M
b110000 w"
b110100 F"
b10001000000011 U"
b10 R"
b10 {#
b100 a"
b100 o#
b111000 `"
b110100 &"
b110100 _"
b110100 =#
b1 l"
1]"
b10011 m"
b10011 s#
b111100 o"
b111000 n"
b1000000 L
b111100 "
b111100 9
b111100 H$
b111100 {"
b1111 /#
1(
#170000
b1111 *
0(
