waveform/tb_core_pipe.vcd
$date
	Sat Jun 13 21:10:54 2026
$end
$version
	Icarus Verilog
$end
$timescale
	1ps
$end
$scope module tb_core_pipe $end
$var wire 32 ! imem_rdata [31:0] $end
$var wire 32 " imem_addr [31:0] $end
$var wire 4 # dmem_wstrb [3:0] $end
$var wire 1 $ dmem_we $end
$var wire 32 % dmem_wdata [31:0] $end
$var wire 32 & dmem_rdata [31:0] $end
$var wire 32 ' dmem_addr [31:0] $end
$var reg 1 ( clk $end
$var reg 1 ) rst_n $end
$var integer 32 * c [31:0] $end
$var integer 32 + errors [31:0] $end
$scope module dut $end
$var wire 1 ( clk $end
$var wire 1 , csr_illegal $end
$var wire 1 - csr_wr $end
$var wire 32 . dmem_addr [31:0] $end
$var wire 1 $ dmem_we $end
$var wire 1 / ex_branch_taken $end
$var wire 32 0 ex_jalr_target [31:0] $end
$var wire 1 1 ex_mret $end
$var wire 1 2 ex_redirect $end
$var wire 1 3 ex_trap $end
$var wire 32 4 if_instr [31:0] $end
$var wire 32 5 imem_addr [31:0] $end
$var wire 1 6 mul_stall $end
$var wire 1 ) rst_n $end
$var wire 1 7 sc_ok $end
$var wire 1 8 stall_front $end
$var wire 1 9 wb2id_rs1 $end
$var wire 1 : wb2id_rs2 $end
$var wire 32 ; wb_data [31:0] $end
$var wire 32 < pc_plus4 [31:0] $end
$var wire 32 = next_pc [31:0] $end
$var wire 32 > mul_result [31:0] $end
$var wire 1 ? mul_done $end
$var wire 1 @ mul_busy $end
$var wire 1 A memwb_reg_write $end
$var wire 5 B memwb_rd [4:0] $end
$var wire 2 C mem_off [1:0] $end
$var wire 16 D mem_ld_half [15:0] $end
$var wire 8 E mem_ld_byte [7:0] $end
$var wire 1 F load_use_stall $end
$var wire 32 G imem_rdata [31:0] $end
$var wire 2 H id_wb_sel [1:0] $end
$var wire 1 I id_sys_mret $end
$var wire 1 J id_sys_ecall $end
$var wire 1 K id_sys_ebreak $end
$var wire 32 L id_rs2_fwd [31:0] $end
$var wire 32 M id_rs2_data [31:0] $end
$var wire 5 N id_rs2 [4:0] $end
$var wire 32 O id_rs1_fwd [31:0] $end
$var wire 32 P id_rs1_data [31:0] $end
$var wire 5 Q id_rs1 [4:0] $end
$var wire 1 R id_reg_write $end
$var wire 5 S id_rd [4:0] $end
$var wire 7 T id_opcode [6:0] $end
$var wire 1 U id_mem_write $end
$var wire 1 V id_mem_read $end
$var wire 1 W id_jump $end
$var wire 1 X id_jalr $end
$var wire 1 Y id_is_sc $end
$var wire 1 Z id_is_muldiv $end
$var wire 1 [ id_is_lr $end
$var wire 1 \ id_is_csr $end
$var wire 1 ] id_is_amo $end
$var wire 3 ^ id_imm_sel [2:0] $end
$var wire 32 _ id_imm [31:0] $end
$var wire 1 ` id_funct7b5 $end
$var wire 1 a id_funct7b0 $end
$var wire 3 b id_funct3 [2:0] $end
$var wire 1 c id_branch $end
$var wire 5 d id_amo_op [4:0] $end
$var wire 4 e id_alu_op [3:0] $end
$var wire 1 f id_alu_b_src $end
$var wire 1 g id_alu_a_src $end
$var wire 2 h forward_b [1:0] $end
$var wire 2 i forward_a [1:0] $end
$var wire 32 j exmem_fwd_val [31:0] $end
$var wire 32 k ex_trap_cause [31:0] $end
$var wire 32 l ex_result [31:0] $end
$var wire 32 m ex_redirect_pc [31:0] $end
$var wire 32 n ex_pc_target [31:0] $end
$var wire 1 o ex_alu_zero $end
$var wire 32 p ex_alu_result [31:0] $end
$var wire 32 q ex_alu_b [31:0] $end
$var wire 32 r ex_alu_a [31:0] $end
$var wire 4 s dmem_wstrb [3:0] $end
$var wire 32 t dmem_wdata [31:0] $end
$var wire 32 u dmem_rdata [31:0] $end
$var wire 32 v csr_wval [31:0] $end
$var wire 32 w csr_src [31:0] $end
$var wire 32 x csr_rdata [31:0] $end
$var wire 2 y csr_op [1:0] $end
$var wire 32 z csr_mtvec [31:0] $end
$var wire 32 { csr_mepc [31:0] $end
$var wire 1 | csr_addr_valid $end
$var wire 32 } amo_wval [31:0] $end
$var parameter 32 ~ RESET_PC $end
$var reg 1 !" ex_branch_cond $end
$var reg 32 "" ex_rs1_fwd [31:0] $end
$var reg 32 #" ex_rs2_fwd [31:0] $end
$var reg 32 $" exmem_alu_result [31:0] $end
$var reg 5 %" exmem_amo_op [4:0] $end
$var reg 3 &" exmem_funct3 [2:0] $end
$var reg 32 '" exmem_instr [31:0] $end
$var reg 1 (" exmem_is_amo $end
$var reg 1 )" exmem_is_lr $end
$var reg 1 *" exmem_is_sc $end
$var reg 1 +" exmem_mem_read $end
$var reg 1 ," exmem_mem_write $end
$var reg 32 -" exmem_pc4 [31:0] $end
$var reg 5 ." exmem_rd [4:0] $end
$var reg 1 /" exmem_reg_write $end
$var reg 32 0" exmem_rs2_data [31:0] $end
$var reg 1 1" exmem_valid $end
$var reg 2 2" exmem_wb_sel [1:0] $end
$var reg 1 3" idex_alu_a_src $end
$var reg 1 4" idex_alu_b_src $end
$var reg 4 5" idex_alu_op [3:0] $end
$var reg 5 6" idex_amo_op [4:0] $end
$var reg 1 7" idex_branch $end
$var reg 12 8" idex_csr_addr [11:0] $end
$var reg 3 9" idex_funct3 [2:0] $end
$var reg 32 :" idex_imm [31:0] $end
$var reg 32 ;" idex_instr [31:0] $end
$var reg 1 <" idex_is_amo $end
$var reg 1 =" idex_is_csr $end
$var reg 1 >" idex_is_lr $end
$var reg 1 ?" idex_is_muldiv $end
$var reg 1 @" idex_is_sc $end
$var reg 1 A" idex_jalr $end
$var reg 1 B" idex_jump $end
$var reg 1 C" idex_mem_read $end
$var reg 1 D" idex_mem_write $end
$var reg 32 E" idex_pc [31:0] $end
$var reg 32 F" idex_pc4 [31:0] $end
$var reg 5 G" idex_rd [4:0] $end
$var reg 1 H" idex_reg_write $end
$var reg 5 I" idex_rs1 [4:0] $end
$var reg 32 J" idex_rs1_data [31:0] $end
$var reg 5 K" idex_rs2 [4:0] $end
$var reg 32 L" idex_rs2_data [31:0] $end
$var reg 1 M" idex_sys_ebreak $end
$var reg 1 N" idex_sys_ecall $end
$var reg 1 O" idex_sys_mret $end
$var reg 1 P" idex_valid $end
$var reg 2 Q" idex_wb_sel [1:0] $end
$var reg 32 R" ifid_instr [31:0] $end
$var reg 32 S" ifid_pc [31:0] $end
$var reg 32 T" ifid_pc4 [31:0] $end
$var reg 1 U" ifid_valid $end
$var reg 32 V" mem_load_data [31:0] $end
$var reg 32 W" mem_store_data [31:0] $end
$var reg 4 X" mem_store_strb [3:0] $end
$var reg 32 Y" memwb_alu_result [31:0] $end
$var reg 32 Z" memwb_instr [31:0] $end
$var reg 32 [" memwb_load_data [31:0] $end
$var reg 32 \" memwb_pc4 [31:0] $end
$var reg 5 ]" memwb_rd_r [4:0] $end
$var reg 1 A memwb_reg_write_r $end
$var reg 1 ^" memwb_valid $end
$var reg 2 _" memwb_wb_sel [1:0] $end
$var reg 32 `" pc [31:0] $end
$var reg 32 a" resv_addr [31:0] $end
$var reg 1 b" resv_valid $end
$var reg 32 c" wb_mux [31:0] $end
$scope module u_alu $end
$var wire 32 d" a [31:0] $end
$var wire 4 e" alu_op [3:0] $end
$var wire 32 f" b [31:0] $end
$var wire 1 o zero $end
$var wire 5 g" shamt [4:0] $end
$var reg 32 h" result [31:0] $end
$upscope $end
$scope module u_amo $end
$var wire 5 i" amo_op [4:0] $end
$var wire 32 j" rs2_val [31:0] $end
$var wire 32 k" s_mem [31:0] $end
$var wire 32 l" s_rs2 [31:0] $end
$var wire 32 m" mem_val [31:0] $end
$var reg 32 n" result [31:0] $end
$upscope $end
$scope module u_csr $end
$var wire 12 o" addr [11:0] $end
$var wire 1 ( clk $end
$var wire 32 p" mepc_o [31:0] $end
$var wire 1 1 mret_en $end
$var wire 1 =" rd_en $end
$var wire 1 ) rst_n $end
$var wire 32 q" trap_cause [31:0] $end
$var wire 1 3 trap_en $end
$var wire 32 r" trap_epc [31:0] $end
$var wire 32 s" trap_val [31:0] $end
$var wire 32 t" wdata [31:0] $end
$var wire 1 u" wr_en $end
$var wire 32 v" mtvec_o [31:0] $end
$var wire 32 w" mstatus [31:0] $end
$var reg 1 | addr_valid $end
$var reg 32 x" mcause [31:0] $end
$var reg 32 y" mepc [31:0] $end
$var reg 32 z" mie [31:0] $end
$var reg 32 {" mip [31:0] $end
$var reg 32 |" mscratch [31:0] $end
$var reg 1 }" mstatus_mie $end
$var reg 1 ~" mstatus_mpie $end
$var reg 32 !# mtval [31:0] $end
$var reg 32 "# mtvec [31:0] $end
$var reg 32 ## rdata [31:0] $end
$upscope $end
$scope module u_ctrl $end
$var wire 12 $# funct12 [11:0] $end
$var wire 3 %# funct3 [2:0] $end
$var wire 5 &# funct5 [4:0] $end
$var wire 1 a funct7b0 $end
$var wire 1 ` funct7b5 $end
$var wire 7 '# opcode [6:0] $end
$var reg 1 g alu_a_src $end
$var reg 4 (# alu_arith [3:0] $end
$var reg 1 f alu_b_src $end
$var reg 4 )# alu_op [3:0] $end
$var reg 5 *# amo_op [4:0] $end
$var reg 1 c branch $end
$var reg 3 +# imm_sel [2:0] $end
$var reg 1 ] is_amo $end
$var reg 1 \ is_csr $end
$var reg 1 [ is_lr $end
$var reg 1 Z is_muldiv $end
$var reg 1 Y is_sc $end
$var reg 1 X jalr $end
$var reg 1 W jump $end
$var reg 1 V mem_read $end
$var reg 1 U mem_write $end
$var reg 1 R reg_write $end
$var reg 1 K sys_ebreak $end
$var reg 1 J sys_ecall $end
$var reg 1 I sys_mret $end
$var reg 2 ,# wb_sel [1:0] $end
$upscope $end
$scope module u_fwd $end
$var wire 5 -# exmem_rd [4:0] $end
$var wire 1 /" exmem_reg_write $end
$var wire 5 .# idex_rs1 [4:0] $end
$var wire 5 /# idex_rs2 [4:0] $end
$var wire 5 0# memwb_rd [4:0] $end
$var wire 1 A memwb_reg_write $end
$var reg 2 1# forward_a [1:0] $end
$var reg 2 2# forward_b [1:0] $end
$upscope $end
$scope module u_hazard $end
$var wire 1 C" idex_mem_read $end
$var wire 5 3# idex_rd [4:0] $end
$var wire 5 4# ifid_rs1 [4:0] $end
$var wire 5 5# ifid_rs2 [4:0] $end
$var wire 1 F stall $end
$upscope $end
$scope module u_imm $end
$var wire 3 6# imm_sel [2:0] $end
$var wire 32 7# instr [31:0] $end
$var reg 32 8# imm [31:0] $end
$upscope $end
$scope module u_muldiv $end
$var wire 32 9# a [31:0] $end
$var wire 32 :# b [31:0] $end
$var wire 1 ( clk $end
$var wire 1 ;# ge $end
$var wire 1 <# is_mul $end
$var wire 1 =# na $end
$var wire 1 ># nb $end
$var wire 3 ?# op [2:0] $end
$var wire 1 @# overflow $end
$var wire 1 ) rst_n $end
$var wire 1 A# signed_div $end
$var wire 1 ?" start $end
$var wire 32 B# rem_hi [31:0] $end
$var wire 64 C# p_uu [63:0] $end
$var wire 64 D# p_su [63:0] $end
$var wire 64 E# p_ss [63:0] $end
$var wire 1 ? done $end
$var wire 1 F# div_zero $end
$var wire 33 G# diff [32:0] $end
$var wire 1 @ busy $end
$var wire 64 H# bu [63:0] $end
$var wire 64 I# bs [63:0] $end
$var wire 64 J# au [63:0] $end
$var wire 64 K# as [63:0] $end
$var wire 64 L# acc_sh [63:0] $end
$var wire 64 M# acc_nx [63:0] $end
$var wire 32 N# abs_b [31:0] $end
$var wire 32 O# abs_a [31:0] $end
$var parameter 2 P# CALC $end
$var parameter 2 Q# FIN $end
$var parameter 2 R# IDLE $end
$var reg 64 S# acc [63:0] $end
$var reg 6 T# cnt [5:0] $end
$var reg 32 U# divisor_q [31:0] $end
$var reg 32 V# mul_res [31:0] $end
$var reg 1 W# neg_q $end
$var reg 1 X# neg_r $end
$var reg 3 Y# op_q [2:0] $end
$var reg 32 Z# result [31:0] $end
$var reg 2 [# state [1:0] $end
$upscope $end
$scope module u_rf $end
$var wire 1 ( clk $end
$var wire 5 \# rd_addr [4:0] $end
$var wire 32 ]# rd_data [31:0] $end
$var wire 5 ^# rs1_addr [4:0] $end
$var wire 5 _# rs2_addr [4:0] $end
$var wire 1 A we $end
$var wire 32 `# rs2_data [31:0] $end
$var wire 32 a# rs1_data [31:0] $end
$var integer 32 b# i [31:0] $end
$upscope $end
$upscope $end
$scope module u_dmem $end
$var wire 32 c# addr [31:0] $end
$var wire 1 ( clk $end
$var wire 32 d# rdata [31:0] $end
$var wire 32 e# wdata [31:0] $end
$var wire 1 $ we $end
$var wire 4 f# wstrb [3:0] $end
$var wire 8 g# widx [7:0] $end
$var parameter 32 h# WORDS $end
$var integer 32 i# k [31:0] $end
$upscope $end
$scope module u_imem $end
$var wire 32 j# addr [31:0] $end
$var wire 32 k# rdata [31:0] $end
$var parameter 32 l# WORDS $end
$var integer 32 m# k [31:0] $end
$upscope $end
$scope task chk $end
$var reg 32 n# exp [31:0] $end
$var reg 32 o# got [31:0] $end
$var integer 32 p# id [31:0] $end
$upscope $end
$upscope $end
$enddefinitions $end
$comment Show the parameter values. $end
$dumpall
b100000000 l#
b100000000 h#
b0 R#
b10 Q#
b1 P#
b0 ~
$end
#0
$dumpvars
bx p#
bx o#
bx n#
b100000000 m#
b10100000000000010010011 k#
b0 j#
b100000000 i#
b0 g#
b0 f#
b0 e#
b0 d#
b0 c#
b100000 b#
b0 a#
b0 `#
b0 _#
b0 ^#
b0 ]#
b0 \#
b0 [#
b0 Z#
b0 Y#
0X#
0W#
b0 V#
b0 U#
b0 T#
b0 S#
b0 O#
b0 N#
b1 M#
b0 L#
b0 K#
b0 J#
b0 I#
b0 H#
b0 G#
1F#
b0 E#
b0 D#
b0 C#
b0 B#
0A#
0@#
b0 ?#
0>#
0=#
1<#
1;#
b0 :#
b0 9#
b0 8#
b10011 7#
b0 6#
b0 5#
b0 4#
b0 3#
b0 2#
b0 1#
b0 0#
b0 /#
b0 .#
b0 -#
b0 ,#
b0 +#
b0 *#
b0 )#
b0 (#
b10011 '#
b0 &#
b0 %#
b0 $#
b0 ##
b0 "#
b0 !#
0~"
0}"
b0 |"
b0 {"
b0 z"
b0 y"
b0 x"
b11000000000000 w"
b0 v"
0u"
b0 t"
b0 s"
b0 r"
b10 q"
b0 p"
b0 o"
b0 n"
b0 m"
b0 l"
b0 k"
b0 j"
b0 i"
b0 h"
b0 g"
b0 f"
b0 e"
b0 d"
b0 c"
0b"
bx a"
b0 `"
b0 _"
0^"
b0 ]"
b0 \"
b0 ["
b10011 Z"
b0 Y"
b1 X"
b0 W"
b0 V"
0U"
b0 T"
b0 S"
b10011 R"
b0 Q"
0P"
0O"
0N"
0M"
b0 L"
b0 K"
b0 J"
b0 I"
0H"
b0 G"
b0 F"
b0 E"
0D"
0C"
0B"
0A"
0@"
0?"
0>"
0="
0<"
b10011 ;"
b0 :"
b0 9"
b0 8"
07"
b0 6"
b0 5"
04"
03"
b0 2"
01"
b0 0"
0/"
b0 ."
b0 -"
0,"
0+"
0*"
0)"
0("
b10011 '"
b0 &"
b0 %"
b0 $"
b0 #"
b0 ""
1!"
b0 }
0|
b0 {
b0 z
b0 y
b0 x
b0 w
b0 v
b0 u
b0 t
b0 s
b0 r
b0 q
b0 p
1o
b0 n
b0 m
b0 l
b10 k
b0 j
b0 i
b0 h
0g
1f
b0 e
b0 d
0c
b0 b
0a
0`
b0 _
b0 ^
0]
0\
0[
0Z
0Y
0X
0W
0V
0U
b10011 T
b0 S
1R
b0 Q
b0 P
b0 O
b0 N
b0 M
b0 L
0K
0J
0I
b0 H
b10100000000000010010011 G
0F
b0 E
b0 D
b0 C
b0 B
0A
0@
0?
b0 >
b100 =
b100 <
b0 ;
0:
09
08
07
06
b0 5
b10100000000000010010011 4
03
02
01
b0 0
0/
b0 .
0-
0,
b0 +
bx *
0)
0(
b0 '
b0 &
b0 %
0$
b0 #
b0 "
b10100000000000010010011 !
$end
#5000
1(
#10000
0(
#15000
1(
#20000
b0 *
1)
0(
#25000
1f
1R
b1 S
b101 N
b101 5#
b101 _#
b101 $#
b101 _
b101 8#
b1000 =
b11100000000000100010011 4
b11100000000000100010011 !
b11100000000000100010011 G
b11100000000000100010011 k#
14"
1H"
1U"
b10100000000000010010011 R"
b10100000000000010010011 7#
b100 T"
b1000 <
b100 "
b100 5
b100 j#
b100 `"
1(
#30000
b1 *
0(
#35000
b101 l
b101 m
1f
1R
0o
b101 p
b101 h"
b101 g"
b1100 =
b10011 4
b10011 !
b10011 G
b10011 k#
b10 S
b111 N
b111 5#
b111 _#
b111 $#
b111 _
b111 8#
0|
b101 q
b101 f"
b100 0
b1100 <
b1000 "
b1000 5
b1000 j#
b1000 `"
b11100000000000100010011 R"
b11100000000000100010011 7#
b1000 T"
b100 S"
b10100000000000010010011 ;"
1P"
b101 8"
b101 o"
b101 K"
b101 /#
b1 G"
b1 3#
b100 F"
b101 n
b101 :"
1/"
1(
#40000
b10 *
0(
#45000
b111 l
b1011 m
b10 X"
b111 p
b111 h"
b111 g"
1f
1R
b101 j
b1 C
b1 g#
0|
b111 q
b111 f"
b110 0
b0 S
b0 N
b0 5#
b0 _#
b0 $#
b0 _
b0 8#
b10000 =
1A
b10100000000000010010011 '"
11"
b1 ."
b1 -#
b100 -"
b101 '
b101 .
b101 c#
b101 $"
b11100000000000100010011 ;"
b111 8"
b111 o"
b111 K"
b111 /#
b10 G"
b10 3#
b1000 F"
b100 E"
b100 r"
b1011 n
b111 :"
b10011 R"
b10011 7#
b1100 T"
b1000 S"
b10000 <
b1100 "
b1100 5
b1100 j#
b1100 `"
1(
#50000
b11 *
0(
#55000
b0 l
b1000 m
1o
b0 p
b0 h"
b0 g"
b1000 X"
b10100 =
0|
b0 q
b0 f"
b0 0
b111 j
bx00000000 D
b11 C
b101 ;
b101 c"
b101 ]#
b10100 <
b10000 "
b10000 5
b10000 j#
b10000 `"
b10000 T"
b1100 S"
b10011 ;"
b0 8"
b0 o"
b0 K"
b0 /#
b0 G"
b0 3#
b1100 F"
b1000 E"
b1000 r"
b1000 n
b0 :"
b11100000000000100010011 '"
b10 ."
b10 -#
b1000 -"
b111 '
b111 .
b111 c#
b111 $"
b10100000000000010010011 Z"
1^"
b1 B
b1 ]"
b1 0#
b1 \#
b100 \"
b101 Y"
1(
#60000
b100 *
0(
#65000
b1100 m
b1 X"
b111 ;
b111 c"
b111 ]#
b0 j
b0 D
b0 C
b0 g#
b11000 =
b1000001000000110110011 4
b1000001000000110110011 !
b1000001000000110110011 G
b1000001000000110110011 k#
b11100000000000100010011 Z"
b10 B
b10 ]"
b10 0#
b10 \#
b1000 \"
b111 Y"
b10011 '"
b0 ."
b0 -#
b1100 -"
b0 '
b0 .
b0 c#
b0 $"
b10000 F"
b1100 n
b1100 E"
b1100 r"
b10100 T"
b10000 S"
b11000 <
b10100 "
b10100 5
b10100 j#
b10100 `"
1(
#70000
b101 *
0(
#75000
b10000 m
b101 O
b111 L
b101 P
b101 a#
b111 M
b111 `#
0f
1R
b11100 =
b10011 4
b10011 !
b10011 G
b10011 k#
b110011 T
b110011 '#
b11 S
b1 Q
b1 4#
b1 ^#
b10 N
b10 5#
b10 _#
b10 $#
b10 _
b10 8#
09
0:
b0 ;
b0 c"
b0 ]#
b11100 <
b11000 "
b11000 5
b11000 j#
b11000 `"
b1000001000000110110011 R"
b1000001000000110110011 7#
b11000 T"
b10100 S"
b10100 F"
b10000 n
b10000 E"
b10000 r"
b10000 -"
b10011 Z"
b0 B
b0 ]"
b0 0#
b0 \#
b1100 \"
b0 Y"
1(
#80000
b110 *
0(
#85000
b1100 l
b10110 m
b111 g"
0o
b1100 p
b1100 h"
b0 O
b0 L
b111 q
b111 f"
b100011 V#
b111 N#
b101 r
b101 d"
b101 w
b101 O#
0!"
b0 P
b0 a#
b0 M
b0 `#
1f
1R
0|
b110 0
b100011 E#
b111 I#
b100011 C#
b100011 D#
b111 H#
0F#
b111 #"
b111 :#
b101 K#
b101 J#
b101 ""
b101 9#
b10011 T
b10011 '#
b0 S
b0 Q
b0 4#
b0 ^#
b0 N
b0 5#
b0 _#
b0 $#
b0 _
b0 8#
b100000 =
b10000 \"
b10100 -"
b1000001000000110110011 ;"
b10 8"
b10 o"
b10 K"
b10 /#
b1 I"
b1 .#
b11 G"
b11 3#
b11000 F"
b10100 E"
b10100 r"
b10110 n
b10 :"
b111 L"
b101 J"
04"
b10011 R"
b10011 7#
b11100 T"
b11000 S"
b100000 <
b11100 "
b11100 5
b11100 j#
b11100 `"
1(
#90000
b111 *
0(
#95000
b0 l
b11000 m
1o
b111 %
b111 t
b111 e#
b0 N#
b0 r
b0 d"
b0 w
b0 V#
b0 O#
1!"
b0 p
b0 h"
b0 g"
b100100 =
0|
b0 0
b0 I#
b0 H#
1F#
b0 #"
b0 :#
b0 E#
b0 D#
b0 K#
b0 C#
b0 J#
b0 ""
b0 9#
b0 q
b0 f"
b111 }
b111 n"
b111 W"
b1100 j
b11 g#
b100100 <
b100000 "
b100000 5
b100000 j#
b100000 `"
b100000 T"
b11100 S"
b10011 ;"
b0 8"
b0 o"
b0 K"
b0 /#
b0 I"
b0 .#
b0 G"
b0 3#
b11100 F"
b11000 E"
b11000 r"
b11000 n
b0 :"
b0 L"
b0 J"
14"
b1000001000000110110011 '"
b11 ."
b11 -#
b11000 -"
b111 l"
b111 0"
b111 j"
b1100 '
b1100 .
b1100 c#
b1100 $"
b10100 \"
1(
#100000
b1000 *
0(
#105000
b0 %
b0 t
b0 e#
b11100 m
b1100 ;
b1100 c"
b1100 ]#
b0 }
b0 n"
b0 W"
b0 j
b0 g#
b101000 =
b1100000010000000100011 4
b1100000010000000100011 !
b1100000010000000100011 G
b1100000010000000100011 k#
b1000001000000110110011 Z"
b11 B
b11 ]"
b11 0#
b11 \#
b11000 \"
b1100 Y"
b10011 '"
b0 ."
b0 -#
b11100 -"
b0 l"
b0 0"
b0 j"
b0 '
b0 .
b0 c#
b0 $"
b100000 F"
b11100 n
b11100 E"
b11100 r"
b100100 T"
b100000 S"
b101000 <
b100100 "
b100100 5
b100100 j#
b100100 `"
1(
#110000
b1001 *
0(
#115000
b100000 m
b1100 L
b1100 M
b1100 `#
b11 (#
1U
b1 ^
b1 +#
b1 6#
1f
0R
b101100 =
b10011 4
b10011 !
b10011 G
b10011 k#
b100011 T
b100011 '#
b11 N
b11 5#
b11 _#
b10 b
b10 %#
b11 $#
b0 _
b0 8#
09
0:
b0 ;
b0 c"
b0 ]#
b101100 <
b101000 "
b101000 5
b101000 j#
b101000 `"
b1100000010000000100011 R"
b1100000010000000100011 7#
b101000 T"
b100100 S"
b100100 F"
b100000 n
b100000 E"
b100000 r"
b100000 -"
b10011 Z"
b0 B
b0 ]"
b0 0#
b0 \#
b11100 \"
b0 Y"
1(
#120000
b1010 *
0(
#125000
b100100 m
b0 L
b1100 N#
b0 M
b0 `#
b0 (#
1R
0U
b0 ^
b0 +#
b0 6#
1f
0|
b10 y
0!"
b1100 I#
b1100 H#
0F#
b1100 #"
b1100 :#
b10011 T
b10011 '#
b0 N
b0 5#
b0 _#
b0 b
b0 %#
b0 $#
b110000 =
b100000 \"
b100100 -"
b1100000010000000100011 ;"
b11 8"
b11 o"
b10 9"
b10 ?#
b11 K"
b11 /#
b101000 F"
b100100 n
b100100 E"
b100100 r"
b1100 L"
1D"
0H"
b10011 R"
b10011 7#
b101100 T"
b101000 S"
b110000 <
b101100 "
b101100 5
b101100 j#
b101100 `"
1(
#130000
b1011 *
0(
#135000
b101000 m
b1100 %
b1100 t
b1100 e#
1<#
b0 N#
b1111 #
b1111 s
b1111 f#
1$
b110100 =
0|
b0 y
1!"
b0 I#
b0 H#
1F#
b0 #"
b0 :#
b1100 }
b1100 n"
b1111 X"
b1100 W"
b110100 <
b110000 "
b110000 5
b110000 j#
b110000 `"
b110000 T"
b101100 S"
b10011 ;"
b0 8"
b0 o"
b0 9"
b0 ?#
b0 K"
b0 /#
b101100 F"
b101000 n
b101000 E"
b101000 r"
b0 L"
0D"
1H"
b1100000010000000100011 '"
b10 &"
b101000 -"
b1100 l"
b1100 0"
b1100 j"
1,"
0/"
b100100 \"
1(
#140000
b1100 *
0(
#145000
b0 %
b0 t
b0 e#
b101100 m
b0 #
b0 s
b0 f#
0$
b1 X"
b0 W"
b111000 =
b10001000000011 4
b10001000000011 !
b10001000000011 G
b10001000000011 k#
b1100 V"
b1100000010000000100011 Z"
b101000 \"
0A
b10011 '"
b0 &"
b101100 -"
b0 l"
b0 0"
b0 j"
0,"
1/"
b110000 F"
b101100 n
b101100 E"
b101100 r"
b110100 T"
b110000 S"
b111000 <
b110100 "
b110100 5
b110100 j#
b110100 `"
b1100 k"
b1100 D
b1100 E
b1100 &
b1100 u
b1100 m"
b1100 d#
1(
#150000
b1101 *
0(
#155000
b110000 m
b1 H
b1 ,#
1V
1f
1R
b11 (#
b111100 =
b10011 4
b10011 !
b10011 G
b10011 k#
b11 T
b11 '#
b100 S
b10 b
b10 %#
b111100 <
b111000 "
b111000 5
b111000 j#
b111000 `"
b10001000000011 R"
b10001000000011 7#
b111000 T"
b110100 S"
b110100 F"
b110000 n
b110000 E"
b110000 r"
b110000 -"
b10011 Z"
b101100 \"
b1100 ["
1A
1(
#160000
b1110 *
0(
#165000
b110100 m
b0 H
b0 ,#
0V
1f
1R
b0 (#
b10 y
0!"
b10011 T
b10011 '#
b0 S
b0 b
b0 %#
b1000000 =
b110000 \"
b110100 -"
b10001000000011 ;"
b10 9"
b10 ?#
b100 G"
b100 3#
b111000 F"
b110100 n
b110100 E"
b110100 r"
b1 Q"
1C"
b10011 R"
b10011 7#
b111100 T"
b111000 S"
b1000000 <
b111100 "
b111100 5
b111100 j#
b111100 `"
1(
#170000
b1111 *
0(
#175000
b111000 m
1<#
b1000100 =
b0 y
1!"
b1111 X"
b1000100 <
b1000000 "
b1000000 5
b1000000 j#
b1000000 `"
b1000000 T"
b111100 S"
b10011 ;"
b0 9"
b0 ?#
b0 G"
b0 3#
b111100 F"
b111000 n
b111000 E"
b111000 r"
b0 Q"
0C"
b10001000000011 '"
b10 &"
b100 ."
b100 -#
b111000 -"
b1 2"
1+"
b110100 \"
1(
#180000
b10000 *
0(
#185000
b111100 m
b1100 ;
b1100 c"
b1100 ]#
b1 X"
b1001000 =
b100100000001010110011 4
b100100000001010110011 !
b100100000001010110011 G
b100100000001010110011 k#
b10001000000011 Z"
b100 B
b100 ]"
b100 0#
b100 \#
b111000 \"
b1 _"
b10011 '"
b0 &"
b0 ."
b0 -#
b111100 -"
b0 2"
0+"
b1000000 F"
b111100 n
b111100 E"
b111100 r"
b1000100 T"
b1000000 S"
b1001000 <
b1000100 "
b1000100 5
b1000100 j#
b1000100 `"
1(
#190000
b10001 *
0(
#195000
b1000000 m
b1100 O
b101 L
b1100 P
b1100 a#
b101 M
b101 `#
0f
1R
b1001100 =
b10011 4
b10011 !
b10011 G
b10011 k#
b110011 T
b110011 '#
b101 S
b100 Q
b100 4#
b100 ^#
b1 N
b1 5#
b1 _#
b1 $#
b1 _
b1 8#
09
0:
b0 ;
b0 c"
b0 ]#
b1001100 <
b1001000 "
b1001000 5
b1001000 j#
b1001000 `"
b100100000001010110011 R"
b100100000001010110011 7#
b1001000 T"
b1000100 S"
b1000100 F"
b1000000 n
b1000000 E"
b1000000 r"
b1000000 -"
b10011 Z"
b0 B
b0 ]"
b0 0#
b0 \#
b111100 \"
b0 _"
1(
#200000
b10010 *
0(
#205000
b10001 l
b1000101 m
b101 g"
0o
b10001 p
b10001 h"
b0 O
b0 L
b101 q
b101 f"
b111100 V#
b101 N#
b1100 r
b1100 d"
b1100 w
b1100 O#
0!"
b0 P
b0 a#
b0 M
b0 `#
1f
1R
0|
b1100 0
b111100 E#
b101 I#
b111100 C#
b111100 D#
b101 H#
0F#
b101 #"
b101 :#
b1100 K#
b1100 J#
b1100 ""
b1100 9#
b10011 T
b10011 '#
b0 S
b0 Q
b0 4#
b0 ^#
b0 N
b0 5#
b0 _#
b0 $#
b0 _
b0 8#
b1010000 =
b1000000 \"
b1000100 -"
b100100000001010110011 ;"
b1 8"
b1 o"
b1 K"
b1 /#
b100 I"
b100 .#
b101 G"
b101 3#
b1001000 F"
b1000100 E"
b1000100 r"
b1000101 n
b1 :"
b101 L"
b1100 J"
04"
b10011 R"
b10011 7#
b1001100 T"
b1001000 S"
b1010000 <
b1001100 "
b1001100 5
b1001100 j#
b1001100 `"
1(
#210000
b10011 *
0(
#215000
b0 l
b1001000 m
1o
b10100000000 %
b10100000000 t
b10100000000 e#
b0 N#
b0 r
b0 d"
b0 w
b0 V#
b0 O#
1!"
b0 p
b0 h"
b0 g"
b0 V"
b1010100 =
0|
b0 0
b0 I#
b0 H#
1F#
b0 #"
b0 :#
b0 E#
b0 D#
b0 K#
b0 C#
b0 J#
b0 ""
b0 9#
b0 q
b0 f"
b101 }
b101 n"
b10 X"
b10100000000 W"
b10001 j
b1 C
b0 k"
b0 D
b0 E
b0 &
b0 u
b0 m"
b0 d#
b100 g#
b1010100 <
b1010000 "
b1010000 5
b1010000 j#
b1010000 `"
b1010000 T"
b1001100 S"
b10011 ;"
b0 8"
b0 o"
b0 K"
b0 /#
b0 I"
b0 .#
b0 G"
b0 3#
b1001100 F"
b1001000 E"
b1001000 r"
b1001000 n
b0 :"
b0 L"
b0 J"
14"
b100100000001010110011 '"
b101 ."
b101 -#
b1001000 -"
b101 l"
b101 0"
b101 j"
b10001 '
b10001 .
b10001 c#
b10001 $"
b1000100 \"
1(
#220000
b10100 *
0(
