waveform/tb_mmu_tlb.vcd
$date
	Sun Jun 14 16:36:58 2026
$end
$version
	Icarus Verilog
$end
$timescale
	1ps
$end
$scope module tb_mmu_tlb $end
$var wire 32 ! dmem_rdata [31:0] $end
$var wire 32 " imem_rdata [31:0] $end
$var wire 32 # imem_addr [31:0] $end
$var wire 4 $ dmem_wstrb [3:0] $end
$var wire 1 % dmem_we $end
$var wire 32 & dmem_wdata [31:0] $end
$var wire 32 ' dmem_addr [31:0] $end
$var reg 1 ( clk $end
$var reg 1 ) rst_n $end
$var integer 32 * errors [31:0] $end
$var integer 32 + i [31:0] $end
$scope module dut $end
$var wire 1 , back_pressure $end
$var wire 1 - clint_sel $end
$var wire 1 ( clk $end
$var wire 1 . csr_illegal $end
$var wire 1 / csr_wr $end
$var wire 32 0 dmem_rdata [31:0] $end
$var wire 1 1 dmem_re $end
$var wire 1 2 ex_branch_taken $end
$var wire 1 3 ex_dfault $end
$var wire 1 4 ex_ifault $end
$var wire 32 5 ex_jalr_target [31:0] $end
$var wire 1 6 ex_mem_op $end
$var wire 1 7 ex_mret $end
$var wire 1 8 ex_pagefault $end
$var wire 1 9 ex_redirect $end
$var wire 1 : ex_satp_wr $end
$var wire 1 ; ex_sfence $end
$var wire 1 < ex_sret $end
$var wire 1 = ex_start $end
$var wire 1 > ex_take_pc $end
$var wire 1 ? ex_trap $end
$var wire 1 @ ex_trap_sync $end
$var wire 1 A ex_wants $end
$var wire 1 B ext_irq $end
$var wire 32 C if_instr [31:0] $end
$var wire 1 D if_need_xlate $end
$var wire 1 E if_start $end
$var wire 1 F if_wants $end
$var wire 1 G if_xlate_pending $end
$var wire 32 H imem_rdata [31:0] $end
$var wire 1 I instr_misalign $end
$var wire 1 J is_store_acc $end
$var wire 1 K load_misalign $end
$var wire 1 L mem_access $end
$var wire 32 M mem_addr_ex [31:0] $end
$var wire 1 N mem_data_acc $end
$var wire 1 O mmu_active $end
$var wire 1 P mmu_flush $end
$var wire 1 Q mmu_stall $end
$var wire 1 R mmu_walking $end
$var wire 1 S mret_ok $end
$var wire 1 T mul_stall $end
$var wire 1 U need_xlate $end
$var wire 1 ) rst_n $end
$var wire 1 V sc_ok $end
$var wire 1 W serving_ex $end
$var wire 1 X sret_ok $end
$var wire 1 Y stall_front $end
$var wire 1 Z store_misalign $end
$var wire 1 [ take_int $end
$var wire 1 \ w_busy $end
$var wire 1 ] walker_bus $end
$var wire 1 ^ wb2id_rs1 $end
$var wire 1 _ wb2id_rs2 $end
$var wire 1 ` xret_illegal $end
$var wire 32 a wb_data [31:0] $end
$var wire 1 b sz_misalign $end
$var wire 32 c sync_cause [31:0] $end
$var wire 32 d pc_plus4 [31:0] $end
$var wire 32 e next_pc [31:0] $end
$var wire 32 f mul_result [31:0] $end
$var wire 1 g mul_done $end
$var wire 1 h mul_busy $end
$var wire 32 i mmu_paddr [31:0] $end
$var wire 1 j mmu_mem_req $end
$var wire 32 k mmu_mem_addr [31:0] $end
$var wire 4 l mmu_fault_cause [3:0] $end
$var wire 1 m mmu_fault $end
$var wire 1 n mmu_done $end
$var wire 2 o mmu_acc [1:0] $end
$var wire 1 p memwb_reg_write $end
$var wire 5 q memwb_rd [4:0] $end
$var wire 2 r mem_off [1:0] $end
$var wire 16 s mem_ld_half [15:0] $end
$var wire 8 t mem_ld_byte [7:0] $end
$var wire 1 u load_use_stall $end
$var wire 1 v irq_pending $end
$var wire 32 w irq_cause [31:0] $end
$var wire 32 x imem_addr [31:0] $end
$var wire 2 y id_wb_sel [1:0] $end
$var wire 1 z id_sys_sret $end
$var wire 1 { id_sys_mret $end
$var wire 1 | id_sys_ecall $end
$var wire 1 } id_sys_ebreak $end
$var wire 32 ~ id_rs2_fwd [31:0] $end
$var wire 32 !" id_rs2_data [31:0] $end
$var wire 5 "" id_rs2 [4:0] $end
$var wire 32 #" id_rs1_fwd [31:0] $end
$var wire 32 $" id_rs1_data [31:0] $end
$var wire 5 %" id_rs1 [4:0] $end
$var wire 1 &" id_reg_write $end
$var wire 5 '" id_rd [4:0] $end
$var wire 7 (" id_opcode [6:0] $end
$var wire 1 )" id_mem_write $end
$var wire 1 *" id_mem_read $end
$var wire 1 +" id_jump $end
$var wire 1 ," id_jalr $end
$var wire 1 -" id_is_sc $end
$var wire 1 ." id_is_muldiv $end
$var wire 1 /" id_is_lr $end
$var wire 1 0" id_is_csr $end
$var wire 1 1" id_is_amo $end
$var wire 3 2" id_imm_sel [2:0] $end
$var wire 32 3" id_imm [31:0] $end
$var wire 1 4" id_illegal $end
$var wire 1 5" id_funct7b5 $end
$var wire 1 6" id_funct7b0 $end
$var wire 3 7" id_funct3 [2:0] $end
$var wire 1 8" id_branch $end
$var wire 5 9" id_amo_op [4:0] $end
$var wire 4 :" id_alu_op [3:0] $end
$var wire 1 ;" id_alu_b_src $end
$var wire 1 <" id_alu_a_src $end
$var wire 2 =" forward_b [1:0] $end
$var wire 2 >" forward_a [1:0] $end
$var wire 1 ?" fetch_consumed $end
$var wire 32 @" exmem_fwd_val [31:0] $end
$var wire 32 A" ex_trap_val [31:0] $end
$var wire 32 B" ex_trap_cause [31:0] $end
$var wire 32 C" ex_target [31:0] $end
$var wire 32 D" ex_result [31:0] $end
$var wire 32 E" ex_redirect_pc [31:0] $end
$var wire 32 F" ex_pc_target [31:0] $end
$var wire 32 G" ex_mem_addr [31:0] $end
$var wire 1 H" ex_alu_zero $end
$var wire 32 I" ex_alu_result [31:0] $end
$var wire 32 J" ex_alu_b [31:0] $end
$var wire 32 K" ex_alu_a [31:0] $end
$var wire 4 L" dmem_wstrb [3:0] $end
$var wire 1 % dmem_we $end
$var wire 32 M" dmem_wdata [31:0] $end
$var wire 32 N" dmem_addr [31:0] $end
$var wire 32 O" csr_wval [31:0] $end
$var wire 32 P" csr_trap_vec [31:0] $end
$var wire 32 Q" csr_src [31:0] $end
$var wire 32 R" csr_satp [31:0] $end
$var wire 32 S" csr_ret_pc [31:0] $end
$var wire 32 T" csr_rdata [31:0] $end
$var wire 2 U" csr_priv [1:0] $end
$var wire 2 V" csr_op [1:0] $end
$var wire 1 W" csr_addr_valid $end
$var wire 32 X" clint_rdata [31:0] $end
$var wire 1 Y" clint_mtip $end
$var wire 1 Z" clint_msip $end
$var wire 32 [" amo_wval [31:0] $end
$var parameter 2 \" F_IDLE $end
$var parameter 2 ]" F_RDY $end
$var parameter 2 ^" F_WALK $end
$var parameter 32 _" RESET_PC $end
$var parameter 2 `" X_IDLE $end
$var parameter 2 a" X_RDY $end
$var parameter 2 b" X_WALK $end
$var reg 1 c" ex_branch_cond $end
$var reg 32 d" ex_rs1_fwd [31:0] $end
$var reg 32 e" ex_rs2_fwd [31:0] $end
$var reg 32 f" exmem_alu_result [31:0] $end
$var reg 5 g" exmem_amo_op [4:0] $end
$var reg 3 h" exmem_funct3 [2:0] $end
$var reg 32 i" exmem_instr [31:0] $end
$var reg 1 j" exmem_is_amo $end
$var reg 1 k" exmem_is_lr $end
$var reg 1 l" exmem_is_sc $end
$var reg 1 m" exmem_mem_read $end
$var reg 1 n" exmem_mem_write $end
$var reg 32 o" exmem_pc4 [31:0] $end
$var reg 5 p" exmem_rd [4:0] $end
$var reg 1 q" exmem_reg_write $end
$var reg 32 r" exmem_rs2_data [31:0] $end
$var reg 1 s" exmem_valid $end
$var reg 2 t" exmem_wb_sel [1:0] $end
$var reg 1 u" ffault $end
$var reg 32 v" fpaddr [31:0] $end
$var reg 2 w" fstate [1:0] $end
$var reg 1 x" idex_alu_a_src $end
$var reg 1 y" idex_alu_b_src $end
$var reg 4 z" idex_alu_op [3:0] $end
$var reg 5 {" idex_amo_op [4:0] $end
$var reg 1 |" idex_branch $end
$var reg 12 }" idex_csr_addr [11:0] $end
$var reg 1 ~" idex_fault $end
$var reg 3 !# idex_funct3 [2:0] $end
$var reg 1 "# idex_illegal $end
$var reg 32 ## idex_imm [31:0] $end
$var reg 32 $# idex_instr [31:0] $end
$var reg 1 %# idex_is_amo $end
$var reg 1 &# idex_is_csr $end
$var reg 1 '# idex_is_lr $end
$var reg 1 (# idex_is_muldiv $end
$var reg 1 )# idex_is_sc $end
$var reg 1 *# idex_jalr $end
$var reg 1 +# idex_jump $end
$var reg 1 ,# idex_mem_read $end
$var reg 1 -# idex_mem_write $end
$var reg 32 .# idex_pc [31:0] $end
$var reg 32 /# idex_pc4 [31:0] $end
$var reg 5 0# idex_rd [4:0] $end
$var reg 1 1# idex_reg_write $end
$var reg 5 2# idex_rs1 [4:0] $end
$var reg 32 3# idex_rs1_data [31:0] $end
$var reg 5 4# idex_rs2 [4:0] $end
$var reg 32 5# idex_rs2_data [31:0] $end
$var reg 1 6# idex_sys_ebreak $end
$var reg 1 7# idex_sys_ecall $end
$var reg 1 8# idex_sys_mret $end
$var reg 1 9# idex_sys_sret $end
$var reg 1 :# idex_valid $end
$var reg 2 ;# idex_wb_sel [1:0] $end
$var reg 1 <# ifid_fault $end
$var reg 32 =# ifid_instr [31:0] $end
$var reg 32 ># ifid_pc [31:0] $end
$var reg 32 ?# ifid_pc4 [31:0] $end
$var reg 1 @# ifid_valid $end
$var reg 32 A# mem_load_data [31:0] $end
$var reg 32 B# mem_store_data [31:0] $end
$var reg 4 C# mem_store_strb [3:0] $end
$var reg 32 D# memwb_alu_result [31:0] $end
$var reg 32 E# memwb_instr [31:0] $end
$var reg 32 F# memwb_load_data [31:0] $end
$var reg 32 G# memwb_pc4 [31:0] $end
$var reg 5 H# memwb_rd_r [4:0] $end
$var reg 1 p memwb_reg_write_r $end
$var reg 1 I# memwb_valid $end
$var reg 2 J# memwb_wb_sel [1:0] $end
$var reg 32 K# pc [31:0] $end
$var reg 32 L# resv_addr [31:0] $end
$var reg 1 M# resv_valid $end
$var reg 32 N# wb_mux [31:0] $end
$var reg 4 O# xcause [3:0] $end
$var reg 1 P# xfault $end
$var reg 32 Q# xpaddr [31:0] $end
$var reg 2 R# xstate [1:0] $end
$scope module u_alu $end
$var wire 32 S# a [31:0] $end
$var wire 4 T# alu_op [3:0] $end
$var wire 32 U# b [31:0] $end
$var wire 1 H" zero $end
$var wire 5 V# shamt [4:0] $end
$var reg 32 W# result [31:0] $end
$upscope $end
$scope module u_amo $end
$var wire 5 X# amo_op [4:0] $end
$var wire 32 Y# mem_val [31:0] $end
$var wire 32 Z# rs2_val [31:0] $end
$var wire 32 [# s_mem [31:0] $end
$var wire 32 \# s_rs2 [31:0] $end
$var reg 32 ]# result [31:0] $end
$upscope $end
$scope module u_clint $end
$var wire 1 ( clk $end
$var wire 16 ^# off [15:0] $end
$var wire 1 ) rst_n $end
$var wire 1 - sel $end
$var wire 32 _# wdata [31:0] $end
$var wire 1 `# we $end
$var wire 1 Y" mtip $end
$var wire 1 Z" msip $end
$var reg 1 Z" msip_r $end
$var reg 64 a# mtime [63:0] $end
$var reg 64 b# mtimecmp [63:0] $end
$var reg 32 c# rdata [31:0] $end
$upscope $end
$scope module u_csr $end
$var wire 12 d# addr [11:0] $end
$var wire 1 ( clk $end
$var wire 32 e# hw_bits [31:0] $end
$var wire 32 f# hw_mask [31:0] $end
$var wire 1 g# m_en $end
$var wire 1 B meip_i $end
$var wire 32 h# mip_eff [31:0] $end
$var wire 1 7 mret_en $end
$var wire 1 Z" msip_i $end
$var wire 1 Y" mtip_i $end
$var wire 32 i# pend [31:0] $end
$var wire 2 j# priv_o [1:0] $end
$var wire 1 &# rd_en $end
$var wire 1 ) rst_n $end
$var wire 1 k# s_en $end
$var wire 32 l# satp_o [31:0] $end
$var wire 32 m# sie_v [31:0] $end
$var wire 32 n# sip_v [31:0] $end
$var wire 1 < sret_en $end
$var wire 32 o# take [31:0] $end
$var wire 1 p# to_s $end
$var wire 32 q# trap_cause [31:0] $end
$var wire 1 ? trap_en $end
$var wire 32 r# trap_epc [31:0] $end
$var wire 32 s# trap_val [31:0] $end
$var wire 32 t# wdata [31:0] $end
$var wire 1 u# wr_en $end
$var wire 32 v# trap_vec_o [31:0] $end
$var wire 32 w# sstatus [31:0] $end
$var wire 32 x# ret_pc_o [31:0] $end
$var wire 32 y# mstatus [31:0] $end
$var wire 1 z# is_int $end
$var wire 1 v irq_pending $end
$var wire 32 {# irq_cause [31:0] $end
$var wire 1 |# deleg $end
$var reg 1 W" addr_valid $end
$var reg 5 }# icode [4:0] $end
$var reg 32 ~# mcause [31:0] $end
$var reg 32 !$ medeleg [31:0] $end
$var reg 32 "$ mepc [31:0] $end
$var reg 32 #$ mideleg [31:0] $end
$var reg 1 $$ mie $end
$var reg 32 %$ mie_r [31:0] $end
$var reg 32 &$ mip_r [31:0] $end
$var reg 1 '$ mpie $end
$var reg 2 ($ mpp [1:0] $end
$var reg 32 )$ mscratch [31:0] $end
$var reg 32 *$ mtval [31:0] $end
$var reg 32 +$ mtvec [31:0] $end
$var reg 2 ,$ priv [1:0] $end
$var reg 32 -$ rdata [31:0] $end
$var reg 32 .$ satp [31:0] $end
$var reg 32 /$ scause [31:0] $end
$var reg 32 0$ sepc [31:0] $end
$var reg 1 1$ sie $end
$var reg 1 2$ spie $end
$var reg 1 3$ spp $end
$var reg 32 4$ sscratch [31:0] $end
$var reg 32 5$ stval [31:0] $end
$var reg 32 6$ stvec [31:0] $end
$upscope $end
$scope module u_ctrl $end
$var wire 12 7$ funct12 [11:0] $end
$var wire 3 8$ funct3 [2:0] $end
$var wire 5 9$ funct5 [4:0] $end
$var wire 1 6" funct7b0 $end
$var wire 1 5" funct7b5 $end
$var wire 7 :$ opcode [6:0] $end
$var reg 1 <" alu_a_src $end
$var reg 4 ;$ alu_arith [3:0] $end
$var reg 1 ;" alu_b_src $end
$var reg 4 <$ alu_op [3:0] $end
$var reg 5 =$ amo_op [4:0] $end
$var reg 1 8" branch $end
$var reg 1 4" illegal $end
$var reg 3 >$ imm_sel [2:0] $end
$var reg 1 1" is_amo $end
$var reg 1 0" is_csr $end
$var reg 1 /" is_lr $end
$var reg 1 ." is_muldiv $end
$var reg 1 -" is_sc $end
$var reg 1 ," jalr $end
$var reg 1 +" jump $end
$var reg 1 *" mem_read $end
$var reg 1 )" mem_write $end
$var reg 1 &" reg_write $end
$var reg 1 } sys_ebreak $end
$var reg 1 | sys_ecall $end
$var reg 1 { sys_mret $end
$var reg 1 z sys_sret $end
$var reg 2 ?$ wb_sel [1:0] $end
$upscope $end
$scope module u_fwd $end
$var wire 5 @$ exmem_rd [4:0] $end
$var wire 1 q" exmem_reg_write $end
$var wire 5 A$ idex_rs1 [4:0] $end
$var wire 5 B$ idex_rs2 [4:0] $end
$var wire 5 C$ memwb_rd [4:0] $end
$var wire 1 p memwb_reg_write $end
$var reg 2 D$ forward_a [1:0] $end
$var reg 2 E$ forward_b [1:0] $end
$upscope $end
$scope module u_hazard $end
$var wire 1 ,# idex_mem_read $end
$var wire 5 F$ idex_rd [4:0] $end
$var wire 5 G$ ifid_rs1 [4:0] $end
$var wire 5 H$ ifid_rs2 [4:0] $end
$var wire 1 u stall $end
$upscope $end
$scope module u_imm $end
$var wire 3 I$ imm_sel [2:0] $end
$var wire 32 J$ instr [31:0] $end
$var reg 32 K$ imm [31:0] $end
$upscope $end
$scope module u_mmu $end
$var wire 2 L$ access [1:0] $end
$var wire 1 ( clk $end
$var wire 1 P flush $end
$var wire 1 M$ l0_invalid $end
$var wire 1 N$ l1_invalid $end
$var wire 1 O$ l1_leaf $end
$var wire 1 P$ mem_ack $end
$var wire 32 Q$ mem_rdata [31:0] $end
$var wire 1 R$ mxr $end
$var wire 2 S$ priv [1:0] $end
$var wire 1 T$ req $end
$var wire 1 ) rst_n $end
$var wire 32 U$ satp [31:0] $end
$var wire 1 V$ sum $end
$var wire 32 W$ vaddr [31:0] $end
$var wire 32 X$ hit_paddr [31:0] $end
$var parameter 2 Y$ S_DONE $end
$var parameter 2 Z$ S_IDLE $end
$var parameter 2 [$ S_L0 $end
$var parameter 2 \$ S_L1 $end
$var parameter 32 ]$ TLBN $end
$var reg 2 ^$ access_q [1:0] $end
$var reg 1 n done $end
$var reg 1 m fault $end
$var reg 4 _$ fault_cause [3:0] $end
$var reg 3 `$ hidx [2:0] $end
$var reg 1 a$ hit $end
$var reg 32 b$ hit_pte [31:0] $end
$var reg 1 c$ hit_sup $end
$var reg 32 d$ leaf_pte [31:0] $end
$var reg 32 e$ mem_addr [31:0] $end
$var reg 1 j mem_req $end
$var reg 32 f$ paddr [31:0] $end
$var reg 3 g$ rr [2:0] $end
$var reg 2 h$ state [1:0] $end
$var reg 32 i$ vaddr_q [31:0] $end
$var integer 32 j$ i [31:0] $end
$scope function bad_leaf $end
$var reg 1 k$ a $end
$var reg 2 l$ acc [1:0] $end
$var reg 1 m$ d $end
$var reg 1 n$ ok $end
$var reg 32 o$ p [31:0] $end
$var reg 1 p$ r $end
$var reg 1 q$ u $end
$var reg 1 r$ w $end
$var reg 1 s$ x $end
$upscope $end
$scope function pf_cause $end
$var reg 2 t$ acc [1:0] $end
$upscope $end
$upscope $end
$scope module u_muldiv $end
$var wire 32 u$ a [31:0] $end
$var wire 32 v$ b [31:0] $end
$var wire 1 ( clk $end
$var wire 1 w$ ge $end
$var wire 1 x$ is_mul $end
$var wire 1 y$ na $end
$var wire 1 z$ nb $end
$var wire 3 {$ op [2:0] $end
$var wire 1 |$ overflow $end
$var wire 1 ) rst_n $end
$var wire 1 }$ signed_div $end
$var wire 1 (# start $end
$var wire 32 ~$ rem_hi [31:0] $end
$var wire 64 !% p_uu [63:0] $end
$var wire 64 "% p_su [63:0] $end
$var wire 64 #% p_ss [63:0] $end
$var wire 1 g done $end
$var wire 1 $% div_zero $end
$var wire 33 %% diff [32:0] $end
$var wire 1 h busy $end
$var wire 64 &% bu [63:0] $end
$var wire 64 '% bs [63:0] $end
$var wire 64 (% au [63:0] $end
$var wire 64 )% as [63:0] $end
$var wire 64 *% acc_sh [63:0] $end
$var wire 64 +% acc_nx [63:0] $end
$var wire 32 ,% abs_b [31:0] $end
$var wire 32 -% abs_a [31:0] $end
$var parameter 2 .% CALC $end
$var parameter 2 /% FIN $end
$var parameter 2 0% IDLE $end
$var reg 64 1% acc [63:0] $end
$var reg 6 2% cnt [5:0] $end
$var reg 32 3% divisor_q [31:0] $end
$var reg 32 4% mul_res [31:0] $end
$var reg 1 5% neg_q $end
$var reg 1 6% neg_r $end
$var reg 3 7% op_q [2:0] $end
$var reg 32 8% result [31:0] $end
$var reg 2 9% state [1:0] $end
$upscope $end
$scope module u_rf $end
$var wire 1 ( clk $end
$var wire 5 :% rd_addr [4:0] $end
$var wire 32 ;% rd_data [31:0] $end
$var wire 5 <% rs1_addr [4:0] $end
$var wire 5 =% rs2_addr [4:0] $end
$var wire 1 p we $end
$var wire 32 >% rs2_data [31:0] $end
$var wire 32 ?% rs1_data [31:0] $end
$var integer 32 @% i [31:0] $end
$upscope $end
$upscope $end
$scope task chk $end
$var reg 32 A% exp [31:0] $end
$var reg 32 B% got [31:0] $end
$var integer 32 C% id [31:0] $end
$upscope $end
$upscope $end
$enddefinitions $end
$comment Show the parameter values. $end
$dumpall
b0 0%
b10 /%
b1 .%
b1000 ]$
b1 \$
b10 [$
b0 Z$
b11 Y$
b1 b"
b10 a"
b0 `"
b0 _"
b1 ^"
b10 ]"
b0 \"
$end
#0
$dumpvars
bx C%
bx B%
bx A%
b100000 @%
b0 ?%
b0 >%
b0 =%
b0 <%
b0 ;%
b0 :%
b0 9%
b0 8%
b0 7%
06%
05%
b0 4%
b0 3%
b0 2%
b0 1%
b0 -%
b0 ,%
b1 +%
b0 *%
b0 )%
b0 (%
b0 '%
b0 &%
b0 %%
1$%
b0 #%
b0 "%
b0 !%
b0 ~$
0}$
0|$
b0 {$
0z$
0y$
1x$
1w$
b0 v$
b0 u$
bx t$
xs$
xr$
xq$
xp$
bx o$
xn$
xm$
bx l$
xk$
b1000 j$
bx i$
b0 h$
b0 g$
b0 f$
bx e$
bx d$
0c$
b0 b$
0a$
b0 `$
b0 _$
bx ^$
b0 X$
b0 W$
0V$
b0 U$
0T$
b11 S$
0R$
b100001010110111 Q$
0P$
1O$
0N$
0M$
b0 L$
b0 K$
b10011 J$
b0 I$
b0 H$
b0 G$
b0 F$
b0 E$
b0 D$
b0 C$
b0 B$
b0 A$
b0 @$
b0 ?$
b0 >$
b0 =$
b0 <$
b0 ;$
b10011 :$
b0 9$
b0 8$
b0 7$
b0 6$
b0 5$
b0 4$
03$
02$
01$
b0 0$
b0 /$
b0 .$
b0 -$
b11 ,$
b0 +$
b0 *$
b0 )$
b0 ($
0'$
b0 &$
b0 %$
0$$
b0 #$
b0 "$
b0 !$
b0 ~#
b0 }#
0|#
b10000000000000000000000000000000 {#
0z#
b0 y#
b0 x#
b0 w#
b0 v#
0u#
b0 t#
b0 s#
b0 r#
b10 q#
0p#
b0 o#
b0 n#
b0 m#
b0 l#
0k#
b11 j#
b0 i#
b0 h#
0g#
b100010001000 f#
b0 e#
b0 d#
b0 c#
b1111111111111111111111111111111111111111111111111111111111111111 b#
b0 a#
0`#
b0 _#
b0 ^#
b100001010110111 ]#
b0 \#
b100001010110111 [#
b0 Z#
b100001010110111 Y#
b0 X#
b0 W#
b0 V#
b0 U#
b0 T#
b0 S#
b0 R#
bx Q#
xP#
bx O#
b0 N#
0M#
bx L#
b0 K#
b0 J#
0I#
b0 H#
b0 G#
b0 F#
b10011 E#
b0 D#
b1 C#
b0 B#
b11111111111111111111111110110111 A#
0@#
b0 ?#
b0 >#
b10011 =#
0<#
b0 ;#
0:#
09#
08#
07#
06#
b0 5#
b0 4#
b0 3#
b0 2#
01#
b0 0#
b0 /#
b0 .#
0-#
0,#
0+#
0*#
0)#
0(#
0'#
0&#
0%#
b10011 $#
b0 ##
0"#
b0 !#
x~"
b0 }"
0|"
b0 {"
b0 z"
0y"
0x"
b0 w"
b0 v"
0u"
b0 t"
0s"
b0 r"
0q"
b0 p"
b0 o"
0n"
0m"
0l"
0k"
0j"
b10011 i"
b0 h"
b0 g"
b0 f"
b0 e"
b0 d"
1c"
b100001010110111 ["
0Z"
0Y"
b0 X"
0W"
b0 V"
b11 U"
b0 T"
b0 S"
b0 R"
b0 Q"
b0 P"
b0 O"
b0 N"
b0 M"
b0 L"
b0 K"
b0 J"
b0 I"
1H"
b0 G"
b0 F"
b0 E"
b0 D"
b0 C"
b10 B"
b0 A"
b0 @"
1?"
b0 >"
b0 ="
0<"
1;"
b0 :"
b0 9"
08"
b0 7"
06"
05"
04"
b0 3"
b0 2"
01"
00"
0/"
0."
0-"
0,"
0+"
0*"
0)"
b10011 ("
b0 '"
1&"
b0 %"
b0 $"
b0 #"
b0 ""
b0 !"
b0 ~
0}
0|
0{
0z
b0 y
b0 x
b10000000000000000000000000000000 w
0v
0u
b10110111 t
b100001010110111 s
b0 r
b0 q
0p
b1 o
0n
0m
b0 l
bx k
0j
b0 i
0h
0g
b0 f
b100 e
b100 d
b10 c
0b
b0 a
0`
0_
0^
0]
0\
0[
0Z
0Y
0X
0W
0V
0U
0T
0S
0R
0Q
0P
0O
0N
b0 M
0L
0K
0J
0I
b100001010110111 H
0G
0F
0E
0D
b100001010110111 C
0B
0A
0@
0?
0>
0=
0<
0;
0:
09
08
07
06
b0 5
04
03
02
01
b100001010110111 0
0/
0.
0-
0,
b100000000000000 +
b0 *
0)
0(
b0 '
b0 &
0%
b0 $
b0 #
b100001010110111 "
b100001010110111 !
$end
#5000
b1000 j$
1(
#10000
0(
#15000
b1000 j$
1(
#20000
0(
#25000
b1000 j$
1(
#30000
0(
#35000
b1000 j$
1(
#40000
1)
0(
#45000
b100000000000000 3"
b100000000000000 K$
b100 X$
b1010 :"
b1010 <$
b11 2"
b11 >$
b11 I$
1;"
1&"
b101 ;$
b1100110111 C
b1100110111 "
b1100110111 H
b1000 j$
b110111 ("
b110111 :$
b101 '"
b100 7"
b100 8$
b1000 e
b100 #
b100 x
b100 W$
b11111111111111111111111110110111 F#
0~"
1y"
11#
1@#
b100001010110111 =#
b100001010110111 J$
b100 ?#
b1000 d
b100 K#
b1 a#
1(
#50000
0(
#55000
b100000000000000 G"
b100000000000000 D"
b1000 X$
0x$
b100000000000000 E"
b1100111100110000001100010011 C
b1100111100110000001100010011 "
b1100111100110000001100010011 H
b1000 j$
b11 2"
b11 >$
b11 I$
b1010 :"
b1010 <$
1;"
1&"
b0 ;$
0H"
b100000000000000 M
b100000000000000 I"
b100000000000000 W#
b1100 e
b1000 #
b1000 x
b1000 W$
b110 '"
b0 7"
b0 8$
b0 3"
b0 K$
1}$
0c"
b100000000000000 J"
b100000000000000 U#
b100000000000000 C"
b100000000000000 5
b10 a#
b1100 d
b1000 K#
b1100110111 =#
b1100110111 J$
b1000 ?#
b100 >#
b100001010110111 $#
1:#
b100 !#
b100 {$
b101 0#
b101 F$
b100 /#
b100000000000000 F"
b100000000000000 ##
b1010 z"
b1010 T#
1q"
1(
#60000
0(
#65000
1M$
b0 G"
1N$
0O$
b0 D"
b0 ["
b0 ]#
1x$
b100 E"
b1100 X$
b11111111111111111111111111111111 X"
b11111111111111111111111111111111 c#
b0 t
b0 s
b0 [#
b0 !
b0 0
b0 Y#
b0 Q$
1H"
b0 M
b0 I"
b0 W#
b0 2"
b0 >$
b0 I$
b0 :"
b0 <$
1;"
1&"
b11000101010000000100011 C
b11000101010000000100011 "
b11000101010000000100011 H
b1000 j$
b0 A#
b0 C#
b100000000000000 @"
b100000000000000 ^#
b100000000000000 '
b100000000000000 N"
0}$
1c"
b0 J"
b0 U#
b100 C"
b0 5
b10011 ("
b10011 :$
b110 %"
b110 G$
b110 <%
b1111 ""
b1111 H$
b1111 =%
b11001111 7$
b1 9$
b11001111 3"
b11001111 K$
b10000 e
b1100 #
b1100 x
b1100 W$
1p
b100001010110111 i"
1s"
b100 h"
b101 p"
b101 @$
b100 o"
b100000000000000 f"
b1100110111 $#
b0 !#
b0 {$
b110 0#
b110 F$
b1000 /#
b100 .#
b100 r#
b100 F"
b0 ##
b1100111100110000001100010011 =#
b1100111100110000001100010011 J$
b1100 ?#
b1000 >#
b10000 d
b1100 K#
b11 a#
1(
#70000
0(
#75000
b11001111 G"
0M$
b11001111 D"
0N$
1O$
b10000 X$
b11010111 E"
b100001010110111 ["
b100001010110111 ]#
b100000000000000 #"
b11111111111111111111111110110111 A#
b1001100110111 C
b1001100110111 "
b1001100110111 H
b1000 j$
b11 ;$
1)"
b1 2"
b1 >$
b1 I$
1;"
0&"
0H"
b11001111 M
b11001111 I"
b11001111 W#
b1111 V#
b10110111 t
b100001010110111 s
b100001010110111 [#
b100001010110111 !
b100001010110111 0
b100001010110111 Y#
b100001010110111 Q$
1^
b0 X"
b0 c#
b10100 e
b10000 #
b10000 x
b10000 W$
b100011 ("
b100011 :$
b0 '"
b101 %"
b101 G$
b101 <%
b110 ""
b110 H$
b110 =%
b10 7"
b10 8$
b110 7$
b0 9$
b0 3"
b0 K$
0W"
b11001111 J"
b11001111 U#
b11010111 C"
b11001110 5
b1 C#
b0 @"
b0 ^#
b0 '
b0 N"
b10 >"
b10 D$
b100000000000000 a
b100000000000000 N#
b100000000000000 ;%
b100 a#
b10100 d
b10000 K#
b11000101010000000100011 =#
b11000101010000000100011 J$
b10000 ?#
b1100 >#
b1100111100110000001100010011 $#
b11001111 }"
b11001111 d#
b1111 4#
b1111 B$
b110 2#
b110 A$
b1100 /#
b1000 .#
b1000 r#
b11010111 F"
b11001111 ##
b0 z"
b0 T#
b1100110111 i"
b0 h"
b110 p"
b110 @$
b1000 o"
b0 f"
b100001010110111 E#
1I#
b101 q
b101 H#
b101 C$
b101 :%
b100 G#
b0 F#
b100000000000000 D#
1(
#80000
0(
#85000
09
0?
0@
b0 A"
b0 s#
b10 B"
b10 q#
b10 c
b100000000000000 O"
b100000000000000 t#
1M$
0Z
b100000000000000 G"
1N$
0O$
b100000000000000 D"
16
1L
b0 ["
b0 ]#
0b
b11001111 ,%
b100000000000000 K"
b100000000000000 S#
b100000000000000 Q"
b100000000000000 -%
b1100 E"
b10 o
b10100 X$
b0 #"
b0 A#
b1000 C#
b0 [#
b0 !
b0 0
b0 Y#
b0 Q$
b1100111100000000000000 #%
b11001111 '%
b1100111100000000000000 !%
b1100111100000000000000 "%
b11001111 &%
0$%
b11001111 e"
b11001111 v$
b100000000000000 )%
b100000000000000 (%
b100000000000000 d"
b100000000000000 u$
0H"
b100000000000000 M
b100000000000000 I"
b100000000000000 W#
b0 V#
1J
b10 ;$
b1010 :"
b1010 <$
1&"
0)"
b11 2"
b11 >$
b11 I$
1;"
b1000000000100110000001100010011 C
b1000000000100110000001100010011 "
b1000000000100110000001100010011 H
b1000 j$
0^
b0 a
b0 N#
b0 ;%
b11001111 @"
b0 t
bx00000000 s
b11 r
b11001111 ^#
b11001111 '
b11001111 N"
0W"
b10 V"
0c"
b10 ="
b10 E$
b0 >"
b0 D$
b0 J"
b0 U#
b1100 C"
b100000000000000 5
b110111 ("
b110111 :$
b110 '"
b0 %"
b0 G$
b0 <%
b0 ""
b0 H$
b0 =%
b1 7"
b1 8$
b0 7$
b1000000000000 3"
b1000000000000 K$
b11000 e
b10100 #
b10100 x
b10100 W$
b0 $"
b0 ?%
b1100110111 E#
b110 q
b110 H#
b110 C$
b110 :%
b1000 G#
b11111111111111111111111110110111 F#
b0 D#
b1100111100110000001100010011 i"
b1100 o"
b11001111 f"
b11000101010000000100011 $#
b110 }"
b110 d#
b10 !#
b10 {$
b110 4#
b110 B$
b101 2#
b101 A$
b0 0#
b0 F$
b10000 /#
b1100 .#
b1100 r#
b1100 F"
b0 ##
b100000000000000 3#
1-#
01#
b1001100110111 =#
b1001100110111 J$
b10100 ?#
b10000 >#
b11000 d
b10100 K#
b101 a#
1(
#90000
0(
