waveform/tb_muldiv.vcd
$date
	Sun Jun 14 16:36:58 2026
$end
$version
	Icarus Verilog
$end
$timescale
	1ps
$end
$scope module tb_muldiv $end
$var wire 32 ! result [31:0] $end
$var wire 1 " done $end
$var wire 1 # busy $end
$var reg 32 $ a [31:0] $end
$var reg 32 % b [31:0] $end
$var reg 1 & clk $end
$var reg 3 ' op [2:0] $end
$var reg 1 ( rst_n $end
$var reg 1 ) start $end
$var integer 32 * errors [31:0] $end
$scope module dut $end
$var wire 32 + a [31:0] $end
$var wire 32 , b [31:0] $end
$var wire 1 & clk $end
$var wire 1 - ge $end
$var wire 1 . is_mul $end
$var wire 1 / na $end
$var wire 1 0 nb $end
$var wire 3 1 op [2:0] $end
$var wire 1 2 overflow $end
$var wire 1 ( rst_n $end
$var wire 1 3 signed_div $end
$var wire 1 ) start $end
$var wire 32 4 rem_hi [31:0] $end
$var wire 64 5 p_uu [63:0] $end
$var wire 64 6 p_su [63:0] $end
$var wire 64 7 p_ss [63:0] $end
$var wire 1 " done $end
$var wire 1 8 div_zero $end
$var wire 33 9 diff [32:0] $end
$var wire 1 # busy $end
$var wire 64 : bu [63:0] $end
$var wire 64 ; bs [63:0] $end
$var wire 64 < au [63:0] $end
$var wire 64 = as [63:0] $end
$var wire 64 > acc_sh [63:0] $end
$var wire 64 ? acc_nx [63:0] $end
$var wire 32 @ abs_b [31:0] $end
$var wire 32 A abs_a [31:0] $end
$var parameter 2 B CALC $end
$var parameter 2 C FIN $end
$var parameter 2 D IDLE $end
$var reg 64 E acc [63:0] $end
$var reg 6 F cnt [5:0] $end
$var reg 32 G divisor_q [31:0] $end
$var reg 32 H mul_res [31:0] $end
$var reg 1 I neg_q $end
$var reg 1 J neg_r $end
$var reg 3 K op_q [2:0] $end
$var reg 32 L result [31:0] $end
$var reg 2 M state [1:0] $end
$upscope $end
$scope task run_op $end
$var reg 32 N exp [31:0] $end
$var reg 3 O o [2:0] $end
$var reg 32 P x [31:0] $end
$var reg 32 Q y [31:0] $end
$var integer 32 R id [31:0] $end
$upscope $end
$upscope $end
$enddefinitions $end
$comment Show the parameter values. $end
$dumpall
b0 D
b10 C
b1 B
$end
#0
$dumpvars
bx R
bx Q
bx P
bx O
bx N
b0 M
b0 L
b0 K
0J
0I
b0 H
b0 G
b0 F
b0 E
b0 A
b0 @
b1 ?
b0 >
b0 =
b0 <
b0 ;
b0 :
b0 9
18
b0 7
b0 6
b0 5
b0 4
03
02
b0 1
00
0/
1.
1-
b0 ,
b0 +
b0 *
0)
0(
b0 '
0&
b0 %
b0 $
0#
0"
b0 !
$end
#5000
1&
#10000
0&
#15000
1&
#20000
b101010 N
b111 Q
b110 P
b0 O
b1 R
1(
0&
#25000
1&
#30000
b101010 H
b111 @
b110 A
1)
b101010 7
b111 ;
b101010 5
b101010 6
b111 :
08
b111 %
b111 ,
b110 =
b110 <
b110 $
b110 +
0&
#35000
1"
b10 M
b101010 !
b101010 L
1&
#40000
0)
0&
#45000
0"
b0 M
1&
#50000
b11111111111111111111111111110001 N
b101 Q
b11111111111111111111111111111101 P
b10 R
0&
#55000
1&
#60000
b101 @
b11111111111111111111111111110001 H
b11111111111111111111111111111101 A
1)
b101 ;
b101 :
b101 %
b101 ,
b1111111111111111111111111111111111111111111111111111111111110001 7
b1111111111111111111111111111111111111111111111111111111111110001 6
b1111111111111111111111111111111111111111111111111111111111111101 =
b10011111111111111111111111111110001 5
b11111111111111111111111111111101 <
b11111111111111111111111111111101 $
b11111111111111111111111111111101 +
0&
#65000
1"
b10 M
b11111111111111111111111111110001 !
b11111111111111111111111111110001 L
1&
#70000
0)
0&
#75000
0"
b0 M
1&
#80000
b11111111111111111111111111111110 N
b11111111111111111111111111111111 Q
b11111111111111111111111111111111 P
b11 O
b11 R
0&
#85000
1&
#90000
b11111111111111111111111111111111 @
b11111111111111111111111111111111 A
b11111111111111111111111111111110 H
1)
b1111111111111111111111111111111111111111111111111111111111111111 ;
b11111111111111111111111111111111 :
b11111111111111111111111111111111 %
b11111111111111111111111111111111 ,
b1 7
b1111111111111111111111111111111100000000000000000000000000000001 6
b1111111111111111111111111111111111111111111111111111111111111111 =
b1111111111111111111111111111111000000000000000000000000000000001 5
b11111111111111111111111111111111 <
b11111111111111111111111111111111 $
b11111111111111111111111111111111 +
b11 '
b11 1
0&
#95000
1"
b10 M
b11111111111111111111111111111110 !
b11111111111111111111111111111110 L
b11 K
1&
#100000
0)
0&
#105000
0"
b0 M
1&
#110000
b1000000000000000000000000000000 N
b10000000000000000000000000000000 Q
b10000000000000000000000000000000 P
b1 O
b100 R
0&
#115000
1&
#120000
b10000000000000000000000000000000 @
b10000000000000000000000000000000 A
b1000000000000000000000000000000 H
1.
1)
b1111111111111111111111111111111110000000000000000000000000000000 ;
b10000000000000000000000000000000 :
b10000000000000000000000000000000 %
b10000000000000000000000000000000 ,
b100000000000000000000000000000000000000000000000000000000000000 7
b1100000000000000000000000000000000000000000000000000000000000000 6
b1111111111111111111111111111111110000000000000000000000000000000 =
b100000000000000000000000000000000000000000000000000000000000000 5
b10000000000000000000000000000000 <
b10000000000000000000000000000000 $
b10000000000000000000000000000000 +
b1 '
b1 1
0&
#125000
1"
b10 M
b1000000000000000000000000000000 !
b1000000000000000000000000000000 L
b1 K
1&
#130000
0)
0&
#135000
0"
b0 M
1&
#140000
b11111111111111111111111111111111 N
b11111111111111111111111111111111 Q
b11111111111111111111111111111111 P
b10 O
b101 R
0&
#145000
1&
#150000
b11111111111111111111111111111111 @
b11111111111111111111111111111111 A
b11111111111111111111111111111111 H
1)
b1111111111111111111111111111111111111111111111111111111111111111 ;
b11111111111111111111111111111111 :
b11111111111111111111111111111111 %
b11111111111111111111111111111111 ,
b1 7
b1111111111111111111111111111111100000000000000000000000000000001 6
b1111111111111111111111111111111111111111111111111111111111111111 =
b1111111111111111111111111111111000000000000000000000000000000001 5
b11111111111111111111111111111111 <
b11111111111111111111111111111111 $
b11111111111111111111111111111111 +
b10 '
b10 1
0&
#155000
1"
b10 M
b11111111111111111111111111111111 !
b11111111111111111111111111111111 L
b10 K
1&
#160000
0)
0&
#165000
0"
b0 M
1&
#170000
b1110 N
b111 Q
b1100100 P
b100 O
b110 R
0&
#175000
1&
#180000
0.
b111 @
b1100100 A
b1010111100 H
13
1)
b111 ;
b111 :
b111 %
b111 ,
b1010111100 7
b1010111100 6
b1100100 =
b1010111100 5
b1100100 <
b1100100 $
b1100100 +
b100 '
b100 1
0&
#185000
0-
b11001000 ?
b11001000 >
1#
b1 M
b100000 F
b111111111111111111111111111111001 9
b111 G
b1100100 E
b100 K
1&
#190000
0)
0&
#195000
b110010000 ?
b110010000 >
b11111 F
b11001000 E
1&
#200000
0&
#205000
b1100100000 ?
b1100100000 >
b11110 F
b110010000 E
1&
#210000
0&
#215000
b11001000000 ?
b11001000000 >
b11101 F
b1100100000 E
1&
#220000
0&
#225000
b110010000000 ?
b110010000000 >
b11100 F
b11001000000 E
1&
#230000
0&
#235000
b1100100000000 ?
b1100100000000 >
b11011 F
b110010000000 E
1&
#240000
0&
#245000
b11001000000000 ?
b11001000000000 >
b11010 F
b1100100000000 E
1&
#250000
0&
#255000
b110010000000000 ?
b110010000000000 >
b11001 F
b11001000000000 E
1&
#260000
0&
#265000
b1100100000000000 ?
b1100100000000000 >
b11000 F
b110010000000000 E
1&
#270000
0&
#275000
b11001000000000000 ?
b11001000000000000 >
b10111 F
b1100100000000000 E
1&
#280000
0&
#285000
b110010000000000000 ?
b110010000000000000 >
b10110 F
b11001000000000000 E
1&
#290000
0&
#295000
b1100100000000000000 ?
b1100100000000000000 >
b10101 F
b110010000000000000 E
1&
#300000
0&
#305000
b11001000000000000000 ?
b11001000000000000000 >
b10100 F
b1100100000000000000 E
1&
#310000
0&
#315000
b110010000000000000000 ?
b110010000000000000000 >
b10011 F
b11001000000000000000 E
1&
#320000
0&
#325000
b1100100000000000000000 ?
b1100100000000000000000 >
b10010 F
b110010000000000000000 E
1&
#330000
0&
#335000
b11001000000000000000000 ?
b11001000000000000000000 >
b10001 F
b1100100000000000000000 E
1&
#340000
0&
#345000
b110010000000000000000000 ?
b110010000000000000000000 >
b10000 F
b11001000000000000000000 E
1&
#350000
0&
#355000
b1100100000000000000000000 ?
b1100100000000000000000000 >
b1111 F
b110010000000000000000000 E
1&
#360000
0&
#365000
b11001000000000000000000000 ?
b11001000000000000000000000 >
b1110 F
b1100100000000000000000000 E
1&
#370000
0&
#375000
b110010000000000000000000000 ?
b110010000000000000000000000 >
b1101 F
b11001000000000000000000000 E
1&
#380000
0&
#385000
b1100100000000000000000000000 ?
b1100100000000000000000000000 >
b1100 F
b110010000000000000000000000 E
1&
#390000
0&
#395000
b11001000000000000000000000000 ?
b11001000000000000000000000000 >
b1011 F
b1100100000000000000000000000 E
1&
#400000
0&
#405000
b110010000000000000000000000000 ?
b110010000000000000000000000000 >
b1010 F
b11001000000000000000000000000 E
1&
#410000
0&
#415000
b1100100000000000000000000000000 ?
b1100100000000000000000000000000 >
b1001 F
b110010000000000000000000000000 E
1&
#420000
0&
#425000
b11001000000000000000000000000000 ?
b11001000000000000000000000000000 >
b1000 F
b1100100000000000000000000000000 E
1&
#430000
0&
#435000
b111111111111111111111111111111010 9
b1 4
b110010000000000000000000000000000 ?
b110010000000000000000000000000000 >
b111 F
b11001000000000000000000000000000 E
1&
#440000
0&
#445000
b111111111111111111111111111111100 9
b11 4
b1100100000000000000000000000000000 ?
b1100100000000000000000000000000000 >
b110 F
b110010000000000000000000000000000 E
1&
#450000
0&
#455000
b111111111111111111111111111111111 9
b110 4
b11001000000000000000000000000000000 ?
b11001000000000000000000000000000000 >
b101 F
b1100100000000000000000000000000000 E
1&
#460000
0&
#465000
1-
b101 9
b1100 4
b10110000000000000000000000000000001 ?
b110010000000000000000000000000000000 >
b100 F
b11001000000000000000000000000000000 E
1&
#470000
0&
#475000
b10000000000000000000000000000000011 ?
b100 9
b1011 4
b101100000000000000000000000000000010 >
b11 F
b10110000000000000000000000000000001 E
1&
#480000
0&
#485000
b100000000000000000000000000000111 ?
b1 9
b1000 4
b100000000000000000000000000000000110 >
b10 F
b10000000000000000000000000000000011 E
1&
#490000
0&
#495000
0-
b1000000000000000000000000000001110 ?
b111111111111111111111111111111011 9
b10 4
b1000000000000000000000000000001110 >
b1 F
b100000000000000000000000000000111 E
1&
#500000
0&
#505000
b111111111111111111111111111111101 9
b100 4
b10000000000000000000000000000011100 ?
b10000000000000000000000000000011100 >
0#
1"
b10 M
b1110 !
b1110 L
b0 F
b1000000000000000000000000000001110 E
1&
#510000
b10 N
b110 O
b111 R
0&
#515000
0"
b0 M
1&
#520000
1)
b110 '
b110 1
0&
#525000
b111111111111111111111111111111001 9
b0 4
b11001000 ?
b11001000 >
1#
b1 M
b100000 F
b1100100 E
b110 K
1&
#530000
0)
0&
#535000
b110010000 ?
b110010000 >
b11111 F
b11001000 E
1&
#540000
0&
#545000
b1100100000 ?
b1100100000 >
b11110 F
b110010000 E
1&
#550000
0&
#555000
b11001000000 ?
b11001000000 >
b11101 F
b1100100000 E
1&
#560000
0&
#565000
b110010000000 ?
b110010000000 >
b11100 F
b11001000000 E
1&
#570000
0&
#575000
b1100100000000 ?
b1100100000000 >
b11011 F
b110010000000 E
1&
#580000
0&
#585000
b11001000000000 ?
b11001000000000 >
b11010 F
b1100100000000 E
1&
#590000
0&
#595000
b110010000000000 ?
b110010000000000 >
b11001 F
b11001000000000 E
1&
#600000
0&
#605000
b1100100000000000 ?
b1100100000000000 >
b11000 F
b110010000000000 E
1&
#610000
0&
#615000
b11001000000000000 ?
b11001000000000000 >
b10111 F
b1100100000000000 E
1&
#620000
0&
#625000
b110010000000000000 ?
b110010000000000000 >
b10110 F
b11001000000000000 E
1&
#630000
0&
#635000
b1100100000000000000 ?
b1100100000000000000 >
b10101 F
b110010000000000000 E
1&
#640000
0&
#645000
b11001000000000000000 ?
b11001000000000000000 >
b10100 F
b1100100000000000000 E
1&
#650000
0&
#655000
b110010000000000000000 ?
b110010000000000000000 >
b10011 F
b11001000000000000000 E
1&
#660000
0&
#665000
b1100100000000000000000 ?
b1100100000000000000000 >
b10010 F
b110010000000000000000 E
1&
#670000
0&
#675000
b11001000000000000000000 ?
b11001000000000000000000 >
b10001 F
b1100100000000000000000 E
1&
#680000
0&
#685000
b110010000000000000000000 ?
b110010000000000000000000 >
b10000 F
b11001000000000000000000 E
1&
#690000
0&
#695000
b1100100000000000000000000 ?
b1100100000000000000000000 >
b1111 F
b110010000000000000000000 E
1&
#700000
0&
#705000
b11001000000000000000000000 ?
b11001000000000000000000000 >
b1110 F
b1100100000000000000000000 E
1&
#710000
0&
#715000
b110010000000000000000000000 ?
b110010000000000000000000000 >
b1101 F
b11001000000000000000000000 E
1&
#720000
0&
#725000
b1100100000000000000000000000 ?
b1100100000000000000000000000 >
b1100 F
b110010000000000000000000000 E
1&
#730000
0&
#735000
b11001000000000000000000000000 ?
b11001000000000000000000000000 >
b1011 F
b1100100000000000000000000000 E
1&
#740000
0&
#745000
b110010000000000000000000000000 ?
b110010000000000000000000000000 >
b1010 F
b11001000000000000000000000000 E
1&
#750000
0&
#755000
b1100100000000000000000000000000 ?
b1100100000000000000000000000000 >
b1001 F
b110010000000000000000000000000 E
1&
#760000
0&
#765000
b11001000000000000000000000000000 ?
b11001000000000000000000000000000 >
b1000 F
b1100100000000000000000000000000 E
1&
#770000
0&
#775000
b111111111111111111111111111111010 9
b1 4
b110010000000000000000000000000000 ?
b110010000000000000000000000000000 >
b111 F
b11001000000000000000000000000000 E
1&
#780000
0&
#785000
b111111111111111111111111111111100 9
b11 4
b1100100000000000000000000000000000 ?
b1100100000000000000000000000000000 >
b110 F
b110010000000000000000000000000000 E
1&
#790000
0&
#795000
b111111111111111111111111111111111 9
b110 4
b11001000000000000000000000000000000 ?
b11001000000000000000000000000000000 >
b101 F
b1100100000000000000000000000000000 E
1&
#800000
0&
#805000
1-
b101 9
b1100 4
b10110000000000000000000000000000001 ?
b110010000000000000000000000000000000 >
b100 F
b11001000000000000000000000000000000 E
1&
#810000
0&
#815000
b10000000000000000000000000000000011 ?
b100 9
b1011 4
b101100000000000000000000000000000010 >
b11 F
b10110000000000000000000000000000001 E
1&
#820000
0&
#825000
b100000000000000000000000000000111 ?
b1 9
b1000 4
b100000000000000000000000000000000110 >
b10 F
b10000000000000000000000000000000011 E
1&
#830000
0&
#835000
0-
b1000000000000000000000000000001110 ?
b111111111111111111111111111111011 9
b10 4
b1000000000000000000000000000001110 >
b1 F
b100000000000000000000000000000111 E
1&
#840000
0&
#845000
b111111111111111111111111111111101 9
b100 4
b10000000000000000000000000000011100 ?
b10000000000000000000000000000011100 >
0#
1"
b10 M
b10 !
b10 L
b0 F
b1000000000000000000000000000001110 E
1&
#850000
b11111111111111111111111111110010 N
b11111111111111111111111110011100 P
b100 O
b1000 R
0&
#855000
0"
b0 M
1&
#860000
1/
b1100100 A
b11111111111111111111110101000100 H
1)
b1111111111111111111111111111111111111111111111111111110101000100 7
b1111111111111111111111111111111111111111111111111111110101000100 6
b1111111111111111111111111111111111111111111111111111111110011100 =
b11011111111111111111111110101000100 5
b11111111111111111111111110011100 <
b11111111111111111111111110011100 $
b11111111111111111111111110011100 +
b100 '
b100 1
0&
#865000
b111111111111111111111111111111001 9
b0 4
b11001000 ?
b11001000 >
1#
b1 M
b100000 F
b1100100 E
1J
1I
b100 K
1&
#870000
0)
0&
#875000
b110010000 ?
b110010000 >
b11111 F
b11001000 E
1&
#880000
0&
#885000
b1100100000 ?
b1100100000 >
b11110 F
b110010000 E
1&
#890000
0&
#895000
b11001000000 ?
b11001000000 >
b11101 F
b1100100000 E
1&
#900000
0&
#905000
b110010000000 ?
b110010000000 >
b11100 F
b11001000000 E
1&
#910000
0&
#915000
b1100100000000 ?
b1100100000000 >
b11011 F
b110010000000 E
1&
#920000
0&
#925000
b11001000000000 ?
b11001000000000 >
b11010 F
b1100100000000 E
1&
#930000
0&
#935000
b110010000000000 ?
b110010000000000 >
b11001 F
b11001000000000 E
1&
#940000
0&
#945000
b1100100000000000 ?
b1100100000000000 >
b11000 F
b110010000000000 E
1&
#950000
0&
#955000
b11001000000000000 ?
b11001000000000000 >
b10111 F
b1100100000000000 E
1&
#960000
0&
#965000
b110010000000000000 ?
b110010000000000000 >
b10110 F
b11001000000000000 E
1&
#970000
0&
#975000
b1100100000000000000 ?
b1100100000000000000 >
b10101 F
b110010000000000000 E
1&
#980000
0&
#985000
b11001000000000000000 ?
b11001000000000000000 >
b10100 F
b1100100000000000000 E
1&
#990000
0&
#995000
b110010000000000000000 ?
b110010000000000000000 >
b10011 F
b11001000000000000000 E
1&
#1000000
0&
#1005000
b1100100000000000000000 ?
b1100100000000000000000 >
b10010 F
b110010000000000000000 E
1&
#1010000
0&
#1015000
b11001000000000000000000 ?
b11001000000000000000000 >
b10001 F
b1100100000000000000000 E
1&
#1020000
0&
#1025000
b110010000000000000000000 ?
b110010000000000000000000 >
b10000 F
b11001000000000000000000 E
1&
#1030000
0&
#1035000
b1100100000000000000000000 ?
b1100100000000000000000000 >
b1111 F
b110010000000000000000000 E
1&
#1040000
0&
#1045000
b11001000000000000000000000 ?
b11001000000000000000000000 >
b1110 F
b1100100000000000000000000 E
1&
#1050000
0&
#1055000
b110010000000000000000000000 ?
b110010000000000000000000000 >
b1101 F
b11001000000000000000000000 E
1&
#1060000
0&
#1065000
b1100100000000000000000000000 ?
b1100100000000000000000000000 >
b1100 F
b110010000000000000000000000 E
1&
#1070000
0&
#1075000
b11001000000000000000000000000 ?
b11001000000000000000000000000 >
b1011 F
b1100100000000000000000000000 E
1&
#1080000
0&
#1085000
b110010000000000000000000000000 ?
b110010000000000000000000000000 >
b1010 F
b11001000000000000000000000000 E
1&
#1090000
0&
#1095000
b1100100000000000000000000000000 ?
b1100100000000000000000000000000 >
b1001 F
b110010000000000000000000000000 E
1&
#1100000
0&
#1105000
b11001000000000000000000000000000 ?
b11001000000000000000000000000000 >
b1000 F
b1100100000000000000000000000000 E
1&
#1110000
0&
#1115000
b111111111111111111111111111111010 9
b1 4
b110010000000000000000000000000000 ?
b110010000000000000000000000000000 >
b111 F
b11001000000000000000000000000000 E
1&
#1120000
0&
#1125000
b111111111111111111111111111111100 9
b11 4
b1100100000000000000000000000000000 ?
b1100100000000000000000000000000000 >
b110 F
b110010000000000000000000000000000 E
1&
#1130000
0&
#1135000
b111111111111111111111111111111111 9
b110 4
b11001000000000000000000000000000000 ?
b11001000000000000000000000000000000 >
b101 F
b1100100000000000000000000000000000 E
1&
#1140000
0&
#1145000
1-
b101 9
b1100 4
b10110000000000000000000000000000001 ?
b110010000000000000000000000000000000 >
b100 F
b11001000000000000000000000000000000 E
1&
#1150000
0&
#1155000
b10000000000000000000000000000000011 ?
b100 9
b1011 4
b101100000000000000000000000000000010 >
b11 F
b10110000000000000000000000000000001 E
1&
#1160000
0&
#1165000
b100000000000000000000000000000111 ?
b1 9
b1000 4
b100000000000000000000000000000000110 >
b10 F
b10000000000000000000000000000000011 E
1&
#1170000
0&
#1175000
0-
b1000000000000000000000000000001110 ?
b111111111111111111111111111111011 9
b10 4
b1000000000000000000000000000001110 >
b1 F
b100000000000000000000000000000111 E
1&
#1180000
0&
#1185000
b111111111111111111111111111111101 9
b100 4
b10000000000000000000000000000011100 ?
b10000000000000000000000000000011100 >
0#
1"
b10 M
b11111111111111111111111111110010 !
b11111111111111111111111111110010 L
b0 F
b1000000000000000000000000000001110 E
1&
#1190000
b11111111111111111111111111111110 N
b110 O
b1001 R
0&
#1195000
0"
b0 M
1&
#1200000
1)
b110 '
b110 1
0&
#1205000
b111111111111111111111111111111001 9
b0 4
b11001000 ?
b11001000 >
1#
b1 M
b100000 F
b1100100 E
b110 K
1&
#1210000
0)
0&
#1215000
b110010000 ?
b110010000 >
b11111 F
b11001000 E
1&
#1220000
0&
#1225000
b1100100000 ?
b1100100000 >
b11110 F
b110010000 E
1&
#1230000
0&
#1235000
b11001000000 ?
b11001000000 >
b11101 F
b1100100000 E
1&
#1240000
0&
#1245000
b110010000000 ?
b110010000000 >
b11100 F
b11001000000 E
1&
#1250000
0&
#1255000
b1100100000000 ?
b1100100000000 >
b11011 F
b110010000000 E
1&
#1260000
0&
#1265000
b11001000000000 ?
b11001000000000 >
b11010 F
b1100100000000 E
1&
#1270000
0&
#1275000
b110010000000000 ?
b110010000000000 >
b11001 F
b11001000000000 E
1&
#1280000
0&
#1285000
b1100100000000000 ?
b1100100000000000 >
b11000 F
b110010000000000 E
1&
#1290000
0&
#1295000
b11001000000000000 ?
b11001000000000000 >
b10111 F
b1100100000000000 E
1&
#1300000
0&
#1305000
b110010000000000000 ?
b110010000000000000 >
b10110 F
b11001000000000000 E
1&
#1310000
0&
#1315000
b1100100000000000000 ?
b1100100000000000000 >
b10101 F
b110010000000000000 E
1&
#1320000
0&
#1325000
b11001000000000000000 ?
b11001000000000000000 >
b10100 F
b1100100000000000000 E
1&
#1330000
0&
#1335000
b110010000000000000000 ?
b110010000000000000000 >
b10011 F
b11001000000000000000 E
1&
#1340000
0&
#1345000
b1100100000000000000000 ?
b1100100000000000000000 >
b10010 F
b110010000000000000000 E
1&
#1350000
0&
#1355000
b11001000000000000000000 ?
b11001000000000000000000 >
b10001 F
b1100100000000000000000 E
1&
#1360000
0&
#1365000
b110010000000000000000000 ?
b110010000000000000000000 >
b10000 F
b11001000000000000000000 E
1&
#1370000
0&
#1375000
b1100100000000000000000000 ?
b1100100000000000000000000 >
b1111 F
b110010000000000000000000 E
1&
#1380000
0&
#1385000
b11001000000000000000000000 ?
b11001000000000000000000000 >
b1110 F
b1100100000000000000000000 E
1&
#1390000
0&
#1395000
b110010000000000000000000000 ?
b110010000000000000000000000 >
b1101 F
b11001000000000000000000000 E
1&
#1400000
0&
#1405000
b1100100000000000000000000000 ?
b1100100000000000000000000000 >
b1100 F
b110010000000000000000000000 E
1&
#1410000
0&
#1415000
b11001000000000000000000000000 ?
b11001000000000000000000000000 >
b1011 F
b1100100000000000000000000000 E
1&
#1420000
0&
#1425000
b110010000000000000000000000000 ?
b110010000000000000000000000000 >
b1010 F
b11001000000000000000000000000 E
1&
#1430000
0&
#1435000
b1100100000000000000000000000000 ?
b1100100000000000000000000000000 >
b1001 F
b110010000000000000000000000000 E
1&
#1440000
0&
#1445000
b11001000000000000000000000000000 ?
b11001000000000000000000000000000 >
b1000 F
b1100100000000000000000000000000 E
1&
#1450000
0&
#1455000
b111111111111111111111111111111010 9
b1 4
b110010000000000000000000000000000 ?
b110010000000000000000000000000000 >
b111 F
b11001000000000000000000000000000 E
1&
#1460000
0&
#1465000
b111111111111111111111111111111100 9
b11 4
b1100100000000000000000000000000000 ?
b1100100000000000000000000000000000 >
b110 F
b110010000000000000000000000000000 E
1&
#1470000
0&
#1475000
b111111111111111111111111111111111 9
b110 4
b11001000000000000000000000000000000 ?
b11001000000000000000000000000000000 >
b101 F
b1100100000000000000000000000000000 E
1&
#1480000
0&
#1485000
1-
b101 9
b1100 4
b10110000000000000000000000000000001 ?
b110010000000000000000000000000000000 >
b100 F
b11001000000000000000000000000000000 E
1&
#1490000
0&
#1495000
b10000000000000000000000000000000011 ?
b100 9
b1011 4
b101100000000000000000000000000000010 >
b11 F
b10110000000000000000000000000000001 E
1&
#1500000
0&
#1505000
b100000000000000000000000000000111 ?
b1 9
b1000 4
b100000000000000000000000000000000110 >
b10 F
b10000000000000000000000000000000011 E
1&
#1510000
0&
#1515000
0-
b1000000000000000000000000000001110 ?
b111111111111111111111111111111011 9
b10 4
b1000000000000000000000000000001110 >
b1 F
b100000000000000000000000000000111 E
1&
#1520000
0&
#1525000
b111111111111111111111111111111101 9
b100 4
b10000000000000000000000000000011100 ?
b10000000000000000000000000000011100 >
0#
1"
b10 M
b11111111111111111111111111111110 !
b11111111111111111111111111111110 L
b0 F
b1000000000000000000000000000001110 E
1&
#1530000
b1110 N
b1100100 P
b101 O
b1010 R
0&
#1535000
0"
b0 M
1&
#1540000
0/
b1010111100 H
03
1)
b1010111100 7
b1010111100 6
b1100100 =
b1010111100 5
b1100100 <
b1100100 $
b1100100 +
b101 '
b101 1
0&
#1545000
b111111111111111111111111111111001 9
b0 4
b11001000 ?
b11001000 >
1#
b1 M
b100000 F
b1100100 E
0J
0I
b101 K
1&
#1550000
0)
0&
#1555000
b110010000 ?
b110010000 >
b11111 F
b11001000 E
1&
#1560000
0&
#1565000
b1100100000 ?
b1100100000 >
b11110 F
b110010000 E
1&
#1570000
0&
#1575000
b11001000000 ?
b11001000000 >
b11101 F
b1100100000 E
1&
#1580000
0&
#1585000
b110010000000 ?
b110010000000 >
b11100 F
b11001000000 E
1&
#1590000
0&
#1595000
b1100100000000 ?
b1100100000000 >
b11011 F
b110010000000 E
1&
#1600000
0&
#1605000
b11001000000000 ?
b11001000000000 >
b11010 F
b1100100000000 E
1&
#1610000
0&
#1615000
b110010000000000 ?
b110010000000000 >
b11001 F
b11001000000000 E
1&
#1620000
0&
#1625000
b1100100000000000 ?
b1100100000000000 >
b11000 F
b110010000000000 E
1&
#1630000
0&
#1635000
b11001000000000000 ?
b11001000000000000 >
b10111 F
b1100100000000000 E
1&
#1640000
0&
#1645000
b110010000000000000 ?
b110010000000000000 >
b10110 F
b11001000000000000 E
1&
#1650000
0&
#1655000
b1100100000000000000 ?
b1100100000000000000 >
b10101 F
b110010000000000000 E
1&
#1660000
0&
#1665000
b11001000000000000000 ?
b11001000000000000000 >
b10100 F
b1100100000000000000 E
1&
#1670000
0&
#1675000
b110010000000000000000 ?
b110010000000000000000 >
b10011 F
b11001000000000000000 E
1&
#1680000
0&
#1685000
b1100100000000000000000 ?
b1100100000000000000000 >
b10010 F
b110010000000000000000 E
1&
#1690000
0&
#1695000
b11001000000000000000000 ?
b11001000000000000000000 >
b10001 F
b1100100000000000000000 E
1&
#1700000
0&
#1705000
b110010000000000000000000 ?
b110010000000000000000000 >
b10000 F
b11001000000000000000000 E
1&
#1710000
0&
#1715000
b1100100000000000000000000 ?
b1100100000000000000000000 >
b1111 F
b110010000000000000000000 E
1&
#1720000
0&
#1725000
b11001000000000000000000000 ?
b11001000000000000000000000 >
b1110 F
b1100100000000000000000000 E
1&
#1730000
0&
#1735000
b110010000000000000000000000 ?
b110010000000000000000000000 >
b1101 F
b11001000000000000000000000 E
1&
#1740000
0&
#1745000
b1100100000000000000000000000 ?
b1100100000000000000000000000 >
b1100 F
b110010000000000000000000000 E
1&
#1750000
0&
#1755000
b11001000000000000000000000000 ?
b11001000000000000000000000000 >
b1011 F
b1100100000000000000000000000 E
1&
#1760000
0&
#1765000
b110010000000000000000000000000 ?
b110010000000000000000000000000 >
b1010 F
b11001000000000000000000000000 E
1&
#1770000
0&
#1775000
b1100100000000000000000000000000 ?
b1100100000000000000000000000000 >
b1001 F
b110010000000000000000000000000 E
1&
#1780000
0&
#1785000
b11001000000000000000000000000000 ?
b11001000000000000000000000000000 >
b1000 F
b1100100000000000000000000000000 E
1&
#1790000
0&
#1795000
b111111111111111111111111111111010 9
b1 4
b110010000000000000000000000000000 ?
b110010000000000000000000000000000 >
b111 F
b11001000000000000000000000000000 E
1&
#1800000
0&
#1805000
b111111111111111111111111111111100 9
b11 4
b1100100000000000000000000000000000 ?
b1100100000000000000000000000000000 >
b110 F
b110010000000000000000000000000000 E
1&
#1810000
0&
#1815000
b111111111111111111111111111111111 9
b110 4
b11001000000000000000000000000000000 ?
b11001000000000000000000000000000000 >
b101 F
b1100100000000000000000000000000000 E
1&
#1820000
0&
#1825000
1-
b101 9
b1100 4
b10110000000000000000000000000000001 ?
b110010000000000000000000000000000000 >
b100 F
b11001000000000000000000000000000000 E
1&
#1830000
0&
#1835000
b10000000000000000000000000000000011 ?
b100 9
b1011 4
b101100000000000000000000000000000010 >
b11 F
b10110000000000000000000000000000001 E
1&
#1840000
0&
#1845000
b100000000000000000000000000000111 ?
b1 9
b1000 4
b100000000000000000000000000000000110 >
b10 F
b10000000000000000000000000000000011 E
1&
#1850000
0&
#1855000
0-
b1000000000000000000000000000001110 ?
b111111111111111111111111111111011 9
b10 4
b1000000000000000000000000000001110 >
b1 F
b100000000000000000000000000000111 E
1&
#1860000
0&
#1865000
b111111111111111111111111111111101 9
b100 4
b10000000000000000000000000000011100 ?
b10000000000000000000000000000011100 >
0#
1"
b10 M
b1110 !
b1110 L
b0 F
b1000000000000000000000000000001110 E
1&
#1870000
b10 N
b111 O
b1011 R
0&
#1875000
0"
b0 M
1&
#1880000
1)
b111 '
b111 1
0&
#1885000
b111111111111111111111111111111001 9
b0 4
b11001000 ?
b11001000 >
1#
b1 M
b100000 F
b1100100 E
b111 K
1&
#1890000
0)
0&
#1895000
b110010000 ?
b110010000 >
b11111 F
b11001000 E
1&
#1900000
0&
#1905000
b1100100000 ?
b1100100000 >
b11110 F
b110010000 E
1&
#1910000
0&
#1915000
b11001000000 ?
b11001000000 >
b11101 F
b1100100000 E
1&
#1920000
0&
#1925000
b110010000000 ?
b110010000000 >
b11100 F
b11001000000 E
1&
#1930000
0&
#1935000
b1100100000000 ?
b1100100000000 >
b11011 F
b110010000000 E
1&
#1940000
0&
#1945000
b11001000000000 ?
b11001000000000 >
b11010 F
b1100100000000 E
1&
#1950000
0&
#1955000
b110010000000000 ?
b110010000000000 >
b11001 F
b11001000000000 E
1&
#1960000
0&
#1965000
b1100100000000000 ?
b1100100000000000 >
b11000 F
b110010000000000 E
1&
#1970000
0&
#1975000
b11001000000000000 ?
b11001000000000000 >
b10111 F
b1100100000000000 E
1&
#1980000
0&
#1985000
b110010000000000000 ?
b110010000000000000 >
b10110 F
b11001000000000000 E
1&
#1990000
0&
