waveform/tb_mmu_tlb.vcd
$date
	Sun Jun 14 15:37:49 2026
$end
$version
	Icarus Verilog
$end
$timescale
	1ps
$end
$scope module tb_mmu_tlb $end
$var wire 32 ! dmem_rdata [31:0] $end
$var wire 32 " imem_rdata [31:0] $end
$var wire 32 # imem_addr [31:0] $end
$var wire 4 $ dmem_wstrb [3:0] $end
$var wire 1 % dmem_we $end
$var wire 32 & dmem_wdata [31:0] $end
$var wire 32 ' dmem_addr [31:0] $end
$var reg 1 ( clk $end
$var reg 1 ) rst_n $end
$var integer 32 * errors [31:0] $end
$var integer 32 + i [31:0] $end
$scope module dut $end
$var wire 1 , back_pressure $end
$var wire 1 - clint_sel $end
$var wire 1 ( clk $end
$var wire 1 . csr_illegal $end
$var wire 1 / csr_wr $end
$var wire 32 0 dmem_rdata [31:0] $end
$var wire 1 1 ex_branch_taken $end
$var wire 1 2 ex_dfault $end
$var wire 1 3 ex_ifault $end
$var wire 32 4 ex_jalr_target [31:0] $end
$var wire 1 5 ex_mem_op $end
$var wire 1 6 ex_mret $end
$var wire 1 7 ex_pagefault $end
$var wire 1 8 ex_redirect $end
$var wire 1 9 ex_satp_wr $end
$var wire 1 : ex_sfence $end
$var wire 1 ; ex_sret $end
$var wire 1 < ex_start $end
$var wire 1 = ex_take_pc $end
$var wire 1 > ex_trap $end
$var wire 1 ? ex_trap_sync $end
$var wire 1 @ ex_wants $end
$var wire 32 A if_instr [31:0] $end
$var wire 1 B if_need_xlate $end
$var wire 1 C if_start $end
$var wire 1 D if_wants $end
$var wire 1 E if_xlate_pending $end
$var wire 32 F imem_rdata [31:0] $end
$var wire 1 G instr_misalign $end
$var wire 1 H is_store_acc $end
$var wire 1 I load_misalign $end
$var wire 1 J mem_access $end
$var wire 32 K mem_addr_ex [31:0] $end
$var wire 1 L mem_data_acc $end
$var wire 1 M mmu_active $end
$var wire 1 N mmu_flush $end
$var wire 1 O mmu_stall $end
$var wire 1 P mmu_walking $end
$var wire 1 Q mret_ok $end
$var wire 1 R mul_stall $end
$var wire 1 S need_xlate $end
$var wire 1 ) rst_n $end
$var wire 1 T sc_ok $end
$var wire 1 U serving_ex $end
$var wire 1 V sret_ok $end
$var wire 1 W stall_front $end
$var wire 1 X store_misalign $end
$var wire 1 Y take_int $end
$var wire 1 Z w_busy $end
$var wire 1 [ walker_bus $end
$var wire 1 \ wb2id_rs1 $end
$var wire 1 ] wb2id_rs2 $end
$var wire 1 ^ xret_illegal $end
$var wire 32 _ wb_data [31:0] $end
$var wire 1 ` sz_misalign $end
$var wire 32 a sync_cause [31:0] $end
$var wire 32 b pc_plus4 [31:0] $end
$var wire 32 c next_pc [31:0] $end
$var wire 32 d mul_result [31:0] $end
$var wire 1 e mul_done $end
$var wire 1 f mul_busy $end
$var wire 32 g mmu_paddr [31:0] $end
$var wire 1 h mmu_mem_req $end
$var wire 32 i mmu_mem_addr [31:0] $end
$var wire 4 j mmu_fault_cause [3:0] $end
$var wire 1 k mmu_fault $end
$var wire 1 l mmu_done $end
$var wire 2 m mmu_acc [1:0] $end
$var wire 1 n memwb_reg_write $end
$var wire 5 o memwb_rd [4:0] $end
$var wire 2 p mem_off [1:0] $end
$var wire 16 q mem_ld_half [15:0] $end
$var wire 8 r mem_ld_byte [7:0] $end
$var wire 1 s load_use_stall $end
$var wire 1 t irq_pending $end
$var wire 32 u irq_cause [31:0] $end
$var wire 32 v imem_addr [31:0] $end
$var wire 2 w id_wb_sel [1:0] $end
$var wire 1 x id_sys_sret $end
$var wire 1 y id_sys_mret $end
$var wire 1 z id_sys_ecall $end
$var wire 1 { id_sys_ebreak $end
$var wire 32 | id_rs2_fwd [31:0] $end
$var wire 32 } id_rs2_data [31:0] $end
$var wire 5 ~ id_rs2 [4:0] $end
$var wire 32 !" id_rs1_fwd [31:0] $end
$var wire 32 "" id_rs1_data [31:0] $end
$var wire 5 #" id_rs1 [4:0] $end
$var wire 1 $" id_reg_write $end
$var wire 5 %" id_rd [4:0] $end
$var wire 7 &" id_opcode [6:0] $end
$var wire 1 '" id_mem_write $end
$var wire 1 (" id_mem_read $end
$var wire 1 )" id_jump $end
$var wire 1 *" id_jalr $end
$var wire 1 +" id_is_sc $end
$var wire 1 ," id_is_muldiv $end
$var wire 1 -" id_is_lr $end
$var wire 1 ." id_is_csr $end
$var wire 1 /" id_is_amo $end
$var wire 3 0" id_imm_sel [2:0] $end
$var wire 32 1" id_imm [31:0] $end
$var wire 1 2" id_illegal $end
$var wire 1 3" id_funct7b5 $end
$var wire 1 4" id_funct7b0 $end
$var wire 3 5" id_funct3 [2:0] $end
$var wire 1 6" id_branch $end
$var wire 5 7" id_amo_op [4:0] $end
$var wire 4 8" id_alu_op [3:0] $end
$var wire 1 9" id_alu_b_src $end
$var wire 1 :" id_alu_a_src $end
$var wire 2 ;" forward_b [1:0] $end
$var wire 2 <" forward_a [1:0] $end
$var wire 1 =" fetch_consumed $end
$var wire 32 >" exmem_fwd_val [31:0] $end
$var wire 32 ?" ex_trap_val [31:0] $end
$var wire 32 @" ex_trap_cause [31:0] $end
$var wire 32 A" ex_target [31:0] $end
$var wire 32 B" ex_result [31:0] $end
$var wire 32 C" ex_redirect_pc [31:0] $end
$var wire 32 D" ex_pc_target [31:0] $end
$var wire 32 E" ex_mem_addr [31:0] $end
$var wire 1 F" ex_alu_zero $end
$var wire 32 G" ex_alu_result [31:0] $end
$var wire 32 H" ex_alu_b [31:0] $end
$var wire 32 I" ex_alu_a [31:0] $end
$var wire 4 J" dmem_wstrb [3:0] $end
$var wire 1 % dmem_we $end
$var wire 32 K" dmem_wdata [31:0] $end
$var wire 32 L" dmem_addr [31:0] $end
$var wire 32 M" csr_wval [31:0] $end
$var wire 32 N" csr_trap_vec [31:0] $end
$var wire 32 O" csr_src [31:0] $end
$var wire 32 P" csr_satp [31:0] $end
$var wire 32 Q" csr_ret_pc [31:0] $end
$var wire 32 R" csr_rdata [31:0] $end
$var wire 2 S" csr_priv [1:0] $end
$var wire 2 T" csr_op [1:0] $end
$var wire 1 U" csr_addr_valid $end
$var wire 32 V" clint_rdata [31:0] $end
$var wire 1 W" clint_mtip $end
$var wire 32 X" amo_wval [31:0] $end
$var parameter 2 Y" F_IDLE $end
$var parameter 2 Z" F_RDY $end
$var parameter 2 [" F_WALK $end
$var parameter 32 \" RESET_PC $end
$var parameter 2 ]" X_IDLE $end
$var parameter 2 ^" X_RDY $end
$var parameter 2 _" X_WALK $end
$var reg 1 `" ex_branch_cond $end
$var reg 32 a" ex_rs1_fwd [31:0] $end
$var reg 32 b" ex_rs2_fwd [31:0] $end
$var reg 32 c" exmem_alu_result [31:0] $end
$var reg 5 d" exmem_amo_op [4:0] $end
$var reg 3 e" exmem_funct3 [2:0] $end
$var reg 32 f" exmem_instr [31:0] $end
$var reg 1 g" exmem_is_amo $end
$var reg 1 h" exmem_is_lr $end
$var reg 1 i" exmem_is_sc $end
$var reg 1 j" exmem_mem_read $end
$var reg 1 k" exmem_mem_write $end
$var reg 32 l" exmem_pc4 [31:0] $end
$var reg 5 m" exmem_rd [4:0] $end
$var reg 1 n" exmem_reg_write $end
$var reg 32 o" exmem_rs2_data [31:0] $end
$var reg 1 p" exmem_valid $end
$var reg 2 q" exmem_wb_sel [1:0] $end
$var reg 1 r" ffault $end
$var reg 32 s" fpaddr [31:0] $end
$var reg 2 t" fstate [1:0] $end
$var reg 1 u" idex_alu_a_src $end
$var reg 1 v" idex_alu_b_src $end
$var reg 4 w" idex_alu_op [3:0] $end
$var reg 5 x" idex_amo_op [4:0] $end
$var reg 1 y" idex_branch $end
$var reg 12 z" idex_csr_addr [11:0] $end
$var reg 1 {" idex_fault $end
$var reg 3 |" idex_funct3 [2:0] $end
$var reg 1 }" idex_illegal $end
$var reg 32 ~" idex_imm [31:0] $end
$var reg 32 !# idex_instr [31:0] $end
$var reg 1 "# idex_is_amo $end
$var reg 1 ## idex_is_csr $end
$var reg 1 $# idex_is_lr $end
$var reg 1 %# idex_is_muldiv $end
$var reg 1 &# idex_is_sc $end
$var reg 1 '# idex_jalr $end
$var reg 1 (# idex_jump $end
$var reg 1 )# idex_mem_read $end
$var reg 1 *# idex_mem_write $end
$var reg 32 +# idex_pc [31:0] $end
$var reg 32 ,# idex_pc4 [31:0] $end
$var reg 5 -# idex_rd [4:0] $end
$var reg 1 .# idex_reg_write $end
$var reg 5 /# idex_rs1 [4:0] $end
$var reg 32 0# idex_rs1_data [31:0] $end
$var reg 5 1# idex_rs2 [4:0] $end
$var reg 32 2# idex_rs2_data [31:0] $end
$var reg 1 3# idex_sys_ebreak $end
$var reg 1 4# idex_sys_ecall $end
$var reg 1 5# idex_sys_mret $end
$var reg 1 6# idex_sys_sret $end
$var reg 1 7# idex_valid $end
$var reg 2 8# idex_wb_sel [1:0] $end
$var reg 1 9# ifid_fault $end
$var reg 32 :# ifid_instr [31:0] $end
$var reg 32 ;# ifid_pc [31:0] $end
$var reg 32 <# ifid_pc4 [31:0] $end
$var reg 1 =# ifid_valid $end
$var reg 32 ># mem_load_data [31:0] $end
$var reg 32 ?# mem_store_data [31:0] $end
$var reg 4 @# mem_store_strb [3:0] $end
$var reg 32 A# memwb_alu_result [31:0] $end
$var reg 32 B# memwb_instr [31:0] $end
$var reg 32 C# memwb_load_data [31:0] $end
$var reg 32 D# memwb_pc4 [31:0] $end
$var reg 5 E# memwb_rd_r [4:0] $end
$var reg 1 n memwb_reg_write_r $end
$var reg 1 F# memwb_valid $end
$var reg 2 G# memwb_wb_sel [1:0] $end
$var reg 32 H# pc [31:0] $end
$var reg 32 I# resv_addr [31:0] $end
$var reg 1 J# resv_valid $end
$var reg 32 K# wb_mux [31:0] $end
$var reg 4 L# xcause [3:0] $end
$var reg 1 M# xfault $end
$var reg 32 N# xpaddr [31:0] $end
$var reg 2 O# xstate [1:0] $end
$scope module u_alu $end
$var wire 32 P# a [31:0] $end
$var wire 4 Q# alu_op [3:0] $end
$var wire 32 R# b [31:0] $end
$var wire 1 F" zero $end
$var wire 5 S# shamt [4:0] $end
$var reg 32 T# result [31:0] $end
$upscope $end
$scope module u_amo $end
$var wire 5 U# amo_op [4:0] $end
$var wire 32 V# mem_val [31:0] $end
$var wire 32 W# rs2_val [31:0] $end
$var wire 32 X# s_mem [31:0] $end
$var wire 32 Y# s_rs2 [31:0] $end
$var reg 32 Z# result [31:0] $end
$upscope $end
$scope module u_clint $end
$var wire 1 ( clk $end
$var wire 16 [# off [15:0] $end
$var wire 1 ) rst_n $end
$var wire 1 - sel $end
$var wire 32 \# wdata [31:0] $end
$var wire 1 ]# we $end
$var wire 1 W" mtip $end
$var reg 64 ^# mtime [63:0] $end
$var reg 64 _# mtimecmp [63:0] $end
$var reg 32 `# rdata [31:0] $end
$upscope $end
$scope module u_csr $end
$var wire 12 a# addr [11:0] $end
$var wire 1 ( clk $end
$var wire 1 b# m_en $end
$var wire 32 c# mip_eff [31:0] $end
$var wire 1 6 mret_en $end
$var wire 1 W" mtip_i $end
$var wire 32 d# pend [31:0] $end
$var wire 2 e# priv_o [1:0] $end
$var wire 1 ## rd_en $end
$var wire 1 ) rst_n $end
$var wire 1 f# s_en $end
$var wire 32 g# satp_o [31:0] $end
$var wire 32 h# sie_v [31:0] $end
$var wire 32 i# sip_v [31:0] $end
$var wire 1 ; sret_en $end
$var wire 32 j# take [31:0] $end
$var wire 1 k# to_s $end
$var wire 32 l# trap_cause [31:0] $end
$var wire 1 > trap_en $end
$var wire 32 m# trap_epc [31:0] $end
$var wire 32 n# trap_val [31:0] $end
$var wire 32 o# wdata [31:0] $end
$var wire 1 p# wr_en $end
$var wire 32 q# trap_vec_o [31:0] $end
$var wire 32 r# sstatus [31:0] $end
$var wire 32 s# ret_pc_o [31:0] $end
$var wire 32 t# mstatus [31:0] $end
$var wire 1 u# is_int $end
$var wire 1 t irq_pending $end
$var wire 32 v# irq_cause [31:0] $end
$var wire 1 w# deleg $end
$var reg 1 U" addr_valid $end
$var reg 5 x# icode [4:0] $end
$var reg 32 y# mcause [31:0] $end
$var reg 32 z# medeleg [31:0] $end
$var reg 32 {# mepc [31:0] $end
$var reg 32 |# mideleg [31:0] $end
$var reg 1 }# mie $end
$var reg 32 ~# mie_r [31:0] $end
$var reg 32 !$ mip_r [31:0] $end
$var reg 1 "$ mpie $end
$var reg 2 #$ mpp [1:0] $end
$var reg 32 $$ mscratch [31:0] $end
$var reg 32 %$ mtval [31:0] $end
$var reg 32 &$ mtvec [31:0] $end
$var reg 2 '$ priv [1:0] $end
$var reg 32 ($ rdata [31:0] $end
$var reg 32 )$ satp [31:0] $end
$var reg 32 *$ scause [31:0] $end
$var reg 32 +$ sepc [31:0] $end
$var reg 1 ,$ sie $end
$var reg 1 -$ spie $end
$var reg 1 .$ spp $end
$var reg 32 /$ sscratch [31:0] $end
$var reg 32 0$ stval [31:0] $end
$var reg 32 1$ stvec [31:0] $end
$upscope $end
$scope module u_ctrl $end
$var wire 12 2$ funct12 [11:0] $end
$var wire 3 3$ funct3 [2:0] $end
$var wire 5 4$ funct5 [4:0] $end
$var wire 1 4" funct7b0 $end
$var wire 1 3" funct7b5 $end
$var wire 7 5$ opcode [6:0] $end
$var reg 1 :" alu_a_src $end
$var reg 4 6$ alu_arith [3:0] $end
$var reg 1 9" alu_b_src $end
$var reg 4 7$ alu_op [3:0] $end
$var reg 5 8$ amo_op [4:0] $end
$var reg 1 6" branch $end
$var reg 1 2" illegal $end
$var reg 3 9$ imm_sel [2:0] $end
$var reg 1 /" is_amo $end
$var reg 1 ." is_csr $end
$var reg 1 -" is_lr $end
$var reg 1 ," is_muldiv $end
$var reg 1 +" is_sc $end
$var reg 1 *" jalr $end
$var reg 1 )" jump $end
$var reg 1 (" mem_read $end
$var reg 1 '" mem_write $end
$var reg 1 $" reg_write $end
$var reg 1 { sys_ebreak $end
$var reg 1 z sys_ecall $end
$var reg 1 y sys_mret $end
$var reg 1 x sys_sret $end
$var reg 2 :$ wb_sel [1:0] $end
$upscope $end
$scope module u_fwd $end
$var wire 5 ;$ exmem_rd [4:0] $end
$var wire 1 n" exmem_reg_write $end
$var wire 5 <$ idex_rs1 [4:0] $end
$var wire 5 =$ idex_rs2 [4:0] $end
$var wire 5 >$ memwb_rd [4:0] $end
$var wire 1 n memwb_reg_write $end
$var reg 2 ?$ forward_a [1:0] $end
$var reg 2 @$ forward_b [1:0] $end
$upscope $end
$scope module u_hazard $end
$var wire 1 )# idex_mem_read $end
$var wire 5 A$ idex_rd [4:0] $end
$var wire 5 B$ ifid_rs1 [4:0] $end
$var wire 5 C$ ifid_rs2 [4:0] $end
$var wire 1 s stall $end
$upscope $end
$scope module u_imm $end
$var wire 3 D$ imm_sel [2:0] $end
$var wire 32 E$ instr [31:0] $end
$var reg 32 F$ imm [31:0] $end
$upscope $end
$scope module u_mmu $end
$var wire 2 G$ access [1:0] $end
$var wire 1 ( clk $end
$var wire 1 N flush $end
$var wire 1 H$ l0_invalid $end
$var wire 1 I$ l1_invalid $end
$var wire 1 J$ l1_leaf $end
$var wire 1 K$ mem_ack $end
$var wire 32 L$ mem_rdata [31:0] $end
$var wire 1 M$ mxr $end
$var wire 2 N$ priv [1:0] $end
$var wire 1 O$ req $end
$var wire 1 ) rst_n $end
$var wire 32 P$ satp [31:0] $end
$var wire 1 Q$ sum $end
$var wire 32 R$ vaddr [31:0] $end
$var wire 32 S$ hit_paddr [31:0] $end
$var parameter 2 T$ S_DONE $end
$var parameter 2 U$ S_IDLE $end
$var parameter 2 V$ S_L0 $end
$var parameter 2 W$ S_L1 $end
$var parameter 32 X$ TLBN $end
$var reg 2 Y$ access_q [1:0] $end
$var reg 1 l done $end
$var reg 1 k fault $end
$var reg 4 Z$ fault_cause [3:0] $end
$var reg 3 [$ hidx [2:0] $end
$var reg 1 \$ hit $end
$var reg 32 ]$ hit_pte [31:0] $end
$var reg 1 ^$ hit_sup $end
$var reg 32 _$ leaf_pte [31:0] $end
$var reg 32 `$ mem_addr [31:0] $end
$var reg 1 h mem_req $end
$var reg 32 a$ paddr [31:0] $end
$var reg 3 b$ rr [2:0] $end
$var reg 2 c$ state [1:0] $end
$var reg 32 d$ vaddr_q [31:0] $end
$var integer 32 e$ i [31:0] $end
$scope function bad_leaf $end
$var reg 1 f$ a $end
$var reg 2 g$ acc [1:0] $end
$var reg 1 h$ d $end
$var reg 1 i$ ok $end
$var reg 32 j$ p [31:0] $end
$var reg 1 k$ r $end
$var reg 1 l$ u $end
$var reg 1 m$ w $end
$var reg 1 n$ x $end
$upscope $end
$scope function pf_cause $end
$var reg 2 o$ acc [1:0] $end
$upscope $end
$upscope $end
$scope module u_muldiv $end
$var wire 32 p$ a [31:0] $end
$var wire 32 q$ b [31:0] $end
$var wire 1 ( clk $end
$var wire 1 r$ ge $end
$var wire 1 s$ is_mul $end
$var wire 1 t$ na $end
$var wire 1 u$ nb $end
$var wire 3 v$ op [2:0] $end
$var wire 1 w$ overflow $end
$var wire 1 ) rst_n $end
$var wire 1 x$ signed_div $end
$var wire 1 %# start $end
$var wire 32 y$ rem_hi [31:0] $end
$var wire 64 z$ p_uu [63:0] $end
$var wire 64 {$ p_su [63:0] $end
$var wire 64 |$ p_ss [63:0] $end
$var wire 1 e done $end
$var wire 1 }$ div_zero $end
$var wire 33 ~$ diff [32:0] $end
$var wire 1 f busy $end
$var wire 64 !% bu [63:0] $end
$var wire 64 "% bs [63:0] $end
$var wire 64 #% au [63:0] $end
$var wire 64 $% as [63:0] $end
$var wire 64 %% acc_sh [63:0] $end
$var wire 64 &% acc_nx [63:0] $end
$var wire 32 '% abs_b [31:0] $end
$var wire 32 (% abs_a [31:0] $end
$var parameter 2 )% CALC $end
$var parameter 2 *% FIN $end
$var parameter 2 +% IDLE $end
$var reg 64 ,% acc [63:0] $end
$var reg 6 -% cnt [5:0] $end
$var reg 32 .% divisor_q [31:0] $end
$var reg 32 /% mul_res [31:0] $end
$var reg 1 0% neg_q $end
$var reg 1 1% neg_r $end
$var reg 3 2% op_q [2:0] $end
$var reg 32 3% result [31:0] $end
$var reg 2 4% state [1:0] $end
$upscope $end
$scope module u_rf $end
$var wire 1 ( clk $end
$var wire 5 5% rd_addr [4:0] $end
$var wire 32 6% rd_data [31:0] $end
$var wire 5 7% rs1_addr [4:0] $end
$var wire 5 8% rs2_addr [4:0] $end
$var wire 1 n we $end
$var wire 32 9% rs2_data [31:0] $end
$var wire 32 :% rs1_data [31:0] $end
$var integer 32 ;% i [31:0] $end
$upscope $end
$upscope $end
$scope task chk $end
$var reg 32 <% exp [31:0] $end
$var reg 32 =% got [31:0] $end
$var integer 32 >% id [31:0] $end
$upscope $end
$upscope $end
$enddefinitions $end
$comment Show the parameter values. $end
$dumpall
b0 +%
b10 *%
b1 )%
b1000 X$
b1 W$
b10 V$
b0 U$
b11 T$
b1 _"
b10 ^"
b0 ]"
b0 \"
b1 ["
b10 Z"
b0 Y"
$end
#0
$dumpvars
bx >%
bx =%
bx <%
b100000 ;%
b0 :%
b0 9%
b0 8%
b0 7%
b0 6%
b0 5%
b0 4%
b0 3%
b0 2%
01%
00%
b0 /%
b0 .%
b0 -%
b0 ,%
b0 (%
b0 '%
b1 &%
b0 %%
b0 $%
b0 #%
b0 "%
b0 !%
b0 ~$
1}$
b0 |$
b0 {$
b0 z$
b0 y$
0x$
0w$
b0 v$
0u$
0t$
1s$
1r$
b0 q$
b0 p$
bx o$
xn$
xm$
xl$
xk$
bx j$
xi$
xh$
bx g$
xf$
b1000 e$
bx d$
b0 c$
b0 b$
b0 a$
bx `$
bx _$
0^$
b0 ]$
0\$
b0 [$
b0 Z$
bx Y$
b0 S$
b0 R$
0Q$
b0 P$
0O$
b11 N$
0M$
b100001010110111 L$
0K$
1J$
0I$
0H$
b0 G$
b0 F$
b10011 E$
b0 D$
b0 C$
b0 B$
b0 A$
b0 @$
b0 ?$
b0 >$
b0 =$
b0 <$
b0 ;$
b0 :$
b0 9$
b0 8$
b0 7$
b0 6$
b10011 5$
b0 4$
b0 3$
b0 2$
b0 1$
b0 0$
b0 /$
0.$
0-$
0,$
b0 +$
b0 *$
b0 )$
b0 ($
b11 '$
b0 &$
b0 %$
b0 $$
b0 #$
0"$
b0 !$
b0 ~#
0}#
b0 |#
b0 {#
b0 z#
b0 y#
b0 x#
0w#
b10000000000000000000000000000000 v#
0u#
b0 t#
b0 s#
b0 r#
b0 q#
0p#
b0 o#
b0 n#
b0 m#
b10 l#
0k#
b0 j#
b0 i#
b0 h#
b0 g#
0f#
b11 e#
b0 d#
b0 c#
0b#
b0 a#
b0 `#
b1111111111111111111111111111111111111111111111111111111111111111 _#
b0 ^#
0]#
b0 \#
b0 [#
b100001010110111 Z#
b0 Y#
b100001010110111 X#
b0 W#
b100001010110111 V#
b0 U#
b0 T#
b0 S#
b0 R#
b0 Q#
b0 P#
b0 O#
bx N#
xM#
bx L#
b0 K#
0J#
bx I#
b0 H#
b0 G#
0F#
b0 E#
b0 D#
b0 C#
b10011 B#
b0 A#
b1 @#
b0 ?#
b11111111111111111111111110110111 >#
0=#
b0 <#
b0 ;#
b10011 :#
09#
b0 8#
07#
06#
05#
04#
03#
b0 2#
b0 1#
b0 0#
b0 /#
0.#
b0 -#
b0 ,#
b0 +#
0*#
0)#
0(#
0'#
0&#
0%#
0$#
0##
0"#
b10011 !#
b0 ~"
0}"
b0 |"
x{"
b0 z"
0y"
b0 x"
b0 w"
0v"
0u"
b0 t"
b0 s"
0r"
b0 q"
0p"
b0 o"
0n"
b0 m"
b0 l"
0k"
0j"
0i"
0h"
0g"
b10011 f"
b0 e"
b0 d"
b0 c"
b0 b"
b0 a"
1`"
b100001010110111 X"
0W"
b0 V"
0U"
b0 T"
b11 S"
b0 R"
b0 Q"
b0 P"
b0 O"
b0 N"
b0 M"
b0 L"
b0 K"
b0 J"
b0 I"
b0 H"
b0 G"
1F"
b0 E"
b0 D"
b0 C"
b0 B"
b0 A"
b10 @"
b0 ?"
b0 >"
1="
b0 <"
b0 ;"
0:"
19"
b0 8"
b0 7"
06"
b0 5"
04"
03"
02"
b0 1"
b0 0"
0/"
0."
0-"
0,"
0+"
0*"
0)"
0("
0'"
b10011 &"
b0 %"
1$"
b0 #"
b0 ""
b0 !"
b0 ~
b0 }
b0 |
0{
0z
0y
0x
b0 w
b0 v
b10000000000000000000000000000000 u
0t
0s
b10110111 r
b100001010110111 q
b0 p
b0 o
0n
b1 m
0l
0k
b0 j
bx i
0h
b0 g
0f
0e
b0 d
b100 c
b100 b
b10 a
0`
b0 _
0^
0]
0\
0[
0Z
0Y
0X
0W
0V
0U
0T
0S
0R
0Q
0P
0O
0N
0M
0L
b0 K
0J
0I
0H
0G
b100001010110111 F
0E
0D
0C
0B
b100001010110111 A
0@
0?
0>
0=
0<
0;
0:
09
08
07
06
05
b0 4
03
02
01
b100001010110111 0
0/
0.
0-
0,
b100000000000000 +
b0 *
0)
0(
b0 '
b0 &
0%
b0 $
b0 #
b100001010110111 "
b100001010110111 !
$end
#5000
b1000 e$
1(
#10000
0(
#15000
b1000 e$
1(
#20000
0(
#25000
b1000 e$
1(
#30000
0(
#35000
b1000 e$
1(
#40000
1)
0(
#45000
b100000000000000 1"
b100000000000000 F$
b100 S$
b1010 8"
b1010 7$
b11 0"
b11 9$
b11 D$
19"
1$"
b101 6$
b1100110111 A
b1100110111 "
b1100110111 F
b1000 e$
b110111 &"
b110111 5$
b101 %"
b100 5"
b100 3$
b1000 c
b100 #
b100 v
b100 R$
b11111111111111111111111110110111 C#
0{"
1v"
1.#
1=#
b100001010110111 :#
b100001010110111 E$
b100 <#
b1000 b
b100 H#
b1 ^#
1(
#50000
0(
#55000
b100000000000000 E"
b100000000000000 B"
b1000 S$
0s$
b100000000000000 C"
b1100111100110000001100010011 A
b1100111100110000001100010011 "
b1100111100110000001100010011 F
b1000 e$
b11 0"
b11 9$
b11 D$
b1010 8"
b1010 7$
19"
1$"
b0 6$
0F"
b100000000000000 K
b100000000000000 G"
b100000000000000 T#
b1100 c
b1000 #
b1000 v
b1000 R$
b110 %"
b0 5"
b0 3$
b0 1"
b0 F$
1x$
0`"
b100000000000000 H"
b100000000000000 R#
b100000000000000 A"
b100000000000000 4
b10 ^#
b1100 b
b1000 H#
b1100110111 :#
b1100110111 E$
b1000 <#
b100 ;#
b100001010110111 !#
17#
b100 |"
b100 v$
b101 -#
b101 A$
b100 ,#
b100000000000000 D"
b100000000000000 ~"
b1010 w"
b1010 Q#
1n"
1(
#60000
0(
#65000
1H$
b0 E"
1I$
0J$
b0 B"
b0 X"
b0 Z#
1s$
b100 C"
b1100 S$
b11111111111111111111111111111111 V"
b11111111111111111111111111111111 `#
b0 r
b0 q
b0 X#
b0 !
b0 0
b0 V#
b0 L$
1F"
b0 K
b0 G"
b0 T#
b0 0"
b0 9$
b0 D$
b0 8"
b0 7$
19"
1$"
b11000101010000000100011 A
b11000101010000000100011 "
b11000101010000000100011 F
b1000 e$
b0 >#
b0 @#
b100000000000000 >"
b100000000000000 [#
b100000000000000 '
b100000000000000 L"
0x$
1`"
b0 H"
b0 R#
b100 A"
b0 4
b10011 &"
b10011 5$
b110 #"
b110 B$
b110 7%
b1111 ~
b1111 C$
b1111 8%
b11001111 2$
b1 4$
b11001111 1"
b11001111 F$
b10000 c
b1100 #
b1100 v
b1100 R$
1n
b100001010110111 f"
1p"
b100 e"
b101 m"
b101 ;$
b100 l"
b100000000000000 c"
b1100110111 !#
b0 |"
b0 v$
b110 -#
b110 A$
b1000 ,#
b100 +#
b100 m#
b100 D"
b0 ~"
b1100111100110000001100010011 :#
b1100111100110000001100010011 E$
b1100 <#
b1000 ;#
b10000 b
b1100 H#
b11 ^#
1(
#70000
0(
#75000
b11001111 E"
0H$
b11001111 B"
0I$
1J$
b10000 S$
b11010111 C"
b100001010110111 X"
b100001010110111 Z#
b100000000000000 !"
b11111111111111111111111110110111 >#
b1001100110111 A
b1001100110111 "
b1001100110111 F
b1000 e$
b11 6$
1'"
b1 0"
b1 9$
b1 D$
19"
0$"
0F"
b11001111 K
b11001111 G"
b11001111 T#
b1111 S#
b10110111 r
b100001010110111 q
b100001010110111 X#
b100001010110111 !
b100001010110111 0
b100001010110111 V#
b100001010110111 L$
1\
b0 V"
b0 `#
b10100 c
b10000 #
b10000 v
b10000 R$
b100011 &"
b100011 5$
b0 %"
b101 #"
b101 B$
b101 7%
b110 ~
b110 C$
b110 8%
b10 5"
b10 3$
b110 2$
b0 4$
b0 1"
b0 F$
0U"
b11001111 H"
b11001111 R#
b11010111 A"
b11001110 4
b1 @#
b0 >"
b0 [#
b0 '
b0 L"
b10 <"
b10 ?$
b100000000000000 _
b100000000000000 K#
b100000000000000 6%
b100 ^#
b10100 b
b10000 H#
b11000101010000000100011 :#
b11000101010000000100011 E$
b10000 <#
b1100 ;#
b1100111100110000001100010011 !#
b11001111 z"
b11001111 a#
b1111 1#
b1111 =$
b110 /#
b110 <$
b1100 ,#
b1000 +#
b1000 m#
b11010111 D"
b11001111 ~"
b0 w"
b0 Q#
b1100110111 f"
b0 e"
b110 m"
b110 ;$
b1000 l"
b0 c"
b100001010110111 B#
1F#
b101 o
b101 E#
b101 >$
b101 5%
b100 D#
b0 C#
b100000000000000 A#
1(
#80000
0(
#85000
08
0>
0?
b0 ?"
b0 n#
b10 @"
b10 l#
b10 a
b100000000000000 M"
b100000000000000 o#
1H$
0X
b100000000000000 E"
1I$
0J$
b100000000000000 B"
15
1J
b0 X"
b0 Z#
0`
b11001111 '%
b100000000000000 I"
b100000000000000 P#
b100000000000000 O"
b100000000000000 (%
b1100 C"
b10 m
b10100 S$
b0 !"
b0 >#
b1000 @#
b0 X#
b0 !
b0 0
b0 V#
b0 L$
b1100111100000000000000 |$
b11001111 "%
b1100111100000000000000 z$
b1100111100000000000000 {$
b11001111 !%
0}$
b11001111 b"
b11001111 q$
b100000000000000 $%
b100000000000000 #%
b100000000000000 a"
b100000000000000 p$
0F"
b100000000000000 K
b100000000000000 G"
b100000000000000 T#
b0 S#
1H
b10 6$
b1010 8"
b1010 7$
1$"
0'"
b11 0"
b11 9$
b11 D$
19"
b1000000000100110000001100010011 A
b1000000000100110000001100010011 "
b1000000000100110000001100010011 F
b1000 e$
0\
b0 _
b0 K#
b0 6%
b11001111 >"
b0 r
bx00000000 q
b11 p
b11001111 [#
b11001111 '
b11001111 L"
0U"
b10 T"
0`"
b10 ;"
b10 @$
b0 <"
b0 ?$
b0 H"
b0 R#
b1100 A"
b100000000000000 4
b110111 &"
b110111 5$
b110 %"
b0 #"
b0 B$
b0 7%
b0 ~
b0 C$
b0 8%
b1 5"
b1 3$
b0 2$
b1000000000000 1"
b1000000000000 F$
b11000 c
b10100 #
b10100 v
b10100 R$
b0 ""
b0 :%
b1100110111 B#
b110 o
b110 E#
b110 >$
b110 5%
b1000 D#
b11111111111111111111111110110111 C#
b0 A#
b1100111100110000001100010011 f"
b1100 l"
b11001111 c"
b11000101010000000100011 !#
b110 z"
b110 a#
b10 |"
b10 v$
b110 1#
b110 =$
b101 /#
b101 <$
b0 -#
b0 A$
b10000 ,#
b1100 +#
b1100 m#
b1100 D"
b0 ~"
b100000000000000 0#
1*#
0.#
b1001100110111 :#
b1001100110111 E$
b10100 <#
b10000 ;#
b11000 b
b10100 H#
b101 ^#
1(
#90000
0(
