waveform/tb_priv.vcd
$date
	Sun Jun 14 20:18:14 2026
$end
$version
	Icarus Verilog
$end
$timescale
	1ps
$end
$scope module tb_priv $end
$var wire 32 ! trap_vec_o [31:0] $end
$var wire 32 " ret_pc_o [31:0] $end
$var wire 32 # rdata [31:0] $end
$var wire 2 $ priv_o [1:0] $end
$var wire 1 % addr_valid $end
$var reg 12 & addr [11:0] $end
$var reg 1 ' clk $end
$var reg 1 ( mret_en $end
$var reg 1 ) rd_en $end
$var reg 1 * rst_n $end
$var reg 1 + sret_en $end
$var reg 32 , trap_cause [31:0] $end
$var reg 1 - trap_en $end
$var reg 32 . trap_epc [31:0] $end
$var reg 32 / trap_val [31:0] $end
$var reg 32 0 wdata [31:0] $end
$var reg 1 1 wr_en $end
$var integer 32 2 errors [31:0] $end
$scope module dut $end
$var wire 12 3 addr [11:0] $end
$var wire 1 ' clk $end
$var wire 32 4 hw_bits [31:0] $end
$var wire 32 5 hw_mask [31:0] $end
$var wire 1 6 m_en $end
$var wire 1 7 meip_i $end
$var wire 32 8 mip_eff [31:0] $end
$var wire 1 ( mret_en $end
$var wire 1 9 msip_i $end
$var wire 1 : mtip_i $end
$var wire 32 ; pend [31:0] $end
$var wire 2 < priv_o [1:0] $end
$var wire 1 ) rd_en $end
$var wire 1 * rst_n $end
$var wire 1 = s_en $end
$var wire 32 > satp_o [31:0] $end
$var wire 32 ? sie_v [31:0] $end
$var wire 32 @ sip_v [31:0] $end
$var wire 1 + sret_en $end
$var wire 32 A take [31:0] $end
$var wire 1 B to_s $end
$var wire 32 C trap_cause [31:0] $end
$var wire 1 - trap_en $end
$var wire 32 D trap_epc [31:0] $end
$var wire 32 E trap_val [31:0] $end
$var wire 32 F wdata [31:0] $end
$var wire 1 1 wr_en $end
$var wire 32 G trap_vec_o [31:0] $end
$var wire 32 H sstatus [31:0] $end
$var wire 32 I ret_pc_o [31:0] $end
$var wire 32 J mstatus [31:0] $end
$var wire 1 K is_int $end
$var wire 1 L irq_pending $end
$var wire 32 M irq_cause [31:0] $end
$var wire 1 N deleg $end
$var reg 1 % addr_valid $end
$var reg 5 O icode [4:0] $end
$var reg 32 P mcause [31:0] $end
$var reg 32 Q medeleg [31:0] $end
$var reg 32 R mepc [31:0] $end
$var reg 32 S mideleg [31:0] $end
$var reg 1 T mie $end
$var reg 32 U mie_r [31:0] $end
$var reg 32 V mip_r [31:0] $end
$var reg 1 W mpie $end
$var reg 2 X mpp [1:0] $end
$var reg 32 Y mscratch [31:0] $end
$var reg 32 Z mtval [31:0] $end
$var reg 32 [ mtvec [31:0] $end
$var reg 2 \ priv [1:0] $end
$var reg 32 ] rdata [31:0] $end
$var reg 32 ^ satp [31:0] $end
$var reg 32 _ scause [31:0] $end
$var reg 32 ` sepc [31:0] $end
$var reg 1 a sie $end
$var reg 1 b spie $end
$var reg 1 c spp $end
$var reg 32 d sscratch [31:0] $end
$var reg 32 e stval [31:0] $end
$var reg 32 f stvec [31:0] $end
$upscope $end
$scope task chk $end
$var reg 32 g exp [31:0] $end
$var reg 32 h got [31:0] $end
$var integer 32 i id [31:0] $end
$upscope $end
$scope task pulse_mret $end
$upscope $end
$scope task pulse_sret $end
$upscope $end
$scope task pulse_trap $end
$var reg 32 j c [31:0] $end
$var reg 32 k epc [31:0] $end
$upscope $end
$scope task wr $end
$var reg 12 l a [11:0] $end
$var reg 32 m d [31:0] $end
$upscope $end
$upscope $end
$enddefinitions $end
$comment Show the parameter values. $end
$dumpall
$end
#0
$dumpvars
bx m
bx l
bx k
bx j
bx i
bx h
bx g
b0 f
b0 e
b0 d
0c
0b
0a
b0 `
b0 _
b0 ^
b0 ]
b11 \
b0 [
b0 Z
b0 Y
b0 X
0W
b0 V
b0 U
0T
b0 S
b0 R
b0 Q
b0 P
b0 O
0N
b10000000000000000000000000000000 M
0L
0K
b0 J
b0 I
b0 H
b0 G
b0 F
b0 E
b0 D
b0 C
0B
b0 A
b0 @
b0 ?
b0 >
0=
b11 <
b0 ;
z:
z9
b0x000x000x000 8
z7
06
b100010001000 5
b0x000x000x000 4
b0 3
b0 2
01
b0 0
b0 /
b0 .
0-
b0 ,
0+
0*
0)
0(
0'
b0 &
0%
b11 $
b0 #
b0 "
b0 !
$end
#5000
1'
#10000
0'
#15000
1'
#20000
b1000000000000 m
b1100000101 l
b11 g
b11 h
b1 i
1*
0'
#25000
1'
#30000
1%
11
b1000000000000 0
b1000000000000 F
b1100000101 &
b1100000101 3
0'
#35000
b1000000000000 !
b1000000000000 G
b1000000000000 #
b1000000000000 ]
b1000000000000 [
1'
#40000
b10000000000000 m
b100000101 l
01
0'
#45000
1'
#50000
b0 #
b0 ]
11
b10000000000000 0
b10000000000000 F
b100000101 &
b100000101 3
0'
#55000
b10000000000000 #
b10000000000000 ]
b10000000000000 f
1'
#60000
b1100000000 m
b1100000010 l
01
0'
#65000
1'
#70000
b0 #
b0 ]
11
b1100000000 0
b1100000000 F
b1100000010 &
b1100000010 3
0'
#75000
b1100000000 #
b1100000000 ]
b1100000000 Q
1'
#80000
b0 m
b1100000000 l
01
0'
#85000
1'
#90000
b0 #
b0 ]
11
b0 0
b0 F
b1100000000 &
b1100000000 3
0'
#95000
1'
#100000
01
0'
#105000
1'
#110000
1(
0'
#115000
16
1=
b10000000 #
b10000000 ]
b0 $
b0 <
b0 \
b10000000 J
1W
1'
#120000
b10000000 k
b1000 j
b0 g
b0 h
b10 i
0(
0'
#125000
1'
#130000
b10000000000000 !
b10000000000000 G
1B
1N
b10000000 .
b10000000 D
b1000 ,
b1000 C
1-
0'
#135000
0=
b1 $
b1 <
b1 \
b1000 _
b10000000 `
1'
#140000
b10000000000000 g
b10000000000000 h
b100 i
0-
0'
#145000
1'
#150000
b1000 #
b1000 ]
1)
b101000010 &
b101000010 3
0'
#151000
0)
b1000 g
b1000 h
b101 i
#155000
1'
#160000
b10000000 #
b10000000 ]
1)
b101000001 &
b101000001 3
0'
#161000
0)
b10000000 g
b10000000 h
b110 i
#165000
1'
#170000
b10000000 "
b10000000 I
1+
0'
#175000
1=
b0 $
b0 <
b0 \
b10100000 J
b100000 H
1b
1'
#180000
b0 "
b0 I
b11000000 k
b10 j
b0 g
b0 h
b111 i
0+
0'
#185000
1'
#190000
b1000000000000 !
b1000000000000 G
0B
0N
b11000000 .
b11000000 D
b10 ,
b10 C
1-
0'
#195000
06
0=
b11000000 "
b11000000 I
b11 $
b11 <
b11 \
b100000 J
0W
b10 P
b11000000 R
1'
#200000
b11 g
b11 h
b1000 i
0-
0'
#205000
1'
#210000
b10 #
b10 ]
1)
b1101000010 &
b1101000010 3
0'
#211000
0)
b10 g
b10 h
b1001 i
#215000
1'
#220000
b1000000000000 #
b1000000000000 ]
1)
b1100000101 &
b1100000101 3
0'
#221000
0)
#225000
1'
#230000
b100000 #
b100000 ]
11
b1100000000 &
b1100000000 3
0'
#235000
b0 #
b0 ]
b0 J
b0 H
0b
1'
#240000
01
0'
#245000
1'
#250000
1(
0'
#255000
16
1=
b10000000 #
b10000000 ]
b0 $
b0 <
b0 \
b10000000 J
1W
1'
#260000
0(
0'
#265000
1'
#270000
0%
b1000000000000 #
b1000000000000 ]
1)
b1100000101 &
b1100000101 3
0'
#271000
1%
0)
