waveform/tb_soc.vcd
$date
	Sun Jun 14 15:46:49 2026
$end
$version
	Icarus Verilog
$end
$timescale
	1ps
$end
$scope module tb_soc $end
$var wire 2 ! bresp [1:0] $end
$var wire 2 " rresp [1:0] $end
$var wire 1 # wready $end
$var wire 1 $ rvalid $end
$var wire 32 % rdata [31:0] $end
$var wire 1 & bvalid $end
$var wire 1 ' awready $end
$var wire 1 ( arready $end
$var parameter 32 ) ADDR_WIDTH $end
$var reg 12 * araddr [11:0] $end
$var reg 1 + arvalid $end
$var reg 12 , awaddr [11:0] $end
$var reg 1 - awvalid $end
$var reg 1 . bready $end
$var reg 1 / clk $end
$var reg 1 0 cpu_resetn $end
$var reg 32 1 rd [31:0] $end
$var reg 1 2 rready $end
$var reg 1 3 rst_n $end
$var reg 32 4 wdata [31:0] $end
$var reg 4 5 wstrb [3:0] $end
$var reg 1 6 wvalid $end
$var integer 32 7 errors [31:0] $end
$var integer 32 8 i [31:0] $end
$scope module dut $end
$var wire 1 / clk $end
$var wire 1 9 core_rst_n $end
$var wire 1 0 cpu_resetn $end
$var wire 1 3 rst_n $end
$var wire 12 : s_axi_araddr [11:0] $end
$var wire 3 ; s_axi_arprot [2:0] $end
$var wire 1 + s_axi_arvalid $end
$var wire 12 < s_axi_awaddr [11:0] $end
$var wire 3 = s_axi_awprot [2:0] $end
$var wire 1 - s_axi_awvalid $end
$var wire 1 . s_axi_bready $end
$var wire 2 > s_axi_bresp [1:0] $end
$var wire 1 2 s_axi_rready $end
$var wire 2 ? s_axi_rresp [1:0] $end
$var wire 32 @ s_axi_wdata [31:0] $end
$var wire 4 A s_axi_wstrb [3:0] $end
$var wire 1 6 s_axi_wvalid $end
$var wire 1 # s_axi_wready $end
$var wire 1 $ s_axi_rvalid $end
$var wire 32 B s_axi_rdata [31:0] $end
$var wire 1 & s_axi_bvalid $end
$var wire 1 ' s_axi_awready $end
$var wire 1 ( s_axi_arready $end
$var wire 32 C imem_rdata [31:0] $end
$var wire 32 D imem_addr [31:0] $end
$var wire 4 E dmem_wstrb [3:0] $end
$var wire 1 F dmem_we $end
$var wire 32 G dmem_wdata [31:0] $end
$var wire 32 H dmem_rdata [31:0] $end
$var wire 32 I dmem_addr [31:0] $end
$var parameter 32 J ADDR_WIDTH $end
$scope module u_core $end
$var wire 1 K back_pressure $end
$var wire 1 L clint_sel $end
$var wire 1 / clk $end
$var wire 1 M csr_illegal $end
$var wire 1 N csr_wr $end
$var wire 1 O ex_branch_taken $end
$var wire 1 P ex_dfault $end
$var wire 1 Q ex_ifault $end
$var wire 32 R ex_jalr_target [31:0] $end
$var wire 1 S ex_mem_op $end
$var wire 1 T ex_mret $end
$var wire 1 U ex_pagefault $end
$var wire 1 V ex_redirect $end
$var wire 1 W ex_satp_wr $end
$var wire 1 X ex_sfence $end
$var wire 1 Y ex_sret $end
$var wire 1 Z ex_start $end
$var wire 1 [ ex_take_pc $end
$var wire 1 \ ex_trap $end
$var wire 1 ] ex_trap_sync $end
$var wire 1 ^ ex_wants $end
$var wire 32 _ if_instr [31:0] $end
$var wire 1 ` if_need_xlate $end
$var wire 1 a if_start $end
$var wire 1 b if_wants $end
$var wire 1 c if_xlate_pending $end
$var wire 1 d instr_misalign $end
$var wire 1 e is_store_acc $end
$var wire 1 f load_misalign $end
$var wire 1 g mem_access $end
$var wire 32 h mem_addr_ex [31:0] $end
$var wire 1 i mem_data_acc $end
$var wire 1 j mmu_active $end
$var wire 1 k mmu_flush $end
$var wire 1 l mmu_stall $end
$var wire 1 m mmu_walking $end
$var wire 1 n mret_ok $end
$var wire 1 o mul_stall $end
$var wire 1 p need_xlate $end
$var wire 1 9 rst_n $end
$var wire 1 q sc_ok $end
$var wire 1 r serving_ex $end
$var wire 1 s sret_ok $end
$var wire 1 t stall_front $end
$var wire 1 u store_misalign $end
$var wire 1 v take_int $end
$var wire 1 w w_busy $end
$var wire 1 x walker_bus $end
$var wire 1 y wb2id_rs1 $end
$var wire 1 z wb2id_rs2 $end
$var wire 1 { xret_illegal $end
$var wire 32 | wb_data [31:0] $end
$var wire 1 } sz_misalign $end
$var wire 32 ~ sync_cause [31:0] $end
$var wire 32 !" pc_plus4 [31:0] $end
$var wire 32 "" next_pc [31:0] $end
$var wire 32 #" mul_result [31:0] $end
$var wire 1 $" mul_done $end
$var wire 1 %" mul_busy $end
$var wire 32 &" mmu_paddr [31:0] $end
$var wire 1 '" mmu_mem_req $end
$var wire 32 (" mmu_mem_addr [31:0] $end
$var wire 4 )" mmu_fault_cause [3:0] $end
$var wire 1 *" mmu_fault $end
$var wire 1 +" mmu_done $end
$var wire 2 ," mmu_acc [1:0] $end
$var wire 1 -" memwb_reg_write $end
$var wire 5 ." memwb_rd [4:0] $end
$var wire 2 /" mem_off [1:0] $end
$var wire 16 0" mem_ld_half [15:0] $end
$var wire 8 1" mem_ld_byte [7:0] $end
$var wire 1 2" load_use_stall $end
$var wire 1 3" irq_pending $end
$var wire 32 4" irq_cause [31:0] $end
$var wire 32 5" imem_rdata [31:0] $end
$var wire 32 6" imem_addr [31:0] $end
$var wire 2 7" id_wb_sel [1:0] $end
$var wire 1 8" id_sys_sret $end
$var wire 1 9" id_sys_mret $end
$var wire 1 :" id_sys_ecall $end
$var wire 1 ;" id_sys_ebreak $end
$var wire 32 <" id_rs2_fwd [31:0] $end
$var wire 32 =" id_rs2_data [31:0] $end
$var wire 5 >" id_rs2 [4:0] $end
$var wire 32 ?" id_rs1_fwd [31:0] $end
$var wire 32 @" id_rs1_data [31:0] $end
$var wire 5 A" id_rs1 [4:0] $end
$var wire 1 B" id_reg_write $end
$var wire 5 C" id_rd [4:0] $end
$var wire 7 D" id_opcode [6:0] $end
$var wire 1 E" id_mem_write $end
$var wire 1 F" id_mem_read $end
$var wire 1 G" id_jump $end
$var wire 1 H" id_jalr $end
$var wire 1 I" id_is_sc $end
$var wire 1 J" id_is_muldiv $end
$var wire 1 K" id_is_lr $end
$var wire 1 L" id_is_csr $end
$var wire 1 M" id_is_amo $end
$var wire 3 N" id_imm_sel [2:0] $end
$var wire 32 O" id_imm [31:0] $end
$var wire 1 P" id_illegal $end
$var wire 1 Q" id_funct7b5 $end
$var wire 1 R" id_funct7b0 $end
$var wire 3 S" id_funct3 [2:0] $end
$var wire 1 T" id_branch $end
$var wire 5 U" id_amo_op [4:0] $end
$var wire 4 V" id_alu_op [3:0] $end
$var wire 1 W" id_alu_b_src $end
$var wire 1 X" id_alu_a_src $end
$var wire 2 Y" forward_b [1:0] $end
$var wire 2 Z" forward_a [1:0] $end
$var wire 1 [" fetch_consumed $end
$var wire 32 \" exmem_fwd_val [31:0] $end
$var wire 32 ]" ex_trap_val [31:0] $end
$var wire 32 ^" ex_trap_cause [31:0] $end
$var wire 32 _" ex_target [31:0] $end
$var wire 32 `" ex_result [31:0] $end
$var wire 32 a" ex_redirect_pc [31:0] $end
$var wire 32 b" ex_pc_target [31:0] $end
$var wire 32 c" ex_mem_addr [31:0] $end
$var wire 1 d" ex_alu_zero $end
$var wire 32 e" ex_alu_result [31:0] $end
$var wire 32 f" ex_alu_b [31:0] $end
$var wire 32 g" ex_alu_a [31:0] $end
$var wire 4 h" dmem_wstrb [3:0] $end
$var wire 1 F dmem_we $end
$var wire 32 i" dmem_wdata [31:0] $end
$var wire 32 j" dmem_rdata [31:0] $end
$var wire 32 k" dmem_addr [31:0] $end
$var wire 32 l" csr_wval [31:0] $end
$var wire 32 m" csr_trap_vec [31:0] $end
$var wire 32 n" csr_src [31:0] $end
$var wire 32 o" csr_satp [31:0] $end
$var wire 32 p" csr_ret_pc [31:0] $end
$var wire 32 q" csr_rdata [31:0] $end
$var wire 2 r" csr_priv [1:0] $end
$var wire 2 s" csr_op [1:0] $end
$var wire 1 t" csr_addr_valid $end
$var wire 32 u" clint_rdata [31:0] $end
$var wire 1 v" clint_mtip $end
$var wire 1 w" clint_msip $end
$var wire 32 x" amo_wval [31:0] $end
$var parameter 2 y" F_IDLE $end
$var parameter 2 z" F_RDY $end
$var parameter 2 {" F_WALK $end
$var parameter 32 |" RESET_PC $end
$var parameter 2 }" X_IDLE $end
$var parameter 2 ~" X_RDY $end
$var parameter 2 !# X_WALK $end
$var reg 1 "# ex_branch_cond $end
$var reg 32 ## ex_rs1_fwd [31:0] $end
$var reg 32 $# ex_rs2_fwd [31:0] $end
$var reg 32 %# exmem_alu_result [31:0] $end
$var reg 5 &# exmem_amo_op [4:0] $end
$var reg 3 '# exmem_funct3 [2:0] $end
$var reg 32 (# exmem_instr [31:0] $end
$var reg 1 )# exmem_is_amo $end
$var reg 1 *# exmem_is_lr $end
$var reg 1 +# exmem_is_sc $end
$var reg 1 ,# exmem_mem_read $end
$var reg 1 -# exmem_mem_write $end
$var reg 32 .# exmem_pc4 [31:0] $end
$var reg 5 /# exmem_rd [4:0] $end
$var reg 1 0# exmem_reg_write $end
$var reg 32 1# exmem_rs2_data [31:0] $end
$var reg 1 2# exmem_valid $end
$var reg 2 3# exmem_wb_sel [1:0] $end
$var reg 1 4# ffault $end
$var reg 32 5# fpaddr [31:0] $end
$var reg 2 6# fstate [1:0] $end
$var reg 1 7# idex_alu_a_src $end
$var reg 1 8# idex_alu_b_src $end
$var reg 4 9# idex_alu_op [3:0] $end
$var reg 5 :# idex_amo_op [4:0] $end
$var reg 1 ;# idex_branch $end
$var reg 12 <# idex_csr_addr [11:0] $end
$var reg 1 =# idex_fault $end
$var reg 3 ># idex_funct3 [2:0] $end
$var reg 1 ?# idex_illegal $end
$var reg 32 @# idex_imm [31:0] $end
$var reg 32 A# idex_instr [31:0] $end
$var reg 1 B# idex_is_amo $end
$var reg 1 C# idex_is_csr $end
$var reg 1 D# idex_is_lr $end
$var reg 1 E# idex_is_muldiv $end
$var reg 1 F# idex_is_sc $end
$var reg 1 G# idex_jalr $end
$var reg 1 H# idex_jump $end
$var reg 1 I# idex_mem_read $end
$var reg 1 J# idex_mem_write $end
$var reg 32 K# idex_pc [31:0] $end
$var reg 32 L# idex_pc4 [31:0] $end
$var reg 5 M# idex_rd [4:0] $end
$var reg 1 N# idex_reg_write $end
$var reg 5 O# idex_rs1 [4:0] $end
$var reg 32 P# idex_rs1_data [31:0] $end
$var reg 5 Q# idex_rs2 [4:0] $end
$var reg 32 R# idex_rs2_data [31:0] $end
$var reg 1 S# idex_sys_ebreak $end
$var reg 1 T# idex_sys_ecall $end
$var reg 1 U# idex_sys_mret $end
$var reg 1 V# idex_sys_sret $end
$var reg 1 W# idex_valid $end
$var reg 2 X# idex_wb_sel [1:0] $end
$var reg 1 Y# ifid_fault $end
$var reg 32 Z# ifid_instr [31:0] $end
$var reg 32 [# ifid_pc [31:0] $end
$var reg 32 \# ifid_pc4 [31:0] $end
$var reg 1 ]# ifid_valid $end
$var reg 32 ^# mem_load_data [31:0] $end
$var reg 32 _# mem_store_data [31:0] $end
$var reg 4 `# mem_store_strb [3:0] $end
$var reg 32 a# memwb_alu_result [31:0] $end
$var reg 32 b# memwb_instr [31:0] $end
$var reg 32 c# memwb_load_data [31:0] $end
$var reg 32 d# memwb_pc4 [31:0] $end
$var reg 5 e# memwb_rd_r [4:0] $end
$var reg 1 -" memwb_reg_write_r $end
$var reg 1 f# memwb_valid $end
$var reg 2 g# memwb_wb_sel [1:0] $end
$var reg 32 h# pc [31:0] $end
$var reg 32 i# resv_addr [31:0] $end
$var reg 1 j# resv_valid $end
$var reg 32 k# wb_mux [31:0] $end
$var reg 4 l# xcause [3:0] $end
$var reg 1 m# xfault $end
$var reg 32 n# xpaddr [31:0] $end
$var reg 2 o# xstate [1:0] $end
$scope module u_alu $end
$var wire 32 p# a [31:0] $end
$var wire 4 q# alu_op [3:0] $end
$var wire 32 r# b [31:0] $end
$var wire 1 d" zero $end
$var wire 5 s# shamt [4:0] $end
$var reg 32 t# result [31:0] $end
$upscope $end
$scope module u_amo $end
$var wire 5 u# amo_op [4:0] $end
$var wire 32 v# rs2_val [31:0] $end
$var wire 32 w# s_mem [31:0] $end
$var wire 32 x# s_rs2 [31:0] $end
$var wire 32 y# mem_val [31:0] $end
$var reg 32 z# result [31:0] $end
$upscope $end
$scope module u_clint $end
$var wire 1 / clk $end
$var wire 16 {# off [15:0] $end
$var wire 1 9 rst_n $end
$var wire 1 L sel $end
$var wire 32 |# wdata [31:0] $end
$var wire 1 }# we $end
$var wire 1 v" mtip $end
$var wire 1 w" msip $end
$var reg 1 w" msip_r $end
$var reg 64 ~# mtime [63:0] $end
$var reg 64 !$ mtimecmp [63:0] $end
$var reg 32 "$ rdata [31:0] $end
$upscope $end
$scope module u_csr $end
$var wire 12 #$ addr [11:0] $end
$var wire 1 / clk $end
$var wire 32 $$ hw_bits [31:0] $end
$var wire 32 %$ hw_mask [31:0] $end
$var wire 1 &$ m_en $end
$var wire 1 '$ meip_i $end
$var wire 32 ($ mip_eff [31:0] $end
$var wire 1 T mret_en $end
$var wire 1 w" msip_i $end
$var wire 1 v" mtip_i $end
$var wire 32 )$ pend [31:0] $end
$var wire 2 *$ priv_o [1:0] $end
$var wire 1 C# rd_en $end
$var wire 1 9 rst_n $end
$var wire 1 +$ s_en $end
$var wire 32 ,$ satp_o [31:0] $end
$var wire 32 -$ sie_v [31:0] $end
$var wire 32 .$ sip_v [31:0] $end
$var wire 1 Y sret_en $end
$var wire 32 /$ take [31:0] $end
$var wire 1 0$ to_s $end
$var wire 32 1$ trap_cause [31:0] $end
$var wire 1 \ trap_en $end
$var wire 32 2$ trap_epc [31:0] $end
$var wire 32 3$ trap_val [31:0] $end
$var wire 32 4$ wdata [31:0] $end
$var wire 1 5$ wr_en $end
$var wire 32 6$ trap_vec_o [31:0] $end
$var wire 32 7$ sstatus [31:0] $end
$var wire 32 8$ ret_pc_o [31:0] $end
$var wire 32 9$ mstatus [31:0] $end
$var wire 1 :$ is_int $end
$var wire 1 3" irq_pending $end
$var wire 32 ;$ irq_cause [31:0] $end
$var wire 1 <$ deleg $end
$var reg 1 t" addr_valid $end
$var reg 5 =$ icode [4:0] $end
$var reg 32 >$ mcause [31:0] $end
$var reg 32 ?$ medeleg [31:0] $end
$var reg 32 @$ mepc [31:0] $end
$var reg 32 A$ mideleg [31:0] $end
$var reg 1 B$ mie $end
$var reg 32 C$ mie_r [31:0] $end
$var reg 32 D$ mip_r [31:0] $end
$var reg 1 E$ mpie $end
$var reg 2 F$ mpp [1:0] $end
$var reg 32 G$ mscratch [31:0] $end
$var reg 32 H$ mtval [31:0] $end
$var reg 32 I$ mtvec [31:0] $end
$var reg 2 J$ priv [1:0] $end
$var reg 32 K$ rdata [31:0] $end
$var reg 32 L$ satp [31:0] $end
$var reg 32 M$ scause [31:0] $end
$var reg 32 N$ sepc [31:0] $end
$var reg 1 O$ sie $end
$var reg 1 P$ spie $end
$var reg 1 Q$ spp $end
$var reg 32 R$ sscratch [31:0] $end
$var reg 32 S$ stval [31:0] $end
$var reg 32 T$ stvec [31:0] $end
$upscope $end
$scope module u_ctrl $end
$var wire 12 U$ funct12 [11:0] $end
$var wire 3 V$ funct3 [2:0] $end
$var wire 5 W$ funct5 [4:0] $end
$var wire 1 R" funct7b0 $end
$var wire 1 Q" funct7b5 $end
$var wire 7 X$ opcode [6:0] $end
$var reg 1 X" alu_a_src $end
$var reg 4 Y$ alu_arith [3:0] $end
$var reg 1 W" alu_b_src $end
$var reg 4 Z$ alu_op [3:0] $end
$var reg 5 [$ amo_op [4:0] $end
$var reg 1 T" branch $end
$var reg 1 P" illegal $end
$var reg 3 \$ imm_sel [2:0] $end
$var reg 1 M" is_amo $end
$var reg 1 L" is_csr $end
$var reg 1 K" is_lr $end
$var reg 1 J" is_muldiv $end
$var reg 1 I" is_sc $end
$var reg 1 H" jalr $end
$var reg 1 G" jump $end
$var reg 1 F" mem_read $end
$var reg 1 E" mem_write $end
$var reg 1 B" reg_write $end
$var reg 1 ;" sys_ebreak $end
$var reg 1 :" sys_ecall $end
$var reg 1 9" sys_mret $end
$var reg 1 8" sys_sret $end
$var reg 2 ]$ wb_sel [1:0] $end
$upscope $end
$scope module u_fwd $end
$var wire 5 ^$ exmem_rd [4:0] $end
$var wire 1 0# exmem_reg_write $end
$var wire 5 _$ idex_rs1 [4:0] $end
$var wire 5 `$ idex_rs2 [4:0] $end
$var wire 5 a$ memwb_rd [4:0] $end
$var wire 1 -" memwb_reg_write $end
$var reg 2 b$ forward_a [1:0] $end
$var reg 2 c$ forward_b [1:0] $end
$upscope $end
$scope module u_hazard $end
$var wire 1 I# idex_mem_read $end
$var wire 5 d$ idex_rd [4:0] $end
$var wire 5 e$ ifid_rs1 [4:0] $end
$var wire 5 f$ ifid_rs2 [4:0] $end
$var wire 1 2" stall $end
$upscope $end
$scope module u_imm $end
$var wire 3 g$ imm_sel [2:0] $end
$var wire 32 h$ instr [31:0] $end
$var reg 32 i$ imm [31:0] $end
$upscope $end
$scope module u_mmu $end
$var wire 2 j$ access [1:0] $end
$var wire 1 / clk $end
$var wire 1 k flush $end
$var wire 1 k$ l0_invalid $end
$var wire 1 l$ l1_invalid $end
$var wire 1 m$ l1_leaf $end
$var wire 1 n$ mem_ack $end
$var wire 1 o$ mxr $end
$var wire 2 p$ priv [1:0] $end
$var wire 1 q$ req $end
$var wire 1 9 rst_n $end
$var wire 32 r$ satp [31:0] $end
$var wire 1 s$ sum $end
$var wire 32 t$ vaddr [31:0] $end
$var wire 32 u$ mem_rdata [31:0] $end
$var wire 32 v$ hit_paddr [31:0] $end
$var parameter 2 w$ S_DONE $end
$var parameter 2 x$ S_IDLE $end
$var parameter 2 y$ S_L0 $end
$var parameter 2 z$ S_L1 $end
$var parameter 32 {$ TLBN $end
$var reg 2 |$ access_q [1:0] $end
$var reg 1 +" done $end
$var reg 1 *" fault $end
$var reg 4 }$ fault_cause [3:0] $end
$var reg 3 ~$ hidx [2:0] $end
$var reg 1 !% hit $end
$var reg 32 "% hit_pte [31:0] $end
$var reg 1 #% hit_sup $end
$var reg 32 $% leaf_pte [31:0] $end
$var reg 32 %% mem_addr [31:0] $end
$var reg 1 '" mem_req $end
$var reg 32 &% paddr [31:0] $end
$var reg 3 '% rr [2:0] $end
$var reg 2 (% state [1:0] $end
$var reg 32 )% vaddr_q [31:0] $end
$var integer 32 *% i [31:0] $end
$scope function bad_leaf $end
$var reg 1 +% a $end
$var reg 2 ,% acc [1:0] $end
$var reg 1 -% d $end
$var reg 1 .% ok $end
$var reg 32 /% p [31:0] $end
$var reg 1 0% r $end
$var reg 1 1% u $end
$var reg 1 2% w $end
$var reg 1 3% x $end
$upscope $end
$scope function pf_cause $end
$var reg 2 4% acc [1:0] $end
$upscope $end
$upscope $end
$scope module u_muldiv $end
$var wire 32 5% a [31:0] $end
$var wire 32 6% b [31:0] $end
$var wire 1 / clk $end
$var wire 1 7% ge $end
$var wire 1 8% is_mul $end
$var wire 1 9% na $end
$var wire 1 :% nb $end
$var wire 3 ;% op [2:0] $end
$var wire 1 <% overflow $end
$var wire 1 9 rst_n $end
$var wire 1 =% signed_div $end
$var wire 1 E# start $end
$var wire 32 >% rem_hi [31:0] $end
$var wire 64 ?% p_uu [63:0] $end
$var wire 64 @% p_su [63:0] $end
$var wire 64 A% p_ss [63:0] $end
$var wire 1 $" done $end
$var wire 1 B% div_zero $end
$var wire 33 C% diff [32:0] $end
$var wire 1 %" busy $end
$var wire 64 D% bu [63:0] $end
$var wire 64 E% bs [63:0] $end
$var wire 64 F% au [63:0] $end
$var wire 64 G% as [63:0] $end
$var wire 64 H% acc_sh [63:0] $end
$var wire 64 I% acc_nx [63:0] $end
$var wire 32 J% abs_b [31:0] $end
$var wire 32 K% abs_a [31:0] $end
$var parameter 2 L% CALC $end
$var parameter 2 M% FIN $end
$var parameter 2 N% IDLE $end
$var reg 64 O% acc [63:0] $end
$var reg 6 P% cnt [5:0] $end
$var reg 32 Q% divisor_q [31:0] $end
$var reg 32 R% mul_res [31:0] $end
$var reg 1 S% neg_q $end
$var reg 1 T% neg_r $end
$var reg 3 U% op_q [2:0] $end
$var reg 32 V% result [31:0] $end
$var reg 2 W% state [1:0] $end
$upscope $end
$scope module u_rf $end
$var wire 1 / clk $end
$var wire 5 X% rd_addr [4:0] $end
$var wire 32 Y% rd_data [31:0] $end
$var wire 5 Z% rs1_addr [4:0] $end
$var wire 5 [% rs2_addr [4:0] $end
$var wire 1 -" we $end
$var wire 32 \% rs2_data [31:0] $end
$var wire 32 ]% rs1_data [31:0] $end
$var integer 32 ^% i [31:0] $end
$upscope $end
$upscope $end
$scope module u_mem $end
$var wire 1 / clk $end
$var wire 32 _% dmem_addr [31:0] $end
$var wire 32 `% dmem_rdata [31:0] $end
$var wire 32 a% dmem_wdata [31:0] $end
$var wire 1 F dmem_we $end
$var wire 4 b% dmem_wstrb [3:0] $end
$var wire 32 c% imem_addr [31:0] $end
$var wire 32 d% imem_rdata [31:0] $end
$var wire 1 e% rd_accept $end
$var wire 1 3 rst_n $end
$var wire 12 f% s_axi_araddr [11:0] $end
$var wire 3 g% s_axi_arprot [2:0] $end
$var wire 1 ( s_axi_arready $end
$var wire 1 + s_axi_arvalid $end
$var wire 12 h% s_axi_awaddr [11:0] $end
$var wire 3 i% s_axi_awprot [2:0] $end
$var wire 1 ' s_axi_awready $end
$var wire 1 - s_axi_awvalid $end
$var wire 1 . s_axi_bready $end
$var wire 2 j% s_axi_bresp [1:0] $end
$var wire 1 & s_axi_bvalid $end
$var wire 32 k% s_axi_rdata [31:0] $end
$var wire 1 2 s_axi_rready $end
$var wire 2 l% s_axi_rresp [1:0] $end
$var wire 1 $ s_axi_rvalid $end
$var wire 32 m% s_axi_wdata [31:0] $end
$var wire 1 # s_axi_wready $end
$var wire 4 n% s_axi_wstrb [3:0] $end
$var wire 1 6 s_axi_wvalid $end
$var wire 1 o% wr_accept $end
$var wire 10 p% imem_idx [9:0] $end
$var wire 10 q% dmem_idx [9:0] $end
$var wire 10 r% axi_waddr_idx [9:0] $end
$var parameter 32 s% ADDR_WIDTH $end
$var parameter 32 t% IDX_HI $end
$var parameter 32 u% WORDS $end
$var reg 1 v% arready_r $end
$var reg 1 w% awready_r $end
$var reg 1 x% bvalid_r $end
$var reg 32 y% rdata_r [31:0] $end
$var reg 1 z% rvalid_r $end
$var reg 1 {% wready_r $end
$upscope $end
$upscope $end
$scope task axi_read $end
$var reg 12 |% addr [11:0] $end
$var reg 32 }% data [31:0] $end
$upscope $end
$scope task axi_write $end
$var reg 12 ~% addr [11:0] $end
$var reg 32 !& data [31:0] $end
$var reg 4 "& strb [3:0] $end
$upscope $end
$upscope $end
$enddefinitions $end
$comment Show the parameter values. $end
$dumpall
b10000000000 u%
b1011 t%
b1100 s%
b0 N%
b10 M%
b1 L%
b1000 {$
b1 z$
b10 y$
b0 x$
b11 w$
b1 !#
b10 ~"
b0 }"
b0 |"
b1 {"
b10 z"
b0 y"
b1100 J
b1100 )
$end
#0
$dumpvars
bx "&
bx !&
bx ~%
bx }%
bx |%
0{%
0z%
b0 y%
0x%
0w%
0v%
b0 r%
b0 q%
b0 p%
0o%
b0 n%
b0 m%
b0 l%
b0 k%
b0 j%
b0 i%
b0 h%
b0 g%
b0 f%
0e%
bx d%
b0 c%
b0 b%
b0 a%
bx `%
b0 _%
b100000 ^%
b0 ]%
b0 \%
b0 [%
b0 Z%
b0 Y%
b0 X%
b0 W%
b0 V%
b0 U%
0T%
0S%
b0 R%
b0 Q%
b0 P%
b0 O%
b0 K%
b0 J%
b1 I%
b0 H%
b0 G%
b0 F%
b0 E%
b0 D%
b0 C%
1B%
b0 A%
b0 @%
b0 ?%
b0 >%
0=%
0<%
b0 ;%
0:%
09%
18%
17%
b0 6%
b0 5%
bx 4%
x3%
x2%
x1%
x0%
bx /%
x.%
x-%
bx ,%
x+%
b1000 *%
bx )%
b0 (%
b0 '%
b0 &%
bx %%
bx $%
0#%
b0 "%
0!%
b0 ~$
b0 }$
bx |$
b0 v$
bx u$
b0 t$
0s$
b0 r$
0q$
b11 p$
0o$
0n$
xm$
xl$
xk$
b0 j$
b0 i$
b10011 h$
b0 g$
b0 f$
b0 e$
b0 d$
b0 c$
b0 b$
b0 a$
b0 `$
b0 _$
b0 ^$
b0 ]$
b0 \$
b0 [$
b0 Z$
b0 Y$
b10011 X$
b0 W$
b0 V$
b0 U$
b0 T$
b0 S$
b0 R$
0Q$
0P$
0O$
b0 N$
b0 M$
b0 L$
b0 K$
b11 J$
b0 I$
b0 H$
b0 G$
b0 F$
0E$
b0 D$
b0 C$
0B$
b0 A$
b0 @$
b0 ?$
b0 >$
b0 =$
0<$
b10000000000000000000000000000000 ;$
0:$
b0 9$
b0 8$
b0 7$
b0 6$
05$
b0 4$
b0 3$
b0 2$
b10 1$
00$
b0 /$
b0 .$
b0 -$
b0 ,$
0+$
b11 *$
b0 )$
b0 ($
0'$
0&$
b100010001000 %$
b0 $$
b0 #$
b0 "$
b1111111111111111111111111111111111111111111111111111111111111111 !$
b0 ~#
0}#
b0 |#
b0 {#
bx z#
bx y#
b0 x#
bx w#
b0 v#
b0 u#
b0 t#
b0 s#
b0 r#
b0 q#
b0 p#
b0 o#
bx n#
xm#
bx l#
b0 k#
0j#
bx i#
b0 h#
b0 g#
0f#
b0 e#
b0 d#
b0 c#
b10011 b#
b0 a#
b1 `#
b0 _#
bx ^#
0]#
b0 \#
b0 [#
b10011 Z#
0Y#
b0 X#
0W#
0V#
0U#
0T#
0S#
b0 R#
b0 Q#
b0 P#
b0 O#
0N#
b0 M#
b0 L#
b0 K#
0J#
0I#
0H#
0G#
0F#
0E#
0D#
0C#
0B#
b10011 A#
b0 @#
0?#
b0 >#
x=#
b0 <#
0;#
b0 :#
b0 9#
08#
07#
b0 6#
b0 5#
04#
b0 3#
02#
b0 1#
00#
b0 /#
b0 .#
0-#
0,#
0+#
0*#
0)#
b10011 (#
b0 '#
b0 &#
b0 %#
b0 $#
b0 ##
1"#
bx x"
0w"
0v"
b0 u"
0t"
b0 s"
b11 r"
b0 q"
b0 p"
b0 o"
b0 n"
b0 m"
b0 l"
b0 k"
bx j"
b0 i"
b0 h"
b0 g"
b0 f"
b0 e"
1d"
b0 c"
b0 b"
b0 a"
b0 `"
b0 _"
b10 ^"
b0 ]"
b0 \"
1["
b0 Z"
b0 Y"
0X"
1W"
b0 V"
b0 U"
0T"
b0 S"
0R"
0Q"
0P"
b0 O"
b0 N"
0M"
0L"
0K"
0J"
0I"
0H"
0G"
0F"
0E"
b10011 D"
b0 C"
1B"
b0 A"
b0 @"
b0 ?"
b0 >"
b0 ="
b0 <"
0;"
0:"
09"
08"
b0 7"
b0 6"
bx 5"
b10000000000000000000000000000000 4"
03"
02"
bx 1"
bx 0"
b0 /"
b0 ."
0-"
b1 ,"
0+"
0*"
b0 )"
bx ("
0'"
b0 &"
0%"
0$"
b0 #"
b100 ""
b100 !"
b10 ~
0}
b0 |
0{
0z
0y
0x
0w
0v
0u
0t
0s
0r
0q
0p
0o
0n
0m
0l
0k
0j
0i
b0 h
0g
0f
0e
0d
0c
0b
0a
0`
bx _
0^
0]
0\
0[
0Z
0Y
0X
0W
0V
0U
0T
0S
b0 R
0Q
0P
0O
0N
0M
0L
0K
b0 I
bx H
b0 G
0F
b0 E
b0 D
bx C
b0 B
b0 A
b0 @
b0 ?
b0 >
b0 =
b0 <
b0 ;
b0 :
09
b100000000 8
b0 7
06
b0 5
b0 4
03
02
bx 1
00
0/
0.
0-
b0 ,
0+
b0 *
0(
0'
0&
b0 %
0$
0#
b0 "
b0 !
$end
#5000
b1000 *%
1/
#10000
0/
#15000
b1000 *%
1/
#20000
13
0/
#25000
b1000 *%
1/
#30000
b1111 "&
b100000000000100010011 !&
b0 ~%
b0 8
0/
#35000
b1000 *%
1/
#40000
1o%
16
1-
b1111 5
b1111 A
b1111 n%
b100000000000100010011 4
b100000000000100010011 @
b100000000000100010011 m%
0/
#45000
0k$
0l$
0o%
1m$
b10011 ^#
b100000000000100010011 x"
b100000000000100010011 z#
1&
1x%
1#
1{%
1'
1w%
b100000000000100010011 _
b100000000000100010011 C
b100000000000100010011 5"
b100000000000100010011 d%
b100000000000100010011 w#
b100010011 0"
b10011 1"
b100000000000100010011 H
b100000000000100010011 j"
b100000000000100010011 y#
b100000000000100010011 u$
b100000000000100010011 `%
b1000 *%
1/
#50000
0/
#55000
0#
0{%
0'
0w%
b1000 *%
1/
#60000
1.
06
0-
0/
#65000
0&
0x%
b1000 *%
1/
#70000
b101100000000000110010011 !&
b100 ~%
b1 8
0.
0/
#75000
b1000 *%
1/
#80000
1o%
b1 r%
16
1-
b101100000000000110010011 4
b101100000000000110010011 @
b101100000000000110010011 m%
b100 ,
b100 <
b100 h%
0/
#85000
0o%
1&
1x%
1#
1{%
1'
1w%
b1000 *%
1/
#90000
0/
#95000
0#
0{%
0'
0w%
b1000 *%
1/
#100000
1.
06
0-
0/
#105000
0&
0x%
b1000 *%
1/
#110000
b10010011 !&
b1000 ~%
b10 8
0.
0/
#115000
b1000 *%
1/
#120000
1o%
b10 r%
16
1-
b10010011 4
b10010011 @
b10010011 m%
b1000 ,
b1000 <
b1000 h%
0/
#125000
0o%
1&
1x%
1#
1{%
1'
1w%
b1000 *%
1/
#130000
0/
#135000
0#
0{%
0'
0w%
b1000 *%
1/
#140000
1.
06
0-
0/
#145000
0&
0x%
b1000 *%
1/
#150000
b1000001000000010110011 !&
b1100 ~%
b11 8
0.
0/
#155000
b1000 *%
1/
#160000
1o%
b11 r%
16
1-
b1000001000000010110011 4
b1000001000000010110011 @
b1000001000000010110011 m%
b1100 ,
b1100 <
b1100 h%
0/
#165000
0o%
1&
1x%
1#
1{%
1'
1w%
b1000 *%
1/
#170000
0/
#175000
0#
0{%
0'
0w%
b1000 *%
1/
