waveform/tb_soc.vcd
$date
	Sat Jun 13 20:34:28 2026
$end
$version
	Icarus Verilog
$end
$timescale
	1ps
$end
$scope module tb_soc $end
$var wire 2 ! bresp [1:0] $end
$var wire 2 " rresp [1:0] $end
$var wire 1 # wready $end
$var wire 1 $ rvalid $end
$var wire 32 % rdata [31:0] $end
$var wire 1 & bvalid $end
$var wire 1 ' awready $end
$var wire 1 ( arready $end
$var parameter 32 ) ADDR_WIDTH $end
$var reg 12 * araddr [11:0] $end
$var reg 1 + arvalid $end
$var reg 12 , awaddr [11:0] $end
$var reg 1 - awvalid $end
$var reg 1 . bready $end
$var reg 1 / clk $end
$var reg 1 0 cpu_resetn $end
$var reg 32 1 rd [31:0] $end
$var reg 1 2 rready $end
$var reg 1 3 rst_n $end
$var reg 32 4 wdata [31:0] $end
$var reg 4 5 wstrb [3:0] $end
$var reg 1 6 wvalid $end
$var integer 32 7 errors [31:0] $end
$var integer 32 8 i [31:0] $end
$scope module dut $end
$var wire 1 / clk $end
$var wire 1 9 core_rst_n $end
$var wire 1 0 cpu_resetn $end
$var wire 1 3 rst_n $end
$var wire 12 : s_axi_araddr [11:0] $end
$var wire 3 ; s_axi_arprot [2:0] $end
$var wire 1 + s_axi_arvalid $end
$var wire 12 < s_axi_awaddr [11:0] $end
$var wire 3 = s_axi_awprot [2:0] $end
$var wire 1 - s_axi_awvalid $end
$var wire 1 . s_axi_bready $end
$var wire 2 > s_axi_bresp [1:0] $end
$var wire 1 2 s_axi_rready $end
$var wire 2 ? s_axi_rresp [1:0] $end
$var wire 32 @ s_axi_wdata [31:0] $end
$var wire 4 A s_axi_wstrb [3:0] $end
$var wire 1 6 s_axi_wvalid $end
$var wire 1 # s_axi_wready $end
$var wire 1 $ s_axi_rvalid $end
$var wire 32 B s_axi_rdata [31:0] $end
$var wire 1 & s_axi_bvalid $end
$var wire 1 ' s_axi_awready $end
$var wire 1 ( s_axi_arready $end
$var wire 32 C imem_rdata [31:0] $end
$var wire 32 D imem_addr [31:0] $end
$var wire 4 E dmem_wstrb [3:0] $end
$var wire 1 F dmem_we $end
$var wire 32 G dmem_wdata [31:0] $end
$var wire 32 H dmem_rdata [31:0] $end
$var wire 32 I dmem_addr [31:0] $end
$var parameter 32 J ADDR_WIDTH $end
$scope module u_core $end
$var wire 1 / clk $end
$var wire 1 K csr_illegal $end
$var wire 1 L csr_wr $end
$var wire 32 M dmem_addr [31:0] $end
$var wire 1 F dmem_we $end
$var wire 1 N ex_branch_taken $end
$var wire 32 O ex_jalr_target [31:0] $end
$var wire 1 P ex_mret $end
$var wire 1 Q ex_redirect $end
$var wire 1 R ex_sret $end
$var wire 1 S ex_take_pc $end
$var wire 1 T ex_trap $end
$var wire 32 U if_instr [31:0] $end
$var wire 32 V imem_addr [31:0] $end
$var wire 1 W instr_misalign $end
$var wire 1 X is_store_acc $end
$var wire 1 Y load_misalign $end
$var wire 1 Z mem_access $end
$var wire 32 [ mem_addr_ex [31:0] $end
$var wire 1 \ mret_ok $end
$var wire 1 ] mul_stall $end
$var wire 1 9 rst_n $end
$var wire 1 ^ sc_ok $end
$var wire 1 _ sret_ok $end
$var wire 1 ` stall_front $end
$var wire 1 a store_misalign $end
$var wire 1 b wb2id_rs1 $end
$var wire 1 c wb2id_rs2 $end
$var wire 1 d xret_illegal $end
$var wire 32 e wb_data [31:0] $end
$var wire 1 f sz_misalign $end
$var wire 32 g pc_plus4 [31:0] $end
$var wire 32 h next_pc [31:0] $end
$var wire 32 i mul_result [31:0] $end
$var wire 1 j mul_done $end
$var wire 1 k mul_busy $end
$var wire 1 l memwb_reg_write $end
$var wire 5 m memwb_rd [4:0] $end
$var wire 2 n mem_off [1:0] $end
$var wire 16 o mem_ld_half [15:0] $end
$var wire 8 p mem_ld_byte [7:0] $end
$var wire 1 q load_use_stall $end
$var wire 32 r imem_rdata [31:0] $end
$var wire 2 s id_wb_sel [1:0] $end
$var wire 1 t id_sys_sret $end
$var wire 1 u id_sys_mret $end
$var wire 1 v id_sys_ecall $end
$var wire 1 w id_sys_ebreak $end
$var wire 32 x id_rs2_fwd [31:0] $end
$var wire 32 y id_rs2_data [31:0] $end
$var wire 5 z id_rs2 [4:0] $end
$var wire 32 { id_rs1_fwd [31:0] $end
$var wire 32 | id_rs1_data [31:0] $end
$var wire 5 } id_rs1 [4:0] $end
$var wire 1 ~ id_reg_write $end
$var wire 5 !" id_rd [4:0] $end
$var wire 7 "" id_opcode [6:0] $end
$var wire 1 #" id_mem_write $end
$var wire 1 $" id_mem_read $end
$var wire 1 %" id_jump $end
$var wire 1 &" id_jalr $end
$var wire 1 '" id_is_sc $end
$var wire 1 (" id_is_muldiv $end
$var wire 1 )" id_is_lr $end
$var wire 1 *" id_is_csr $end
$var wire 1 +" id_is_amo $end
$var wire 3 ," id_imm_sel [2:0] $end
$var wire 32 -" id_imm [31:0] $end
$var wire 1 ." id_illegal $end
$var wire 1 /" id_funct7b5 $end
$var wire 1 0" id_funct7b0 $end
$var wire 3 1" id_funct3 [2:0] $end
$var wire 1 2" id_branch $end
$var wire 5 3" id_amo_op [4:0] $end
$var wire 4 4" id_alu_op [3:0] $end
$var wire 1 5" id_alu_b_src $end
$var wire 1 6" id_alu_a_src $end
$var wire 2 7" forward_b [1:0] $end
$var wire 2 8" forward_a [1:0] $end
$var wire 32 9" exmem_fwd_val [31:0] $end
$var wire 32 :" ex_trap_val [31:0] $end
$var wire 32 ;" ex_trap_cause [31:0] $end
$var wire 32 <" ex_target [31:0] $end
$var wire 32 =" ex_result [31:0] $end
$var wire 32 >" ex_redirect_pc [31:0] $end
$var wire 32 ?" ex_pc_target [31:0] $end
$var wire 1 @" ex_alu_zero $end
$var wire 32 A" ex_alu_result [31:0] $end
$var wire 32 B" ex_alu_b [31:0] $end
$var wire 32 C" ex_alu_a [31:0] $end
$var wire 4 D" dmem_wstrb [3:0] $end
$var wire 32 E" dmem_wdata [31:0] $end
$var wire 32 F" dmem_rdata [31:0] $end
$var wire 32 G" csr_wval [31:0] $end
$var wire 32 H" csr_trap_vec [31:0] $end
$var wire 32 I" csr_src [31:0] $end
$var wire 32 J" csr_ret_pc [31:0] $end
$var wire 32 K" csr_rdata [31:0] $end
$var wire 2 L" csr_priv [1:0] $end
$var wire 2 M" csr_op [1:0] $end
$var wire 1 N" csr_addr_valid $end
$var wire 32 O" amo_wval [31:0] $end
$var parameter 32 P" RESET_PC $end
$var reg 1 Q" ex_branch_cond $end
$var reg 32 R" ex_rs1_fwd [31:0] $end
$var reg 32 S" ex_rs2_fwd [31:0] $end
$var reg 32 T" exmem_alu_result [31:0] $end
$var reg 5 U" exmem_amo_op [4:0] $end
$var reg 3 V" exmem_funct3 [2:0] $end
$var reg 32 W" exmem_instr [31:0] $end
$var reg 1 X" exmem_is_amo $end
$var reg 1 Y" exmem_is_lr $end
$var reg 1 Z" exmem_is_sc $end
$var reg 1 [" exmem_mem_read $end
$var reg 1 \" exmem_mem_write $end
$var reg 32 ]" exmem_pc4 [31:0] $end
$var reg 5 ^" exmem_rd [4:0] $end
$var reg 1 _" exmem_reg_write $end
$var reg 32 `" exmem_rs2_data [31:0] $end
$var reg 1 a" exmem_valid $end
$var reg 2 b" exmem_wb_sel [1:0] $end
$var reg 1 c" idex_alu_a_src $end
$var reg 1 d" idex_alu_b_src $end
$var reg 4 e" idex_alu_op [3:0] $end
$var reg 5 f" idex_amo_op [4:0] $end
$var reg 1 g" idex_branch $end
$var reg 12 h" idex_csr_addr [11:0] $end
$var reg 3 i" idex_funct3 [2:0] $end
$var reg 1 j" idex_illegal $end
$var reg 32 k" idex_imm [31:0] $end
$var reg 32 l" idex_instr [31:0] $end
$var reg 1 m" idex_is_amo $end
$var reg 1 n" idex_is_csr $end
$var reg 1 o" idex_is_lr $end
$var reg 1 p" idex_is_muldiv $end
$var reg 1 q" idex_is_sc $end
$var reg 1 r" idex_jalr $end
$var reg 1 s" idex_jump $end
$var reg 1 t" idex_mem_read $end
$var reg 1 u" idex_mem_write $end
$var reg 32 v" idex_pc [31:0] $end
$var reg 32 w" idex_pc4 [31:0] $end
$var reg 5 x" idex_rd [4:0] $end
$var reg 1 y" idex_reg_write $end
$var reg 5 z" idex_rs1 [4:0] $end
$var reg 32 {" idex_rs1_data [31:0] $end
$var reg 5 |" idex_rs2 [4:0] $end
$var reg 32 }" idex_rs2_data [31:0] $end
$var reg 1 ~" idex_sys_ebreak $end
$var reg 1 !# idex_sys_ecall $end
$var reg 1 "# idex_sys_mret $end
$var reg 1 ## idex_sys_sret $end
$var reg 1 $# idex_valid $end
$var reg 2 %# idex_wb_sel [1:0] $end
$var reg 32 &# ifid_instr [31:0] $end
$var reg 32 '# ifid_pc [31:0] $end
$var reg 32 (# ifid_pc4 [31:0] $end
$var reg 1 )# ifid_valid $end
$var reg 32 *# mem_load_data [31:0] $end
$var reg 32 +# mem_store_data [31:0] $end
$var reg 4 ,# mem_store_strb [3:0] $end
$var reg 32 -# memwb_alu_result [31:0] $end
$var reg 32 .# memwb_instr [31:0] $end
$var reg 32 /# memwb_load_data [31:0] $end
$var reg 32 0# memwb_pc4 [31:0] $end
$var reg 5 1# memwb_rd_r [4:0] $end
$var reg 1 l memwb_reg_write_r $end
$var reg 1 2# memwb_valid $end
$var reg 2 3# memwb_wb_sel [1:0] $end
$var reg 32 4# pc [31:0] $end
$var reg 32 5# resv_addr [31:0] $end
$var reg 1 6# resv_valid $end
$var reg 32 7# wb_mux [31:0] $end
$scope module u_alu $end
$var wire 32 8# a [31:0] $end
$var wire 4 9# alu_op [3:0] $end
$var wire 32 :# b [31:0] $end
$var wire 1 @" zero $end
$var wire 5 ;# shamt [4:0] $end
$var reg 32 <# result [31:0] $end
$upscope $end
$scope module u_amo $end
$var wire 5 =# amo_op [4:0] $end
$var wire 32 ># rs2_val [31:0] $end
$var wire 32 ?# s_mem [31:0] $end
$var wire 32 @# s_rs2 [31:0] $end
$var wire 32 A# mem_val [31:0] $end
$var reg 32 B# result [31:0] $end
$upscope $end
$scope module u_csr $end
$var wire 12 C# addr [11:0] $end
$var wire 1 / clk $end
$var wire 1 P mret_en $end
$var wire 2 D# priv_o [1:0] $end
$var wire 1 n" rd_en $end
$var wire 1 9 rst_n $end
$var wire 32 E# sie_v [31:0] $end
$var wire 32 F# sip_v [31:0] $end
$var wire 1 R sret_en $end
$var wire 1 G# to_s $end
$var wire 32 H# trap_cause [31:0] $end
$var wire 1 T trap_en $end
$var wire 32 I# trap_epc [31:0] $end
$var wire 32 J# trap_val [31:0] $end
$var wire 32 K# wdata [31:0] $end
$var wire 1 L# wr_en $end
$var wire 32 M# trap_vec_o [31:0] $end
$var wire 32 N# sstatus [31:0] $end
$var wire 32 O# ret_pc_o [31:0] $end
$var wire 32 P# mstatus [31:0] $end
$var wire 1 Q# deleg $end
$var reg 1 N" addr_valid $end
$var reg 32 R# mcause [31:0] $end
$var reg 32 S# medeleg [31:0] $end
$var reg 32 T# mepc [31:0] $end
$var reg 32 U# mideleg [31:0] $end
$var reg 1 V# mie $end
$var reg 32 W# mie_r [31:0] $end
$var reg 32 X# mip_r [31:0] $end
$var reg 1 Y# mpie $end
$var reg 2 Z# mpp [1:0] $end
$var reg 32 [# mscratch [31:0] $end
$var reg 32 \# mtval [31:0] $end
$var reg 32 ]# mtvec [31:0] $end
$var reg 2 ^# priv [1:0] $end
$var reg 32 _# rdata [31:0] $end
$var reg 32 `# satp [31:0] $end
$var reg 32 a# scause [31:0] $end
$var reg 32 b# sepc [31:0] $end
$var reg 1 c# sie $end
$var reg 1 d# spie $end
$var reg 1 e# spp $end
$var reg 32 f# sscratch [31:0] $end
$var reg 32 g# stval [31:0] $end
$var reg 32 h# stvec [31:0] $end
$upscope $end
$scope module u_ctrl $end
$var wire 12 i# funct12 [11:0] $end
$var wire 3 j# funct3 [2:0] $end
$var wire 5 k# funct5 [4:0] $end
$var wire 1 0" funct7b0 $end
$var wire 1 /" funct7b5 $end
$var wire 7 l# opcode [6:0] $end
$var reg 1 6" alu_a_src $end
$var reg 4 m# alu_arith [3:0] $end
$var reg 1 5" alu_b_src $end
$var reg 4 n# alu_op [3:0] $end
$var reg 5 o# amo_op [4:0] $end
$var reg 1 2" branch $end
$var reg 1 ." illegal $end
$var reg 3 p# imm_sel [2:0] $end
$var reg 1 +" is_amo $end
$var reg 1 *" is_csr $end
$var reg 1 )" is_lr $end
$var reg 1 (" is_muldiv $end
$var reg 1 '" is_sc $end
$var reg 1 &" jalr $end
$var reg 1 %" jump $end
$var reg 1 $" mem_read $end
$var reg 1 #" mem_write $end
$var reg 1 ~ reg_write $end
$var reg 1 w sys_ebreak $end
$var reg 1 v sys_ecall $end
$var reg 1 u sys_mret $end
$var reg 1 t sys_sret $end
$var reg 2 q# wb_sel [1:0] $end
$upscope $end
$scope module u_fwd $end
$var wire 5 r# exmem_rd [4:0] $end
$var wire 1 _" exmem_reg_write $end
$var wire 5 s# idex_rs1 [4:0] $end
$var wire 5 t# idex_rs2 [4:0] $end
$var wire 5 u# memwb_rd [4:0] $end
$var wire 1 l memwb_reg_write $end
$var reg 2 v# forward_a [1:0] $end
$var reg 2 w# forward_b [1:0] $end
$upscope $end
$scope module u_hazard $end
$var wire 1 t" idex_mem_read $end
$var wire 5 x# idex_rd [4:0] $end
$var wire 5 y# ifid_rs1 [4:0] $end
$var wire 5 z# ifid_rs2 [4:0] $end
$var wire 1 q stall $end
$upscope $end
$scope module u_imm $end
$var wire 3 {# imm_sel [2:0] $end
$var wire 32 |# instr [31:0] $end
$var reg 32 }# imm [31:0] $end
$upscope $end
$scope module u_muldiv $end
$var wire 32 ~# a [31:0] $end
$var wire 32 !$ b [31:0] $end
$var wire 1 / clk $end
$var wire 1 "$ ge $end
$var wire 1 #$ is_mul $end
$var wire 1 $$ na $end
$var wire 1 %$ nb $end
$var wire 3 &$ op [2:0] $end
$var wire 1 '$ overflow $end
$var wire 1 9 rst_n $end
$var wire 1 ($ signed_div $end
$var wire 1 p" start $end
$var wire 32 )$ rem_hi [31:0] $end
$var wire 64 *$ p_uu [63:0] $end
$var wire 64 +$ p_su [63:0] $end
$var wire 64 ,$ p_ss [63:0] $end
$var wire 1 j done $end
$var wire 1 -$ div_zero $end
$var wire 33 .$ diff [32:0] $end
$var wire 1 k busy $end
$var wire 64 /$ bu [63:0] $end
$var wire 64 0$ bs [63:0] $end
$var wire 64 1$ au [63:0] $end
$var wire 64 2$ as [63:0] $end
$var wire 64 3$ acc_sh [63:0] $end
$var wire 64 4$ acc_nx [63:0] $end
$var wire 32 5$ abs_b [31:0] $end
$var wire 32 6$ abs_a [31:0] $end
$var parameter 2 7$ CALC $end
$var parameter 2 8$ FIN $end
$var parameter 2 9$ IDLE $end
$var reg 64 :$ acc [63:0] $end
$var reg 6 ;$ cnt [5:0] $end
$var reg 32 <$ divisor_q [31:0] $end
$var reg 32 =$ mul_res [31:0] $end
$var reg 1 >$ neg_q $end
$var reg 1 ?$ neg_r $end
$var reg 3 @$ op_q [2:0] $end
$var reg 32 A$ result [31:0] $end
$var reg 2 B$ state [1:0] $end
$upscope $end
$scope module u_rf $end
$var wire 1 / clk $end
$var wire 5 C$ rd_addr [4:0] $end
$var wire 32 D$ rd_data [31:0] $end
$var wire 5 E$ rs1_addr [4:0] $end
$var wire 5 F$ rs2_addr [4:0] $end
$var wire 1 l we $end
$var wire 32 G$ rs2_data [31:0] $end
$var wire 32 H$ rs1_data [31:0] $end
$var integer 32 I$ i [31:0] $end
$upscope $end
$upscope $end
$scope module u_mem $end
$var wire 1 / clk $end
$var wire 32 J$ dmem_addr [31:0] $end
$var wire 32 K$ dmem_rdata [31:0] $end
$var wire 32 L$ dmem_wdata [31:0] $end
$var wire 1 F dmem_we $end
$var wire 4 M$ dmem_wstrb [3:0] $end
$var wire 32 N$ imem_addr [31:0] $end
$var wire 32 O$ imem_rdata [31:0] $end
$var wire 1 P$ rd_accept $end
$var wire 1 3 rst_n $end
$var wire 12 Q$ s_axi_araddr [11:0] $end
$var wire 3 R$ s_axi_arprot [2:0] $end
$var wire 1 ( s_axi_arready $end
$var wire 1 + s_axi_arvalid $end
$var wire 12 S$ s_axi_awaddr [11:0] $end
$var wire 3 T$ s_axi_awprot [2:0] $end
$var wire 1 ' s_axi_awready $end
$var wire 1 - s_axi_awvalid $end
$var wire 1 . s_axi_bready $end
$var wire 2 U$ s_axi_bresp [1:0] $end
$var wire 1 & s_axi_bvalid $end
$var wire 32 V$ s_axi_rdata [31:0] $end
$var wire 1 2 s_axi_rready $end
$var wire 2 W$ s_axi_rresp [1:0] $end
$var wire 1 $ s_axi_rvalid $end
$var wire 32 X$ s_axi_wdata [31:0] $end
$var wire 1 # s_axi_wready $end
$var wire 4 Y$ s_axi_wstrb [3:0] $end
$var wire 1 6 s_axi_wvalid $end
$var wire 1 Z$ wr_accept $end
$var wire 10 [$ imem_idx [9:0] $end
$var wire 10 \$ dmem_idx [9:0] $end
$var wire 10 ]$ axi_waddr_idx [9:0] $end
$var parameter 32 ^$ ADDR_WIDTH $end
$var parameter 32 _$ IDX_HI $end
$var parameter 32 `$ WORDS $end
$var reg 1 a$ arready_r $end
$var reg 1 b$ awready_r $end
$var reg 1 c$ bvalid_r $end
$var reg 32 d$ rdata_r [31:0] $end
$var reg 1 e$ rvalid_r $end
$var reg 1 f$ wready_r $end
$upscope $end
$upscope $end
$scope task axi_read $end
$var reg 12 g$ addr [11:0] $end
$var reg 32 h$ data [31:0] $end
$upscope $end
$scope task axi_write $end
$var reg 12 i$ addr [11:0] $end
$var reg 32 j$ data [31:0] $end
$var reg 4 k$ strb [3:0] $end
$upscope $end
$upscope $end
$enddefinitions $end
$comment Show the parameter values. $end
$dumpall
b10000000000 `$
b1011 _$
b1100 ^$
b0 9$
b10 8$
b1 7$
b0 P"
b1100 J
b1100 )
$end
#0
$dumpvars
bx k$
bx j$
bx i$
bx h$
bx g$
0f$
0e$
b0 d$
0c$
0b$
0a$
b0 ]$
b0 \$
b0 [$
0Z$
b0 Y$
b0 X$
b0 W$
b0 V$
b0 U$
b0 T$
b0 S$
b0 R$
b0 Q$
0P$
bx O$
b0 N$
b0 M$
b0 L$
bx K$
b0 J$
b100000 I$
b0 H$
b0 G$
b0 F$
b0 E$
b0 D$
b0 C$
b0 B$
b0 A$
b0 @$
0?$
0>$
b0 =$
b0 <$
b0 ;$
b0 :$
b0 6$
b0 5$
b1 4$
b0 3$
b0 2$
b0 1$
b0 0$
b0 /$
b0 .$
1-$
b0 ,$
b0 +$
b0 *$
b0 )$
0($
0'$
b0 &$
0%$
0$$
1#$
1"$
b0 !$
b0 ~#
b0 }#
b10011 |#
b0 {#
b0 z#
b0 y#
b0 x#
b0 w#
b0 v#
b0 u#
b0 t#
b0 s#
b0 r#
b0 q#
b0 p#
b0 o#
b0 n#
b0 m#
b10011 l#
b0 k#
b0 j#
b0 i#
b0 h#
b0 g#
b0 f#
0e#
0d#
0c#
b0 b#
b0 a#
b0 `#
b0 _#
b11 ^#
b0 ]#
b0 \#
b0 [#
b0 Z#
0Y#
b0 X#
b0 W#
0V#
b0 U#
b0 T#
b0 S#
b0 R#
0Q#
b0 P#
b0 O#
b0 N#
b0 M#
0L#
b0 K#
b0 J#
b0 I#
b10 H#
0G#
b0 F#
b0 E#
b11 D#
b0 C#
bx B#
bx A#
b0 @#
bx ?#
b0 >#
b0 =#
b0 <#
b0 ;#
b0 :#
b0 9#
b0 8#
b0 7#
06#
bx 5#
b0 4#
b0 3#
02#
b0 1#
b0 0#
b0 /#
b10011 .#
b0 -#
b1 ,#
b0 +#
bx *#
0)#
b0 (#
b0 '#
b10011 &#
b0 %#
0$#
0##
0"#
0!#
0~"
b0 }"
b0 |"
b0 {"
b0 z"
0y"
b0 x"
b0 w"
b0 v"
0u"
0t"
0s"
0r"
0q"
0p"
0o"
0n"
0m"
b10011 l"
b0 k"
0j"
b0 i"
b0 h"
0g"
b0 f"
b0 e"
0d"
0c"
b0 b"
0a"
b0 `"
0_"
b0 ^"
b0 ]"
0\"
0["
0Z"
0Y"
0X"
b10011 W"
b0 V"
b0 U"
b0 T"
b0 S"
b0 R"
1Q"
bx O"
0N"
b0 M"
b11 L"
b0 K"
b0 J"
b0 I"
b0 H"
b0 G"
bx F"
b0 E"
b0 D"
b0 C"
b0 B"
b0 A"
1@"
b0 ?"
b0 >"
b0 ="
b0 <"
b10 ;"
b0 :"
b0 9"
b0 8"
b0 7"
06"
15"
b0 4"
b0 3"
02"
b0 1"
00"
0/"
0."
b0 -"
b0 ,"
0+"
0*"
0)"
0("
0'"
0&"
0%"
0$"
0#"
b10011 ""
b0 !"
1~
b0 }
b0 |
b0 {
b0 z
b0 y
b0 x
0w
0v
0u
0t
b0 s
bx r
0q
bx p
bx o
b0 n
b0 m
0l
0k
0j
b0 i
b100 h
b100 g
0f
b0 e
0d
0c
0b
0a
0`
0_
0^
0]
0\
b0 [
0Z
0Y
0X
0W
b0 V
bx U
0T
0S
0R
0Q
0P
b0 O
0N
b0 M
0L
0K
b0 I
bx H
b0 G
0F
b0 E
b0 D
bx C
b0 B
b0 A
b0 @
b0 ?
b0 >
b0 =
b0 <
b0 ;
b0 :
09
b100000000 8
b0 7
06
b0 5
b0 4
03
02
bx 1
00
0/
0.
0-
b0 ,
0+
b0 *
0(
0'
0&
b0 %
0$
0#
b0 "
b0 !
$end
#5000
1/
#10000
0/
#15000
1/
#20000
13
0/
#25000
1/
#30000
b1111 k$
b100000000000100010011 j$
b0 i$
b0 8
0/
#35000
1/
#40000
1Z$
16
1-
b1111 5
b1111 A
b1111 Y$
b100000000000100010011 4
b100000000000100010011 @
b100000000000100010011 X$
0/
#45000
0Z$
b10011 *#
b100000000000100010011 O"
b100000000000100010011 B#
1&
1c$
1#
1f$
1'
1b$
b100000000000100010011 U
b100000000000100010011 C
b100000000000100010011 r
b100000000000100010011 O$
b100000000000100010011 ?#
b100010011 o
b10011 p
b100000000000100010011 H
b100000000000100010011 F"
b100000000000100010011 A#
b100000000000100010011 K$
1/
#50000
0/
#55000
0#
0f$
0'
0b$
1/
#60000
1.
06
0-
0/
#65000
0&
0c$
1/
#70000
b101100000000000110010011 j$
b100 i$
b1 8
0.
0/
#75000
1/
#80000
1Z$
b1 ]$
16
1-
b101100000000000110010011 4
b101100000000000110010011 @
b101100000000000110010011 X$
b100 ,
b100 <
b100 S$
0/
#85000
0Z$
1&
1c$
1#
1f$
1'
1b$
1/
#90000
0/
#95000
0#
0f$
0'
0b$
1/
#100000
1.
06
0-
0/
#105000
0&
0c$
1/
#110000
b10010011 j$
b1000 i$
b10 8
0.
0/
#115000
1/
#120000
1Z$
b10 ]$
16
1-
b10010011 4
b10010011 @
b10010011 X$
b1000 ,
b1000 <
b1000 S$
0/
#125000
0Z$
1&
1c$
1#
1f$
1'
1b$
1/
#130000
0/
#135000
0#
0f$
0'
0b$
1/
#140000
1.
06
0-
0/
#145000
0&
0c$
1/
#150000
b1000001000000010110011 j$
b1100 i$
b11 8
0.
0/
#155000
1/
#160000
1Z$
b11 ]$
16
1-
b1000001000000010110011 4
b1000001000000010110011 @
b1000001000000010110011 X$
b1100 ,
b1100 <
b1100 S$
0/
#165000
0Z$
1&
1c$
1#
1f$
1'
1b$
1/
#170000
0/
#175000
0#
0f$
0'
0b$
1/
#180000
1.
06
0-
0/
#185000
0&
0c$
1/
#190000
b100010000000100010011 j$
b10000 i$
b100 8
0.
0/
#195000
1/
#200000
1Z$
b100 ]$
16
1-
b100010000000100010011 4
b100010000000100010011 @
b100010000000100010011 X$
b10000 ,
b10000 <
b10000 S$
0/
#205000
0Z$
1&
1c$
1#
1f$
1'
1b$
1/
#210000
0/
#215000
0#
0f$
0'
0b$
1/
#220000
1.
06
0-
0/
#225000
0&
0c$
1/
#230000
b11111110001100010100110011100011 j$
b10100 i$
b101 8
0.
0/
#235000
1/
#240000
1Z$
b101 ]$
16
1-
b11111110001100010100110011100011 4
b11111110001100010100110011100011 @
b11111110001100010100110011100011 X$
b10100 ,
b10100 <
b10100 S$
0/
#245000
0Z$
1&
1c$
1#
1f$
1'
1b$
1/
#250000
0/
#255000
0#
0f$
0'
0b$
1/
#260000
1.
06
0-
0/
#265000
0&
0c$
1/
#270000
b10000000000000000001010010011 j$
b11000 i$
b110 8
0.
0/
#275000
1/
#280000
1Z$
b110 ]$
16
1-
b10000000000000000001010010011 4
b10000000000000000001010010011 @
b10000000000000000001010010011 X$
b11000 ,
b11000 <
b11000 S$
0/
#285000
0Z$
1&
1c$
1#
1f$
1'
1b$
1/
#290000
0/
#295000
0#
0f$
0'
0b$
1/
#300000
1.
06
0-
0/
#305000
0&
0c$
1/
#310000
b100101010000000100011 j$
b11100 i$
b111 8
0.
0/
#315000
1/
#320000
1Z$
b111 ]$
16
1-
b100101010000000100011 4
b100101010000000100011 @
b100101010000000100011 X$
b11100 ,
b11100 <
b11100 S$
0/
#325000
0Z$
1&
1c$
1#
1f$
1'
1b$
1/
#330000
0/
#335000
0#
0f$
0'
0b$
1/
#340000
1.
06
0-
0/
#345000
0&
0c$
1/
#350000
b1101111 j$
b100000 i$
b1000 8
0.
0/
#355000
1/
#360000
1Z$
b1000 ]$
16
1-
b1101111 4
b1101111 @
b1101111 X$
b100000 ,
b100000 <
b100000 S$
0/
#365000
0Z$
1&
1c$
1#
1f$
1'
1b$
1/
#370000
0/
#375000
0#
0f$
0'
0b$
1/
#380000
1.
06
0-
0/
#385000
0&
0c$
1/
#390000
b1001 8
0.
0/
#395000
1/
#400000
19
b0 8
10
0/
#405000
15"
1~
b10 !"
b1 z
b1 z#
b1 F$
b1 i#
b1 -"
b1 }#
b1000 h
b101100000000000110010011 U
b101100000000000110010011 C
b101100000000000110010011 r
b101100000000000110010011 O$
b1 [$
b10011 /#
1d"
1y"
1)#
b100000000000100010011 &#
b100000000000100010011 |#
b100 (#
b1000 g
b100 D
b100 V
b100 N$
b100 4#
1/
#410000
b1 8
0/
#415000
b1 ="
b1 >"
15"
1~
0@"
b1 [
b1 A"
b1 <#
b1 ;#
b1100 h
b10010011 U
b10010011 C
b10010011 r
b10010011 O$
b10 [$
b11 !"
b1011 z
b1011 z#
b1011 F$
b1011 i#
b1011 -"
b1011 }#
0N"
b1 B"
b1 :#
b1 <"
b1100 g
b1000 D
b1000 V
b1000 N$
b1000 4#
b101100000000000110010011 &#
b101100000000000110010011 |#
b1000 (#
b100 '#
b100000000000100010011 l"
1$#
b1 h"
b1 C#
b1 |"
b1 t#
b10 x"
b10 x#
b100 w"
b1 ?"
b1 k"
1_"
1/
#420000
b10 8
0/
#425000
b1011 ="
b1111 >"
b1 *#
b10 ,#
b1011 [
b1011 A"
b1011 <#
b1011 ;#
15"
1~
b1 9"
b1 p
b1000000000001 o
b1 n
0N"
b1011 B"
b1011 :#
b1111 <"
b1010 O
b1 !"
b0 z
b0 z#
b0 F$
b0 i#
b0 -"
b0 }#
b10000 h
b1000001000000010110011 U
b1000001000000010110011 C
b1000001000000010110011 r
b1000001000000010110011 O$
b11 [$
1l
b100000000000100010011 W"
1a"
b10 ^"
b10 r#
b100 ]"
b1 I
b1 M
b1 J$
b1 T"
b101100000000000110010011 l"
b1011 h"
b1011 C#
b1011 |"
b1011 t#
b11 x"
b11 x#
b1000 w"
b100 v"
b100 I#
b1111 ?"
b1011 k"
b10010011 &#
b10010011 |#
b1100 (#
b1000 '#
b10000 g
b1100 D
b1100 V
b1100 N$
b1100 4#
1/
#430000
b11 8
0/
#435000
b0 ="
b1000 >"
b1 x
05"
1~
1@"
b0 [
b0 A"
b0 <#
b0 ;#
b1000 ,#
b0 *#
b10010011 O"
b10010011 B#
1c
b10100 h
b100010000000100010011 U
b100010000000100010011 C
b100010000000100010011 r
b100010000000100010011 O$
b100 [$
b110011 ""
b110011 l#
b1 }
b1 y#
b1 E$
b10 z
b10 z#
b10 F$
b10 i#
b10 -"
b10 }#
0N"
b0 B"
b0 :#
b1000 <"
b0 O
b1011 9"
b11 n
b10010011 ?#
bx00000000 o
b0 p
b10010011 H
b10010011 F"
b10010011 A#
b10010011 K$
b10 \$
b1 e
b1 7#
b1 D$
b10100 g
b10000 D
b10000 V
b10000 N$
b10000 4#
b1000001000000010110011 &#
b1000001000000010110011 |#
b10000 (#
b1100 '#
b10010011 l"
b0 h"
b0 C#
b0 |"
b0 t#
b1 x"
b1 x#
b1100 w"
b1000 v"
b1000 I#
b1000 ?"
b0 k"
b101100000000000110010011 W"
b11 ^"
b11 r#
b1000 ]"
b1011 I
b1011 M
b1011 J$
b1011 T"
b100000000000100010011 .#
12#
b10 m
b10 1#
b10 u#
b10 C$
b100 0#
b1 /#
b1 -#
1/
#440000
b100 8
0/
