waveform/tb_soc_uart.vcd
$date
	Sun Jun 14 16:36:58 2026
$end
$version
	Icarus Verilog
$end
$timescale
	1ps
$end
$scope module tb_soc_uart $end
$var wire 1 ! tx_stb $end
$var wire 8 " tx_byte [7:0] $end
$var reg 1 # clk $end
$var reg 1 $ rst_n $end
$var integer 32 % errors [31:0] $end
$var integer 32 & i [31:0] $end
$var integer 32 ' n [31:0] $end
$scope module dut $end
$var wire 1 # clk $end
$var wire 32 ( imem_rdata [31:0] $end
$var wire 4 ) irq_in [3:0] $end
$var wire 1 $ rst_n $end
$var wire 1 ! uart_tx_stb $end
$var wire 8 * uart_tx_byte [7:0] $end
$var wire 1 + uart_sel $end
$var wire 32 , uart_rdata [31:0] $end
$var wire 16 - ram_widx [15:0] $end
$var wire 1 . ram_sel $end
$var wire 16 / ram_ridx [15:0] $end
$var wire 1 0 plic_sel $end
$var wire 32 1 plic_rdata [31:0] $end
$var wire 1 2 plic_meip $end
$var wire 32 3 imem_addr [31:0] $end
$var wire 4 4 dmem_wstrb [3:0] $end
$var wire 1 5 dmem_we $end
$var wire 32 6 dmem_wdata [31:0] $end
$var wire 1 7 dmem_re $end
$var wire 32 8 dmem_rdata [31:0] $end
$var wire 32 9 dmem_addr [31:0] $end
$var parameter 32 : RAM_WORDS $end
$var parameter 32 ; RESET_PC $end
$scope module u_core $end
$var wire 1 < back_pressure $end
$var wire 1 = clint_sel $end
$var wire 1 # clk $end
$var wire 1 > csr_illegal $end
$var wire 1 ? csr_wr $end
$var wire 32 @ dmem_rdata [31:0] $end
$var wire 1 7 dmem_re $end
$var wire 1 A ex_branch_taken $end
$var wire 1 B ex_dfault $end
$var wire 1 C ex_ifault $end
$var wire 32 D ex_jalr_target [31:0] $end
$var wire 1 E ex_mem_op $end
$var wire 1 F ex_mret $end
$var wire 1 G ex_pagefault $end
$var wire 1 H ex_redirect $end
$var wire 1 I ex_satp_wr $end
$var wire 1 J ex_sfence $end
$var wire 1 K ex_sret $end
$var wire 1 L ex_start $end
$var wire 1 M ex_take_pc $end
$var wire 1 N ex_trap $end
$var wire 1 O ex_trap_sync $end
$var wire 1 P ex_wants $end
$var wire 32 Q if_instr [31:0] $end
$var wire 1 R if_need_xlate $end
$var wire 1 S if_start $end
$var wire 1 T if_wants $end
$var wire 1 U if_xlate_pending $end
$var wire 32 V imem_rdata [31:0] $end
$var wire 1 W instr_misalign $end
$var wire 1 X is_store_acc $end
$var wire 1 Y load_misalign $end
$var wire 1 Z mem_access $end
$var wire 32 [ mem_addr_ex [31:0] $end
$var wire 1 \ mem_data_acc $end
$var wire 1 ] mmu_active $end
$var wire 1 ^ mmu_flush $end
$var wire 1 _ mmu_stall $end
$var wire 1 ` mmu_walking $end
$var wire 1 a mret_ok $end
$var wire 1 b mul_stall $end
$var wire 1 c need_xlate $end
$var wire 1 $ rst_n $end
$var wire 1 d sc_ok $end
$var wire 1 e serving_ex $end
$var wire 1 f sret_ok $end
$var wire 1 g stall_front $end
$var wire 1 h store_misalign $end
$var wire 1 i take_int $end
$var wire 1 j w_busy $end
$var wire 1 k walker_bus $end
$var wire 1 l wb2id_rs1 $end
$var wire 1 m wb2id_rs2 $end
$var wire 1 n xret_illegal $end
$var wire 32 o wb_data [31:0] $end
$var wire 1 p sz_misalign $end
$var wire 32 q sync_cause [31:0] $end
$var wire 32 r pc_plus4 [31:0] $end
$var wire 32 s next_pc [31:0] $end
$var wire 32 t mul_result [31:0] $end
$var wire 1 u mul_done $end
$var wire 1 v mul_busy $end
$var wire 32 w mmu_paddr [31:0] $end
$var wire 1 x mmu_mem_req $end
$var wire 32 y mmu_mem_addr [31:0] $end
$var wire 4 z mmu_fault_cause [3:0] $end
$var wire 1 { mmu_fault $end
$var wire 1 | mmu_done $end
$var wire 2 } mmu_acc [1:0] $end
$var wire 1 ~ memwb_reg_write $end
$var wire 5 !" memwb_rd [4:0] $end
$var wire 2 "" mem_off [1:0] $end
$var wire 16 #" mem_ld_half [15:0] $end
$var wire 8 $" mem_ld_byte [7:0] $end
$var wire 1 %" load_use_stall $end
$var wire 1 &" irq_pending $end
$var wire 32 '" irq_cause [31:0] $end
$var wire 32 (" imem_addr [31:0] $end
$var wire 2 )" id_wb_sel [1:0] $end
$var wire 1 *" id_sys_sret $end
$var wire 1 +" id_sys_mret $end
$var wire 1 ," id_sys_ecall $end
$var wire 1 -" id_sys_ebreak $end
$var wire 32 ." id_rs2_fwd [31:0] $end
$var wire 32 /" id_rs2_data [31:0] $end
$var wire 5 0" id_rs2 [4:0] $end
$var wire 32 1" id_rs1_fwd [31:0] $end
$var wire 32 2" id_rs1_data [31:0] $end
$var wire 5 3" id_rs1 [4:0] $end
$var wire 1 4" id_reg_write $end
$var wire 5 5" id_rd [4:0] $end
$var wire 7 6" id_opcode [6:0] $end
$var wire 1 7" id_mem_write $end
$var wire 1 8" id_mem_read $end
$var wire 1 9" id_jump $end
$var wire 1 :" id_jalr $end
$var wire 1 ;" id_is_sc $end
$var wire 1 <" id_is_muldiv $end
$var wire 1 =" id_is_lr $end
$var wire 1 >" id_is_csr $end
$var wire 1 ?" id_is_amo $end
$var wire 3 @" id_imm_sel [2:0] $end
$var wire 32 A" id_imm [31:0] $end
$var wire 1 B" id_illegal $end
$var wire 1 C" id_funct7b5 $end
$var wire 1 D" id_funct7b0 $end
$var wire 3 E" id_funct3 [2:0] $end
$var wire 1 F" id_branch $end
$var wire 5 G" id_amo_op [4:0] $end
$var wire 4 H" id_alu_op [3:0] $end
$var wire 1 I" id_alu_b_src $end
$var wire 1 J" id_alu_a_src $end
$var wire 2 K" forward_b [1:0] $end
$var wire 2 L" forward_a [1:0] $end
$var wire 1 M" fetch_consumed $end
$var wire 1 2 ext_irq $end
$var wire 32 N" exmem_fwd_val [31:0] $end
$var wire 32 O" ex_trap_val [31:0] $end
$var wire 32 P" ex_trap_cause [31:0] $end
$var wire 32 Q" ex_target [31:0] $end
$var wire 32 R" ex_result [31:0] $end
$var wire 32 S" ex_redirect_pc [31:0] $end
$var wire 32 T" ex_pc_target [31:0] $end
$var wire 32 U" ex_mem_addr [31:0] $end
$var wire 1 V" ex_alu_zero $end
$var wire 32 W" ex_alu_result [31:0] $end
$var wire 32 X" ex_alu_b [31:0] $end
$var wire 32 Y" ex_alu_a [31:0] $end
$var wire 4 Z" dmem_wstrb [3:0] $end
$var wire 1 5 dmem_we $end
$var wire 32 [" dmem_wdata [31:0] $end
$var wire 32 \" dmem_addr [31:0] $end
$var wire 32 ]" csr_wval [31:0] $end
$var wire 32 ^" csr_trap_vec [31:0] $end
$var wire 32 _" csr_src [31:0] $end
$var wire 32 `" csr_satp [31:0] $end
$var wire 32 a" csr_ret_pc [31:0] $end
$var wire 32 b" csr_rdata [31:0] $end
$var wire 2 c" csr_priv [1:0] $end
$var wire 2 d" csr_op [1:0] $end
$var wire 1 e" csr_addr_valid $end
$var wire 32 f" clint_rdata [31:0] $end
$var wire 1 g" clint_mtip $end
$var wire 1 h" clint_msip $end
$var wire 32 i" amo_wval [31:0] $end
$var parameter 2 j" F_IDLE $end
$var parameter 2 k" F_RDY $end
$var parameter 2 l" F_WALK $end
$var parameter 32 m" RESET_PC $end
$var parameter 2 n" X_IDLE $end
$var parameter 2 o" X_RDY $end
$var parameter 2 p" X_WALK $end
$var reg 1 q" ex_branch_cond $end
$var reg 32 r" ex_rs1_fwd [31:0] $end
$var reg 32 s" ex_rs2_fwd [31:0] $end
$var reg 32 t" exmem_alu_result [31:0] $end
$var reg 5 u" exmem_amo_op [4:0] $end
$var reg 3 v" exmem_funct3 [2:0] $end
$var reg 32 w" exmem_instr [31:0] $end
$var reg 1 x" exmem_is_amo $end
$var reg 1 y" exmem_is_lr $end
$var reg 1 z" exmem_is_sc $end
$var reg 1 {" exmem_mem_read $end
$var reg 1 |" exmem_mem_write $end
$var reg 32 }" exmem_pc4 [31:0] $end
$var reg 5 ~" exmem_rd [4:0] $end
$var reg 1 !# exmem_reg_write $end
$var reg 32 "# exmem_rs2_data [31:0] $end
$var reg 1 ## exmem_valid $end
$var reg 2 $# exmem_wb_sel [1:0] $end
$var reg 1 %# ffault $end
$var reg 32 &# fpaddr [31:0] $end
$var reg 2 '# fstate [1:0] $end
$var reg 1 (# idex_alu_a_src $end
$var reg 1 )# idex_alu_b_src $end
$var reg 4 *# idex_alu_op [3:0] $end
$var reg 5 +# idex_amo_op [4:0] $end
$var reg 1 ,# idex_branch $end
$var reg 12 -# idex_csr_addr [11:0] $end
$var reg 1 .# idex_fault $end
$var reg 3 /# idex_funct3 [2:0] $end
$var reg 1 0# idex_illegal $end
$var reg 32 1# idex_imm [31:0] $end
$var reg 32 2# idex_instr [31:0] $end
$var reg 1 3# idex_is_amo $end
$var reg 1 4# idex_is_csr $end
$var reg 1 5# idex_is_lr $end
$var reg 1 6# idex_is_muldiv $end
$var reg 1 7# idex_is_sc $end
$var reg 1 8# idex_jalr $end
$var reg 1 9# idex_jump $end
$var reg 1 :# idex_mem_read $end
$var reg 1 ;# idex_mem_write $end
$var reg 32 <# idex_pc [31:0] $end
$var reg 32 =# idex_pc4 [31:0] $end
$var reg 5 ># idex_rd [4:0] $end
$var reg 1 ?# idex_reg_write $end
$var reg 5 @# idex_rs1 [4:0] $end
$var reg 32 A# idex_rs1_data [31:0] $end
$var reg 5 B# idex_rs2 [4:0] $end
$var reg 32 C# idex_rs2_data [31:0] $end
$var reg 1 D# idex_sys_ebreak $end
$var reg 1 E# idex_sys_ecall $end
$var reg 1 F# idex_sys_mret $end
$var reg 1 G# idex_sys_sret $end
$var reg 1 H# idex_valid $end
$var reg 2 I# idex_wb_sel [1:0] $end
$var reg 1 J# ifid_fault $end
$var reg 32 K# ifid_instr [31:0] $end
$var reg 32 L# ifid_pc [31:0] $end
$var reg 32 M# ifid_pc4 [31:0] $end
$var reg 1 N# ifid_valid $end
$var reg 32 O# mem_load_data [31:0] $end
$var reg 32 P# mem_store_data [31:0] $end
$var reg 4 Q# mem_store_strb [3:0] $end
$var reg 32 R# memwb_alu_result [31:0] $end
$var reg 32 S# memwb_instr [31:0] $end
$var reg 32 T# memwb_load_data [31:0] $end
$var reg 32 U# memwb_pc4 [31:0] $end
$var reg 5 V# memwb_rd_r [4:0] $end
$var reg 1 ~ memwb_reg_write_r $end
$var reg 1 W# memwb_valid $end
$var reg 2 X# memwb_wb_sel [1:0] $end
$var reg 32 Y# pc [31:0] $end
$var reg 32 Z# resv_addr [31:0] $end
$var reg 1 [# resv_valid $end
$var reg 32 \# wb_mux [31:0] $end
$var reg 4 ]# xcause [3:0] $end
$var reg 1 ^# xfault $end
$var reg 32 _# xpaddr [31:0] $end
$var reg 2 `# xstate [1:0] $end
$scope module u_alu $end
$var wire 32 a# a [31:0] $end
$var wire 4 b# alu_op [3:0] $end
$var wire 32 c# b [31:0] $end
$var wire 1 V" zero $end
$var wire 5 d# shamt [4:0] $end
$var reg 32 e# result [31:0] $end
$upscope $end
$scope module u_amo $end
$var wire 5 f# amo_op [4:0] $end
$var wire 32 g# mem_val [31:0] $end
$var wire 32 h# rs2_val [31:0] $end
$var wire 32 i# s_mem [31:0] $end
$var wire 32 j# s_rs2 [31:0] $end
$var reg 32 k# result [31:0] $end
$upscope $end
$scope module u_clint $end
$var wire 1 # clk $end
$var wire 16 l# off [15:0] $end
$var wire 1 $ rst_n $end
$var wire 1 = sel $end
$var wire 32 m# wdata [31:0] $end
$var wire 1 n# we $end
$var wire 1 g" mtip $end
$var wire 1 h" msip $end
$var reg 1 h" msip_r $end
$var reg 64 o# mtime [63:0] $end
$var reg 64 p# mtimecmp [63:0] $end
$var reg 32 q# rdata [31:0] $end
$upscope $end
$scope module u_csr $end
$var wire 12 r# addr [11:0] $end
$var wire 1 # clk $end
$var wire 32 s# hw_bits [31:0] $end
$var wire 32 t# hw_mask [31:0] $end
$var wire 1 u# m_en $end
$var wire 32 v# mip_eff [31:0] $end
$var wire 1 F mret_en $end
$var wire 1 h" msip_i $end
$var wire 1 g" mtip_i $end
$var wire 32 w# pend [31:0] $end
$var wire 2 x# priv_o [1:0] $end
$var wire 1 4# rd_en $end
$var wire 1 $ rst_n $end
$var wire 1 y# s_en $end
$var wire 32 z# satp_o [31:0] $end
$var wire 32 {# sie_v [31:0] $end
$var wire 32 |# sip_v [31:0] $end
$var wire 1 K sret_en $end
$var wire 32 }# take [31:0] $end
$var wire 1 ~# to_s $end
$var wire 32 !$ trap_cause [31:0] $end
$var wire 1 N trap_en $end
$var wire 32 "$ trap_epc [31:0] $end
$var wire 32 #$ trap_val [31:0] $end
$var wire 32 $$ wdata [31:0] $end
$var wire 1 %$ wr_en $end
$var wire 32 &$ trap_vec_o [31:0] $end
$var wire 32 '$ sstatus [31:0] $end
$var wire 32 ($ ret_pc_o [31:0] $end
$var wire 32 )$ mstatus [31:0] $end
$var wire 1 2 meip_i $end
$var wire 1 *$ is_int $end
$var wire 1 &" irq_pending $end
$var wire 32 +$ irq_cause [31:0] $end
$var wire 1 ,$ deleg $end
$var reg 1 e" addr_valid $end
$var reg 5 -$ icode [4:0] $end
$var reg 32 .$ mcause [31:0] $end
$var reg 32 /$ medeleg [31:0] $end
$var reg 32 0$ mepc [31:0] $end
$var reg 32 1$ mideleg [31:0] $end
$var reg 1 2$ mie $end
$var reg 32 3$ mie_r [31:0] $end
$var reg 32 4$ mip_r [31:0] $end
$var reg 1 5$ mpie $end
$var reg 2 6$ mpp [1:0] $end
$var reg 32 7$ mscratch [31:0] $end
$var reg 32 8$ mtval [31:0] $end
$var reg 32 9$ mtvec [31:0] $end
$var reg 2 :$ priv [1:0] $end
$var reg 32 ;$ rdata [31:0] $end
$var reg 32 <$ satp [31:0] $end
$var reg 32 =$ scause [31:0] $end
$var reg 32 >$ sepc [31:0] $end
$var reg 1 ?$ sie $end
$var reg 1 @$ spie $end
$var reg 1 A$ spp $end
$var reg 32 B$ sscratch [31:0] $end
$var reg 32 C$ stval [31:0] $end
$var reg 32 D$ stvec [31:0] $end
$upscope $end
$scope module u_ctrl $end
$var wire 12 E$ funct12 [11:0] $end
$var wire 3 F$ funct3 [2:0] $end
$var wire 5 G$ funct5 [4:0] $end
$var wire 1 D" funct7b0 $end
$var wire 1 C" funct7b5 $end
$var wire 7 H$ opcode [6:0] $end
$var reg 1 J" alu_a_src $end
$var reg 4 I$ alu_arith [3:0] $end
$var reg 1 I" alu_b_src $end
$var reg 4 J$ alu_op [3:0] $end
$var reg 5 K$ amo_op [4:0] $end
$var reg 1 F" branch $end
$var reg 1 B" illegal $end
$var reg 3 L$ imm_sel [2:0] $end
$var reg 1 ?" is_amo $end
$var reg 1 >" is_csr $end
$var reg 1 =" is_lr $end
$var reg 1 <" is_muldiv $end
$var reg 1 ;" is_sc $end
$var reg 1 :" jalr $end
$var reg 1 9" jump $end
$var reg 1 8" mem_read $end
$var reg 1 7" mem_write $end
$var reg 1 4" reg_write $end
$var reg 1 -" sys_ebreak $end
$var reg 1 ," sys_ecall $end
$var reg 1 +" sys_mret $end
$var reg 1 *" sys_sret $end
$var reg 2 M$ wb_sel [1:0] $end
$upscope $end
$scope module u_fwd $end
$var wire 5 N$ exmem_rd [4:0] $end
$var wire 1 !# exmem_reg_write $end
$var wire 5 O$ idex_rs1 [4:0] $end
$var wire 5 P$ idex_rs2 [4:0] $end
$var wire 5 Q$ memwb_rd [4:0] $end
$var wire 1 ~ memwb_reg_write $end
$var reg 2 R$ forward_a [1:0] $end
$var reg 2 S$ forward_b [1:0] $end
$upscope $end
$scope module u_hazard $end
$var wire 1 :# idex_mem_read $end
$var wire 5 T$ idex_rd [4:0] $end
$var wire 5 U$ ifid_rs1 [4:0] $end
$var wire 5 V$ ifid_rs2 [4:0] $end
$var wire 1 %" stall $end
$upscope $end
$scope module u_imm $end
$var wire 3 W$ imm_sel [2:0] $end
$var wire 32 X$ instr [31:0] $end
$var reg 32 Y$ imm [31:0] $end
$upscope $end
$scope module u_mmu $end
$var wire 2 Z$ access [1:0] $end
$var wire 1 # clk $end
$var wire 1 ^ flush $end
$var wire 1 [$ l0_invalid $end
$var wire 1 \$ l1_invalid $end
$var wire 1 ]$ l1_leaf $end
$var wire 1 ^$ mem_ack $end
$var wire 32 _$ mem_rdata [31:0] $end
$var wire 1 `$ mxr $end
$var wire 2 a$ priv [1:0] $end
$var wire 1 b$ req $end
$var wire 1 $ rst_n $end
$var wire 32 c$ satp [31:0] $end
$var wire 1 d$ sum $end
$var wire 32 e$ vaddr [31:0] $end
$var wire 32 f$ hit_paddr [31:0] $end
$var parameter 2 g$ S_DONE $end
$var parameter 2 h$ S_IDLE $end
$var parameter 2 i$ S_L0 $end
$var parameter 2 j$ S_L1 $end
$var parameter 32 k$ TLBN $end
$var reg 2 l$ access_q [1:0] $end
$var reg 1 | done $end
$var reg 1 { fault $end
$var reg 4 m$ fault_cause [3:0] $end
$var reg 3 n$ hidx [2:0] $end
$var reg 1 o$ hit $end
$var reg 32 p$ hit_pte [31:0] $end
$var reg 1 q$ hit_sup $end
$var reg 32 r$ leaf_pte [31:0] $end
$var reg 32 s$ mem_addr [31:0] $end
$var reg 1 x mem_req $end
$var reg 32 t$ paddr [31:0] $end
$var reg 3 u$ rr [2:0] $end
$var reg 2 v$ state [1:0] $end
$var reg 32 w$ vaddr_q [31:0] $end
$var integer 32 x$ i [31:0] $end
$scope function bad_leaf $end
$var reg 1 y$ a $end
$var reg 2 z$ acc [1:0] $end
$var reg 1 {$ d $end
$var reg 1 |$ ok $end
$var reg 32 }$ p [31:0] $end
$var reg 1 ~$ r $end
$var reg 1 !% u $end
$var reg 1 "% w $end
$var reg 1 #% x $end
$upscope $end
$scope function pf_cause $end
$var reg 2 $% acc [1:0] $end
$upscope $end
$upscope $end
$scope module u_muldiv $end
$var wire 32 %% a [31:0] $end
$var wire 32 &% b [31:0] $end
$var wire 1 # clk $end
$var wire 1 '% ge $end
$var wire 1 (% is_mul $end
$var wire 1 )% na $end
$var wire 1 *% nb $end
$var wire 3 +% op [2:0] $end
$var wire 1 ,% overflow $end
$var wire 1 $ rst_n $end
$var wire 1 -% signed_div $end
$var wire 1 6# start $end
$var wire 32 .% rem_hi [31:0] $end
$var wire 64 /% p_uu [63:0] $end
$var wire 64 0% p_su [63:0] $end
$var wire 64 1% p_ss [63:0] $end
$var wire 1 u done $end
$var wire 1 2% div_zero $end
$var wire 33 3% diff [32:0] $end
$var wire 1 v busy $end
$var wire 64 4% bu [63:0] $end
$var wire 64 5% bs [63:0] $end
$var wire 64 6% au [63:0] $end
$var wire 64 7% as [63:0] $end
$var wire 64 8% acc_sh [63:0] $end
$var wire 64 9% acc_nx [63:0] $end
$var wire 32 :% abs_b [31:0] $end
$var wire 32 ;% abs_a [31:0] $end
$var parameter 2 <% CALC $end
$var parameter 2 =% FIN $end
$var parameter 2 >% IDLE $end
$var reg 64 ?% acc [63:0] $end
$var reg 6 @% cnt [5:0] $end
$var reg 32 A% divisor_q [31:0] $end
$var reg 32 B% mul_res [31:0] $end
$var reg 1 C% neg_q $end
$var reg 1 D% neg_r $end
$var reg 3 E% op_q [2:0] $end
$var reg 32 F% result [31:0] $end
$var reg 2 G% state [1:0] $end
$upscope $end
$scope module u_rf $end
$var wire 1 # clk $end
$var wire 5 H% rd_addr [4:0] $end
$var wire 32 I% rd_data [31:0] $end
$var wire 5 J% rs1_addr [4:0] $end
$var wire 5 K% rs2_addr [4:0] $end
$var wire 1 ~ we $end
$var wire 32 L% rs2_data [31:0] $end
$var wire 32 M% rs1_data [31:0] $end
$var integer 32 N% i [31:0] $end
$upscope $end
$upscope $end
$scope module u_plic $end
$var wire 1 # clk $end
$var wire 24 O% off [23:0] $end
$var wire 1 P% prio_acc $end
$var wire 1 $ rst_n $end
$var wire 1 Q% sel $end
$var wire 4 R% src [4:1] $end
$var wire 32 S% wdata [31:0] $end
$var wire 1 T% we $end
$var wire 32 U% prio_id [31:0] $end
$var wire 1 2 meip $end
$var parameter 32 V% N $end
$var parameter 24 W% O_CLAIM $end
$var parameter 24 X% O_ENABLE $end
$var parameter 24 Y% O_PENDING $end
$var parameter 24 Z% O_THRESH $end
$var reg 3 [% best_id [2:0] $end
$var reg 3 \% best_pri [2:0] $end
$var reg 4 ]% enable [4:1] $end
$var reg 4 ^% inservice [4:1] $end
$var reg 4 _% ip [4:1] $end
$var reg 32 `% rdata [31:0] $end
$var reg 3 a% threshold [2:0] $end
$var integer 32 b% i [31:0] $end
$upscope $end
$scope module u_uart $end
$var wire 1 # clk $end
$var wire 4 c% off [3:0] $end
$var wire 1 $ rst_n $end
$var wire 1 + sel $end
$var wire 8 d% wdata [7:0] $end
$var wire 1 e% we $end
$var wire 32 f% rdata [31:0] $end
$var reg 8 g% tx_byte [7:0] $end
$var reg 1 ! tx_stb $end
$upscope $end
$upscope $end
$upscope $end
$enddefinitions $end
$comment Show the parameter values. $end
$dumpall
b1000000000000000000000 Z%
b1000000000000 Y%
b10000000000000 X%
b1000000000000000000100 W%
b100 V%
b0 >%
b10 =%
b1 <%
b1000 k$
b1 j$
b10 i$
b0 h$
b11 g$
b1 p"
b10 o"
b0 n"
b10000000000000000000000000000000 m"
b1 l"
b10 k"
b0 j"
b10000000000000000000000000000000 ;
b10000000000000000 :
$end
#0
$dumpvars
b0 g%
b0 f%
0e%
b0 d%
b0 c%
b101 b%
b0 a%
b0 `%
b0 _%
b0 ^%
b0 ]%
b0 \%
b0 [%
b111111111111111111111111111111 U%
0T%
b0 S%
bz R%
0Q%
0P%
b0 O%
b100000 N%
b0 M%
b0 L%
b0 K%
b0 J%
b0 I%
b0 H%
b0 G%
b0 F%
b0 E%
0D%
0C%
b0 B%
b0 A%
b0 @%
b0 ?%
b0 ;%
b0 :%
b1 9%
b0 8%
b0 7%
b0 6%
b0 5%
b0 4%
b0 3%
12%
b0 1%
b0 0%
b0 /%
b0 .%
0-%
0,%
b0 +%
0*%
0)%
1(%
1'%
b0 &%
b0 %%
bx $%
x#%
x"%
x!%
x~$
bx }$
x|$
x{$
bx z$
xy$
b1000 x$
bx w$
b0 v$
b0 u$
b0 t$
bx s$
bx r$
0q$
b0 p$
0o$
b0 n$
b0 m$
bx l$
b0 f$
b10000000000000000000000000000000 e$
0d$
b0 c$
0b$
b11 a$
0`$
b0 _$
0^$
0]$
1\$
1[$
b0 Z$
b0 Y$
b10011 X$
b0 W$
b0 V$
b0 U$
b0 T$
b0 S$
b0 R$
b0 Q$
b0 P$
b0 O$
b0 N$
b0 M$
b0 L$
b0 K$
b0 J$
b0 I$
b10011 H$
b0 G$
b0 F$
b0 E$
b0 D$
b0 C$
b0 B$
0A$
0@$
0?$
b0 >$
b0 =$
b0 <$
b0 ;$
b11 :$
b0 9$
b0 8$
b0 7$
b0 6$
05$
b0 4$
b0 3$
02$
b0 1$
b0 0$
b0 /$
b0 .$
b0 -$
0,$
b10000000000000000000000000000000 +$
0*$
b0 )$
b0 ($
b0 '$
b0 &$
0%$
b0 $$
b0 #$
b0 "$
b10 !$
0~#
b0 }#
b0 |#
b0 {#
b0 z#
0y#
b11 x#
b0 w#
b0 v#
0u#
b100010001000 t#
b0 s#
b0 r#
b0 q#
b1111111111111111111111111111111111111111111111111111111111111111 p#
b0 o#
0n#
b0 m#
b0 l#
b0 k#
b0 j#
b0 i#
b0 h#
b0 g#
b0 f#
b0 e#
b0 d#
b0 c#
b0 b#
b0 a#
b0 `#
bx _#
x^#
bx ]#
b0 \#
0[#
bx Z#
b10000000000000000000000000000000 Y#
b0 X#
0W#
b0 V#
b0 U#
b0 T#
b10011 S#
b0 R#
b1 Q#
b0 P#
b0 O#
0N#
b0 M#
b0 L#
b10011 K#
0J#
b0 I#
0H#
0G#
0F#
0E#
0D#
b0 C#
b0 B#
b0 A#
b0 @#
0?#
b0 >#
b0 =#
b0 <#
0;#
0:#
09#
08#
07#
06#
05#
04#
03#
b10011 2#
b0 1#
00#
b0 /#
x.#
b0 -#
0,#
b0 +#
b0 *#
0)#
0(#
b0 '#
b0 &#
0%#
b0 $#
0##
b0 "#
0!#
b0 ~"
b0 }"
0|"
0{"
0z"
0y"
0x"
b10011 w"
b0 v"
b0 u"
b0 t"
b0 s"
b0 r"
1q"
b0 i"
0h"
0g"
b0 f"
0e"
b0 d"
b11 c"
b0 b"
b0 a"
b0 `"
b0 _"
b0 ^"
b0 ]"
b0 \"
b0 ["
b0 Z"
b0 Y"
b0 X"
b0 W"
1V"
b0 U"
b0 T"
b0 S"
b0 R"
b0 Q"
b10 P"
b0 O"
b0 N"
1M"
b0 L"
b0 K"
0J"
1I"
b0 H"
b0 G"
0F"
b0 E"
0D"
0C"
0B"
b0 A"
b0 @"
0?"
0>"
0="
0<"
0;"
0:"
09"
08"
07"
b10011 6"
b0 5"
14"
b0 3"
b0 2"
b0 1"
b0 0"
b0 /"
b0 ."
0-"
0,"
0+"
0*"
b0 )"
b10000000000000000000000000000000 ("
b10000000000000000000000000000000 '"
0&"
0%"
b0 $"
b0 #"
b0 ""
b0 !"
0~
b1 }
0|
0{
b0 z
bx y
0x
b0 w
0v
0u
b0 t
b10000000000000000000000000000100 s
b10000000000000000000000000000100 r
b10 q
0p
b0 o
0n
0m
0l
0k
0j
0i
0h
0g
0f
0e
0d
0c
0b
0a
0`
0_
0^
0]
0\
b0 [
0Z
0Y
0X
0W
b10000000000000000010100110111 V
0U
0T
0S
0R
b10000000000000000010100110111 Q
0P
0O
0N
0M
0L
0K
0J
0I
0H
0G
0F
0E
b0 D
0C
0B
0A
b0 @
0?
0>
0=
0<
b0 9
b0 8
07
b0 6
05
b0 4
b10000000000000000000000000000000 3
02
b0 1
00
b0 /
0.
b0 -
b0 ,
0+
b0 *
bz )
b10000000000000000010100110111 (
b0 '
b10000000000000000 &
b0 %
0$
0#
b0 "
0!
$end
#5000
b101 b%
b1000 x$
1#
#10000
0#
#15000
b1000 x$
b101 b%
1#
#20000
0#
#25000
b101 b%
b1000 x$
1#
#30000
0#
#35000
b1000 x$
b101 b%
1#
#40000
1$
0#
#45000
b100 f$
b1010 H"
b1010 J$
b11 @"
b11 L$
b11 W$
1I"
14"
b1010000010100010011 Q
b1010000010100010011 (
b1010000010100010011 V
b1 /
b1000 x$
b110111 6"
b110111 H$
b1010 5"
b100000000 E$
b10 G$
b10000000000000000000000000000 A"
b10000000000000000000000000000 Y$
b10000000000000000000000000001000 s
b10000000000000000000000000000100 3
b10000000000000000000000000000100 ("
b10000000000000000000000000000100 e$
0.#
1)#
1?#
1N#
b10000000000000000010100110111 K#
b10000000000000000010100110111 X$
b10000000000000000000000000000100 M#
b10000000000000000000000000000000 L#
b10000000000000000000000000001000 r
b10000000000000000000000000000100 Y#
b1 o#
b101 b%
1#
#50000
0#
#55000
b10000000000000000000000000000 U"
b10000000000000000000000000000 R"
b1000 f$
b10010000000000000000000000000000 S"
b101001000000000010110010011 Q
b101001000000000010110010011 (
b101001000000000010110010011 V
b10 /
b1000 x$
b0 @"
b0 L$
b0 W$
b0 H"
b0 J$
1I"
14"
0V"
b10000000000000000000000000000 [
b10000000000000000000000000000 W"
b10000000000000000000000000000 e#
b10000000000000000000000000001100 s
b10000000000000000000000000001000 3
b10000000000000000000000000001000 ("
b10000000000000000000000000001000 e$
b10011 6"
b10011 H$
b1010 3"
b1010 U$
b1010 J%
b0 E$
b0 G$
b0 A"
b0 Y$
1e"
b10000000000000000000000000000 X"
b10000000000000000000000000000 c#
b10010000000000000000000000000000 Q"
b10000000000000000000000000000 D
b10 o#
b10000000000000000000000000001100 r
b10000000000000000000000000001000 Y#
b1010000010100010011 K#
b1010000010100010011 X$
b10000000000000000000000000001000 M#
b10000000000000000000000000000100 L#
b10000000000000000010100110111 2#
1H#
b100000000 -#
b100000000 r#
b1010 >#
b1010 T$
b10000000000000000000000000000100 =#
b10000000000000000000000000000000 <#
b10000000000000000000000000000000 "$
b10010000000000000000000000000000 T"
b10000000000000000000000000000 1#
b1010 *#
b1010 b#
1!#
b101 b%
1#
#60000
0#
#65000
b10000000000000000000000000000 U"
b10000000000000000000000000000 R"
b10000000000000000000000000000 Y"
b10000000000000000000000000000 a#
b10000000000000000000000000000 _"
b10000000000000000000000000000 ;%
0q"
b10000000000000000000000000000100 S"
b1100 f$
1+
b10000000000000000000000000000 7%
b10000000000000000000000000000 6%
b10000000000000000000000000000 r"
b10000000000000000000000000000 %%
0V"
b10000000000000000000000000000 [
b10000000000000000000000000000 W"
b10000000000000000000000000000 e#
1I"
14"
b101101010000000000100011 Q
b101101010000000000100011 (
b101101010000000000100011 V
b11 /
b1000 x$
b10000000000000000000000000000 N"
b10000000000000000000000000000 9
b10000000000000000000000000000 \"
0e"
b10 L"
b10 R$
b0 X"
b0 c#
b10000000000000000000000000000100 Q"
b10000000000000000000000000000 D
b1011 5"
b0 3"
b0 U$
b0 J%
b10010 0"
b10010 V$
b10010 K%
b1010010 E$
b1010010 A"
b1010010 Y$
b10000000000000000000000000010000 s
b10000000000000000000000000001100 3
b10000000000000000000000000001100 ("
b10000000000000000000000000001100 e$
1~
b10000000000000000010100110111 w"
1##
b1010 ~"
b1010 N$
b10000000000000000000000000000100 }"
b10000000000000000000000000000 t"
b1010000010100010011 2#
b0 -#
b0 r#
b1010 @#
b1010 O$
b10000000000000000000000000001000 =#
b10000000000000000000000000000100 <#
b10000000000000000000000000000100 "$
b10000000000000000000000000000100 T"
b0 1#
b0 *#
b0 b#
b101001000000000010110010011 K#
b101001000000000010110010011 X$
b10000000000000000000000000001100 M#
b10000000000000000000000000001000 L#
b10000000000000000000000000010000 r
b10000000000000000000000000001100 Y#
b11 o#
b101 b%
1#
#70000
0#
